<?xml version="1.0" encoding="utf-8"?>
<!DOCTYPE svg PUBLIC "-//W3C//DTD SVG 1.1//EN" "http://www.w3.org/Graphics/SVG/1.1/DTD/svg11.dtd">
<svg xmlns="http://www.w3.org/2000/svg" version="1.1" width="19px" height="19px" viewBox="0 0 19 19">
  <circle cx="8.5" cy="8.5" r="7.5" stroke="#000000" stroke-width="1.5" fill-opacity="0"/>
  <line x1="5" y1="9" x2="12" y2="9" stroke="#000000" stroke-width="1.5"/>
  <line x1="14" y1="14" x2="19" y2="19" stroke="#000000" stroke-width="1.5"/>
</svg>
