<?xml version="1.0" encoding="utf-8"?>
<!-- Generator: Adobe Illustrator 18.1.1, SVG Export Plug-In . SVG Version: 6.00 Build 0)  -->
<svg version="1.1" id="Calque_1" xmlns="http://www.w3.org/2000/svg" x="0px" y="0px"
     viewBox="0 0 100 100" enable-background="new 0 0 100 100" xml:space="preserve">
<g>
	<polygon fill="#1D1D1B" points="50,99.804 78,82.866 78,49.927 50,66.865 	"/>
	<polygon fill="#1D1D1B" points="50,33.372 50,-0.196 21,16.742 21,50.726 49.75,33.934 78,49.927 78,16.794 	"/>
	<polygon fill="#1D1D1B" points="49.608,66.921 21,50.726 21,83.859 	"/>
</g>
</svg>
