<?xml version="1.0" ?><!DOCTYPE svg  PUBLIC '-//W3C//DTD SVG 1.1//EN'  'http://www.w3.org/Graphics/SVG/1.1/DTD/svg11.dtd'>
<svg enable-background="new 0 0 32 32" height="32px" id="Layer_1" version="1.1" viewBox="0 0 32 32" width="32px"
     xml:space="preserve" xmlns="http://www.w3.org/2000/svg"><path d="M28.619,8.958h-0.764V8.325c0-1.101-0.898-1.99-2-1.99H15.542c-1.609,0-2.27,1.114-3.4,2.623H3.39  c-1.261,0-2.298,1.038-2.298,2.3v12.614c0,1.262,1.037,2.294,2.298,2.294h25.229c1.261,0,2.289-1.032,2.289-2.294V11.257  C30.908,9.996,29.88,8.958,28.619,8.958z" fill="#515151"/></svg>
