﻿<?xml version="1.0" encoding="utf-8"?>
<!-- (c) ammap.com | SVG map of Armenia - Low -->
<svg xmlns="http://www.w3.org/2000/svg" xmlns:amcharts="http://amcharts.com/ammap" version="1.1">
	<defs>
		<style type="text/css">
			.land
			{
				fill: #CCCCCC;
				fill-opacity: 1;
				stroke:white;
				stroke-opacity: 1;
				stroke-width:0.5;
			}
		</style>

		<amcharts:ammap projection="mercator" leftLongitude="43.454090" topLatitude="41.300808" rightLongitude="46.632730" bottomLatitude="38.832890"></amcharts:ammap>

		<!-- All areas are listed in the line below. You can use this list in your script. -->
		<!--{id:"AM-AG"},{id:"AM-AR"},{id:"AM-AV"},{id:"AM-ER"},{id:"AM-GR"},{id:"AM-KT"},{id:"AM-LO"},{id:"AM-SH"},{id:"AM-SU"},{id:"AM-TV"},{id:"AM-VD"}-->

	</defs>
	<g>
		<path id="AM-AG" title="Aragac̣otn" class="land" d="M184.28,600.1L190.9,599.23L195.03,601.55L202.11,610.09L212.44,610.09L213.91,602.72L218.93,601.94L223.36,601.94L234.86,608.92L239.88,606.6L246.08,613.19L245.82,624.56L245.82,624.56L245.49,626.76L251.98,634.9L254.04,640.32L262.89,650.78L284.43,655.42L281.78,669.35L273.81,681.73L270.27,681.73L271.15,692.94L266.44,702.98L264.96,719.58L256.99,719.2L254.63,725.37L236.63,743.88L235.75,746.58L237.22,749.28L247.55,747.35L249.32,750.43L249.91,754.29L245.6,764.46L245.6,764.46L240.47,773.16L240.47,777.87L240.47,777.87L212,766.93L204.75,758.85L192.81,769.71L185.99,768.04L181.94,762.75L179.59,763.58L180.87,783.62L177.88,785.84L155.49,785.29L121.8,776.94L111.99,776.11L101.11,767.2L97.91,766.37L97.27,761.64L83.2,759.97L75.52,756.35L61.23,757.46L54.29,762.49L54.29,762.49L46.27,758.9L44.29,748.32L32.76,735.65L41.56,718.92L39.48,709.28L35.56,705.52L35.56,705.52L50.1,702.43L66.88,686.93L76.41,686.06L85.62,682.62L94.83,686.93L105.68,684.77L113.9,689.51L120.81,689.51L128.37,685.2L132.65,685.2L137.25,686.49L143.17,692.53L147.77,692.96L153.36,690.37L166.85,691.66L177.04,687.79L180.66,684.34L183.62,684.34L184.94,677.45L179.34,670.98L179.02,667.1L179.02,661.49L181.98,653.73L170.14,652.01L169.15,642.08L161.59,630.42L161.26,625.67L162.24,620.92L170.47,613.14L183.29,611.41z"/>
		<path id="AM-AR" title="Ararat" class="land" d="M233.07,847.25L228.91,841.82L219.29,838.02L219.29,838.02L221.07,819.33L215.1,811.55L215.31,804.61L223.41,802.66L234.29,802.94L244.49,805.46L244.49,805.46L251.09,812.01L259.94,813.93L270.27,821.61L276.76,815.08L284.43,813.55L295.06,805.09L300.22,796.82L300.22,796.82L299.63,810.66L302.87,815.66L314.38,817.2L316.45,816.43L317.92,811.05L321.46,811.05L326.77,807.2L330.31,807.59L333.56,800.67L351.12,799.71L355.25,790.48L359.67,788.55L364.39,788.94L369.71,786.63L394.74,786.51L394.74,786.51L396.11,789.13L392.57,808.36L392.57,818.35L413.52,850.21L414.7,876.28L413.23,888.93L415.21,892.47L415.21,892.47L407.62,898.5L404.37,903.85L402.11,915.59L402.11,915.59L394.03,919.9L389.01,929.43L377.62,935.27L326.31,941.11L325.47,934.81L319.66,933.58L315.05,924L310.83,924.04L312.54,917.44L310.22,915.63L304.49,917.51L291.1,908.57L292.08,904.4L286.11,905.31L284.95,897.23L276.79,888.52L275.13,879.97L266.52,872.64L257.96,860.12L252.2,858.45L240.63,848.79z"/>
		<path id="AM-AV" title="Armavir" class="land" d="M54.29,762.49L61.23,757.46L75.52,756.35L83.2,759.97L97.27,761.64L97.91,766.37L101.11,767.2L111.99,776.11L121.8,776.94L155.49,785.29L177.88,785.84L180.87,783.62L179.59,763.58L181.94,762.75L185.99,768.04L192.81,769.71L204.75,758.85L212,766.93L240.47,777.87L240.47,777.87L245.27,786.4L243.56,798.07L245.38,799.33L244.49,805.46L244.49,805.46L234.29,802.94L223.41,802.66L215.31,804.61L215.1,811.55L221.07,819.33L219.29,838.02L219.29,838.02L215.72,836.07L211.48,837.18L206.5,833.09L201.62,832.57L193.42,834.88L191.69,836.93L184.74,837.28L183.72,839.81L168.07,839.69L165.56,837.87L153.69,840.58L134.34,840.12L128.45,842.7L112.51,842.8L87.61,829.76L78.7,822.99L65.94,822.94L60.21,817.91L51.93,814.49L48.41,810L48.85,802.73L52.16,798.15L64.67,794.78L63.07,790.45L48.8,777.27L49.51,774.64L56.77,774.11L56.71,764.81z"/>
		<path id="AM-ER" title="Erevan" class="land" d="M240.47,777.87L240.47,773.16L245.6,764.46L245.6,764.46L249.32,768.54L260.83,768.15L273.81,763.53L280.6,764.69L282.66,771.23L299.48,784.32L302.43,789.32L300.22,796.82L300.22,796.82L295.06,805.09L284.43,813.55L276.76,815.08L270.27,821.61L259.94,813.93L251.09,812.01L244.49,805.46L244.49,805.46L245.38,799.33L243.56,798.07L245.27,786.4z"/>
		<path id="AM-GR" title="Geġark'unik'" class="land" d="M509.02,654.68l-3.56,-0.93l-3.92,-14.8l6.41,-9.82l8.78,1.09l4.87,5.45l-1.07,8.1l-6.77,3.74l-2.25,5.92L509.02,654.68zM339.31,636.45l11.1,0.19l13.42,-12.8l14.36,8.73l6.05,0.94l11.88,-2.3l15.63,-16.57l9.14,-4.37l17.04,-2.85l14.9,3.42l7.81,3.73l15.05,14.14l0,0l-1.67,5.97l6.26,6.29l-0.93,7.69l4.13,3.84l7.12,0.31l5.94,6.38l-3.92,5.6l1.31,3.89l-2.61,4.2l0.95,5.29l3.82,5.6l12.12,8.23l0.67,5.08l5.1,5.59l9.38,5.59l6.65,-0.47l3.68,2.33l8.43,7.92l0.83,4.19l3.8,5.12l10.8,0.16l5.48,4.19l11.37,2.48l5.43,6.55l20.46,5.86l5.09,5.57l11.52,-0.3l6.77,4.96l0.03,5.79l-4.64,1.27l-0.14,2.31l10.25,13.45l-3.73,8.34l-1.65,18.51l-12.57,6.31l0.94,9.92l-6.9,17.27l-8.93,2.85l-1.5,5.36l-1.66,0.62l-11.51,-10.8l-3.8,1.54l-20.03,-0.88l-5.1,-1.7l-5.22,2.78l-8.19,0.15l-2.24,2.14l-1.43,6.66l-5.87,0.08l0,0l-5.02,-3.58l-7.97,-0.38l-1.77,5.76l-5.9,4.6l-12.39,3.07l-28.62,1.54l-23.6,8.43l-12.98,9.97l-10.33,11.49l-5.98,2.78l0,0l-1.99,-3.55l1.48,-12.64l-1.18,-26.07l-20.95,-31.86v-9.99l3.54,-19.23l-1.37,-2.62l0,0l-1.14,-2.57l-5.02,-3.08l-3.83,0.39l-3.54,-1.92l-4.42,-6.16l-1.77,-11.94l-3.8,-6.44l-10.24,-47.71l7.84,-10.27l-10.33,-2.7l-5.82,-5.29l-6.23,-19.64l-8.31,-4.07l-0.19,-28.99l0,0L339.31,636.45z"/>
		<path id="AM-KT" title="Kotayk'" class="land" d="M337.94,636.11L338.13,665.1L346.44,669.17L352.67,688.81L358.49,694.1L368.82,696.8L360.98,707.07L371.22,754.78L375.02,761.22L376.79,773.16L381.21,779.32L384.75,781.24L388.59,780.86L393.6,783.94L394.74,786.51L394.74,786.51L369.71,786.63L364.39,788.94L359.67,788.55L355.25,790.48L351.12,799.71L333.56,800.67L330.31,807.59L326.77,807.2L321.46,811.05L317.92,811.05L316.45,816.43L314.38,817.2L302.87,815.66L299.63,810.66L300.22,796.82L300.22,796.82L302.43,789.32L299.48,784.32L282.66,771.23L280.6,764.69L273.81,763.53L260.83,768.15L249.32,768.54L245.6,764.46L245.6,764.46L249.91,754.29L249.32,750.43L247.55,747.35L237.22,749.28L235.75,746.58L236.63,743.88L254.63,725.37L256.99,719.2L264.96,719.58L266.44,702.98L271.15,692.94L270.27,681.73L273.81,681.73L281.78,669.35L284.43,655.42L262.89,650.78L254.04,640.32L251.98,634.9L245.49,626.76L245.82,624.56L245.82,624.56L258.17,615.52L277.06,614.36L281.78,616.68L286.5,616.68L289.45,614.74L293.88,614.74L332.25,631.78L332.25,631.78L334.61,635.29L334.61,635.29z"/>
		<path id="AM-LO" title="Loṙy" class="land" d="M355.98,435.25L358.58,441.16L365.2,444.61L367.09,447.74L366.39,450.87L360.47,457.45L353.14,459.96L347.93,464.97L352.79,470.65L368.11,480.17L372.56,485.82L371.04,491.94L367.57,496.64L358.23,501.7L339.98,506.4L335.35,515.1L336.68,524.97L342.38,528.73L359.47,533.15L362.41,537.73L362.41,541.02L361.07,544.07L356.18,547.24L350.3,568.94L341.67,576.55L329.92,583.07L325.82,590.1L325.11,596.07L332.77,601.22L328.14,606.02L328.58,608.83L336.07,618.98L332.25,631.78L332.25,631.78L293.88,614.74L289.45,614.74L286.5,616.68L281.78,616.68L277.06,614.36L258.17,615.52L245.82,624.56L245.82,624.56L246.08,613.19L239.88,606.6L234.86,608.92L223.36,601.94L218.93,601.94L213.91,602.72L212.44,610.09L202.11,610.09L195.03,601.55L190.9,599.23L184.28,600.1L184.28,600.1L184.28,598L169.15,598.87L168.82,592.81L161.26,589.35L153.04,590.65L147.77,581.13L146.79,565.54L149.09,560.77L157.31,554.71L166.19,553.41L169.81,550.8L172.11,547.77L170.79,539.96L175.4,539.96L178.69,536.49L182.96,526.08L179.02,523.91L165.53,524.34L165.2,510.02L162.57,506.11L158.96,504.8L156,496.11L147.12,493.51L141.53,488.29L141.2,469.59L143.74,462.41L143.74,462.41L152.59,459.02L174.61,458.88L180.34,441.53L186.56,444.72L191.98,444.09L199.69,451.56L203.7,452.74L210.63,451.16L216.76,455.88L219.57,455.69L222.99,445.17L229.01,448.6L235.25,455.69L240.54,457.3L248.15,462.76L252.25,462.29L260.06,457.84L265.02,448.5L266.71,448.15L267.87,448.85L266.27,457.81L277.31,453.8L280.78,458.05L286.12,442.25L294.31,444.25L303.03,442.84L305.88,449.21L312.59,449.86L314.85,454.11L319.74,449.77L336.04,449.02L344.42,452.54L353.5,453.35L357.58,451.78L356.35,448.7L351.03,449.26L339.97,445.8L334.41,439.51L333.84,430.83L336.08,423.4L340.73,422.96L345.86,429.32L355.83,432.65z"/>
		<path id="AM-SH" title="Širak" class="land" d="M64.73,584.59L63.74,580.28L57.92,572.16L56.62,564.65L58.04,553.08L55.91,542.6L42.73,530.85L32.74,524.82L27.34,524.08L19.69,517.27L8.57,515.76L5.95,511.5L5.51,497.19L0.91,492.19L0,487.91L4.17,479.41L8.98,479.42L26.07,473.16L31.33,473.55L39.9,479.05L43.76,477.48L58.89,477.08L76.07,485.72L84.33,475.1L96.72,467.66L119.27,464.52L127.43,467.27L135.44,461.38L143.74,462.41L143.74,462.41L141.2,469.59L141.53,488.29L147.12,493.51L156,496.11L158.96,504.8L162.57,506.11L165.2,510.02L165.53,524.34L179.02,523.91L182.96,526.08L178.69,536.49L175.4,539.96L170.79,539.96L172.11,547.77L169.81,550.8L166.19,553.41L157.31,554.71L149.09,560.77L146.79,565.54L147.77,581.13L153.04,590.65L161.26,589.35L168.82,592.81L169.15,598.87L184.28,598L184.28,600.1L184.28,600.1L183.29,611.41L170.47,613.14L162.24,620.92L161.26,625.67L161.59,630.42L169.15,642.08L170.14,652.01L181.98,653.73L179.02,661.49L179.02,667.1L179.34,670.98L184.94,677.45L183.62,684.34L180.66,684.34L177.04,687.79L166.85,691.66L153.36,690.37L147.77,692.96L143.17,692.53L137.25,686.49L132.65,685.2L128.37,685.2L120.81,689.51L113.9,689.51L105.68,684.77L94.83,686.93L85.62,682.62L76.41,686.06L66.88,686.93L50.1,702.43L35.56,705.52L35.56,705.52L30.23,700.25L25.61,699.17L22.75,693.55L25.07,692.74L25.4,689.08L40.12,678.29L43.03,679.66L44.27,673.84L48.29,675.75L46.8,666.76L53.77,664.66L58.4,659.21L66.82,642.39L68.72,633.82L73.75,626.97L71.69,614.96L73.41,608.83z"/>
		<path id="AM-SU" title="Syunik'" class="land" d="M589.64,995.88L587.38,986.93L582.03,981.86L566.16,978.11L566.16,978.11L564.84,951.11L568.82,940.81L565.98,929.52L566.74,919.94L581.9,897.82L589.06,893.44L589.06,893.44L592.63,903.34L605.33,906.73L614.36,912.87L626.81,914.11L629.54,915.81L634.87,921.81L637.08,928.76L643.04,934.33L644.97,939.37L651.28,943.3L649.98,946.2L650.93,949.73L652.47,951.12L656.98,947.89L659.48,948.35L668.26,957.88L675.62,962.94L677.31,966.39L678.23,980.48L683.1,976.14L698.76,976.6L713.83,966.63L726.27,965.69L728.85,973.12L732.85,972.67L738.22,966.98L739.65,967.59L738.58,982.78L740,985.39L745.54,986.98L747.7,985.06L751.33,986.29L754.27,983.81L766.87,982.22L775.61,986.93L779.76,991.99L780.24,998.12L772.3,995.89L761.15,1004.68L762.1,1010.15L771.85,1021.08L763.08,1019.08L759.22,1015.58L749.87,1026.75L736.68,1024.85L731.29,1034.43L731.81,1043.69L737.16,1053.93L753.96,1065.23L761,1060.48L768.14,1069.89L768.25,1072.73L765.05,1077.31L772.19,1088.8L779.12,1091.21L782.59,1097.96L792,1100.13L778.22,1102.71L778.05,1107.15L769.68,1118.42L767.54,1116.9L765.4,1106.38L762.55,1105.35L760.54,1107.82L760.89,1113.7L751.49,1108.05L746.33,1107.89L744.49,1109.99L746.65,1122.26L753.38,1125.04L757.24,1123.39L759.38,1124.71L757.51,1130.64L761.59,1133.44L762.64,1139.17L768.9,1144.84L765.45,1151.46L771.62,1154.27L768.25,1160.4L770.86,1172.12L764.81,1174.24L765.64,1181.69L760.42,1185.8L760.3,1188.08L760.66,1191.42L768.49,1204.03L770.47,1212.01L767.98,1213.86L765.63,1213.14L764,1207.9L755.45,1209.28L748.07,1205.63L740.95,1206.04L737.81,1208.17L725.88,1199.35L719.83,1198.29L712.23,1203.91L704.75,1203.3L704.64,1209.98L702.86,1212.41L700.72,1212.26L701.19,1206.49L698.7,1204.37L695.73,1212.56L691.58,1212.56L690.63,1214.84L692.95,1220.94L691.76,1222.16L689.01,1219.08L689.01,1219.08L688.81,1218.55L688.81,1218.55L684.16,1217.15L679.06,1223.22L676.69,1222.01L676.8,1218.21L675.14,1217L672.75,1224L669.09,1223.68L670.28,1208.04L663.63,1191.64L660.57,1166.96L654.49,1161.91L653.9,1147.3L652.36,1144.56L641.82,1138.22L641.97,1128.33L637.16,1121.85L638.34,1114.71L634.87,1111.19L634.04,1101.99L633.78,1091.09L636.69,1087.44L637.16,1082.55L635.18,1075.78L626.9,1073.79L601.35,1055.4L589.65,1053.92L584.56,1049.6L583.95,1042.41L595.45,1024.54L594.1,1016.7L590.69,1011.53L591.47,1001.17z"/>
		<path id="AM-TV" title="Tavuš" class="land" d="M475.7,628.71L460.66,614.57L452.85,610.84L437.95,607.42L420.9,610.27L411.76,614.64L396.13,631.2L384.25,633.5L378.2,632.57L363.84,623.84L350.42,636.63L339.31,636.45L339.31,636.45L334.61,635.29L334.61,635.29L332.25,631.78L332.25,631.78L336.07,618.98L328.58,608.83L328.14,606.02L332.77,601.22L325.11,596.07L325.82,590.1L329.92,583.07L341.67,576.55L350.3,568.94L356.18,547.24L361.07,544.07L362.41,541.02L362.41,537.73L359.47,533.15L342.38,528.73L336.68,524.97L335.35,515.1L339.98,506.4L358.23,501.7L367.57,496.64L371.04,491.94L372.56,485.82L368.11,480.17L352.79,470.65L347.93,464.97L353.14,459.96L360.47,457.45L366.39,450.87L367.09,447.74L365.2,444.61L358.58,441.16L355.98,435.25L355.98,435.25L357.44,430.83L361.8,435.5L372.08,436.93L376.49,430.83L386.86,422.88L396.39,438.88L394.59,448.51L389.95,451.98L390.26,454.35L395.19,454.35L402.61,461.89L405.4,461.81L408.26,457.13L414.77,454.03L424.7,465.21L431.89,466.39L433.9,468.51L434.5,473.3L429.96,478.73L418.9,482.81L406.64,484.29L403.64,486.48L396.78,501.01L400.1,506.52L403.27,506.3L408.03,502.88L414.4,503.07L414.19,492.72L417.56,490.67L423.99,495.37L423.46,503.92L427.92,503.39L435.1,506.06L442.66,516.58L447.02,515.07L450.11,509.74L453.87,508.9L460.22,519.92L467.71,519.46L472.63,521.26L485.82,512.77L491.72,512.04L494.11,514.55L492.99,516.9L484.86,524.18L487.7,531.47L491.23,532.67L497.45,530.64L504.09,538.62L503.5,544.1L509.38,544.88L514.42,550.36L523.02,553.64L524.92,558.34L530.26,555.75L533.45,558.54L536.26,570.66L533.23,577.61L526.82,583.47L521.42,592.68L519.35,594.87L509.97,595.88L503.44,601.82L491.1,604.27L483.27,609.1L481.25,611.91L482.2,618.15L480.54,619.87L478.52,617.53L475.79,617.84z"/>
		<path id="AM-VD" title="Vayoc Jor" class="land" d="M408.31,917.04L402.11,915.59L402.11,915.59L404.37,903.85L407.62,898.5L415.21,892.47L415.21,892.47L421.19,889.69L431.52,878.2L444.5,868.23L468.11,859.8L496.73,858.27L509.12,855.2L515.02,850.6L516.79,844.84L524.76,845.22L529.78,848.8L529.78,848.8L535.77,848.79L537.31,855.04L538.98,855.97L550.01,855.51L560.93,857.67L568.05,863.68L581.58,865.84L585.04,872.22L582.07,877.31L587.53,887.02L589.06,893.44L589.06,893.44L581.9,897.82L566.74,919.94L565.98,929.52L568.82,940.81L564.84,951.11L566.16,978.11L566.16,978.11L560.08,975.81L554.71,981.23L548.43,982.63L542.38,987.39L533.12,986.01L527.9,993.21L521.73,994.9L518.85,999.54L506.98,1009.51L499.41,1008.93L493.52,999.41L488.05,999.58L484.32,996.74L475.42,997.04L473.05,995.67L466.04,989.23L461.21,977.81L456.83,974.58L449.79,973.63L447.58,974.83L441.88,983.34L438.9,983.67L431.63,980.33L431.72,965.95L433.52,962.07L431.15,959.92L431.03,955.93L433.55,952.98L431.87,947.77L424.66,939.94L417.4,925.52z"/>
	</g>
</svg>
