<?xml version="1.0" encoding="utf-8"?>
<!-- (c) ammap.com | SVG map of Belize - High -->
<svg xmlns="http://www.w3.org/2000/svg" xmlns:amcharts="http://amcharts.com/ammap" version="1.1">
	<defs>
		<style type="text/css">
			.land
			{
				fill: #CCCCCC;
				fill-opacity: 1;
				stroke:white;
				stroke-opacity: 1;
				stroke-width:0.5;
			}
		</style>

		<amcharts:ammap projection="mercator" leftLongitude="-89.224389" topLatitude="18.497391" rightLongitude="-87.485499" bottomLatitude="15.892503"></amcharts:ammap>

		<!-- All areas are listed in the line below. You can use this list in your script. -->
		<!--{id:"BZ-BZ"},{id:"BZ-CY"},{id:"BZ-CZL"},{id:"BZ-OW"},{id:"BZ-SC"},{id:"BZ-TOL"}-->

	</defs>
	<g>
		<path id="BZ-BZ" title="Belize" class="land" d="M386.45,403.44l0.24,1.27l0.57,0.17l-0.65,0.68l-1.62,0.25l-0.81,-0.51l1.46,-1.77L386.45,403.44zM387.1,402.17l-0.4,1.01l-0.49,-0.25l0.16,-0.59L387.1,402.17zM332.71,396.26l0.98,1.6v0.76l-0.49,0.25l0.33,0.76l-1.7,0.51l0.33,0.51l-0.32,0.34l-0.49,-0.84l0.57,-0.59l-0.16,-0.59L332.71,396.26zM492.63,393.73l1.06,0.51l0.57,-0.34l0.89,0.34l-0.89,-0.08l-0.57,0.68h-0.57l-1.05,-0.68L492.63,393.73zM385.48,391.7l0.65,0.68l-0.08,0.51h-0.97L385.48,391.7zM385.72,390.43l0.16,1.27l-0.41,-1.1L385.72,390.43zM476.64,389.25l0.98,0.59l0.08,1.01l1.14,0.68l-0.16,1.44l-0.73,1.18l-2.84,1.86v0.51l-1.14,0.84l-0.08,0.42l0.57,0.09l-0.24,0.68l-1.06,0.17l0.08,-1.52l1.3,-1.52l1.38,-4.81l-0.24,-1.44L476.64,389.25zM330.6,387.14l0.65,0.51l-0.4,1.69l-0.41,-0.25L330.6,387.14zM332.95,384.61l-0.4,2.45l0.41,1.18l-0.57,0.51l0.49,0.42l-0.41,0.59h-0.57l-0.41,-0.68l0.81,-2.11l-0.49,-1.44L332.95,384.61zM381.34,384.27l0.57,0.85l-0.49,0.59l-0.32,-0.17L381.34,384.27zM383.61,383.93v1.01l-0.32,0.17L383.61,383.93zM387.02,382.92l1.46,0.17l0.16,0.84l-0.97,1.44l-1.38,0.34l0.24,1.1l0.41,0.17l-0.32,0.59l-0.57,-0.51v-1.52l1.22,-1.52l-0.49,-0.84L387.02,382.92zM397.98,381.82l1.14,0.68l0.65,2.28l-1.63,1.01l0.33,2.19l-0.89,0.51l-0.24,1.18l0.57,2.03l-0.32,0.08l-0.4,-1.27l-0.08,1.01l-1.14,0.85l0.16,0.59l0.98,0.68l0.49,2.79l-1.54,1.52l-0.89,1.77l-1.87,0.51l-0.73,-0.51l1.06,-0.08l1.3,-3.12l-1.05,-1.69l-0.16,-1.18l0.49,-2.62l-2.84,-0.59l-1.06,1.94l-0.73,-0.59l1.3,-1.44v-0.84l-0.41,-0.51l-1.06,-0.17l0.81,-0.93l-1.22,-2.2l1.14,-0.76l0.73,0.08l0.24,-0.93l0.57,0.08l0.65,1.52l0.73,-0.25l0.81,0.42l-0.16,0.59h0.89l-0.32,0.42l-2.11,-0.25l-0.24,1.69l0.49,0.42l1.95,-0.25l0.81,0.34l0.49,-0.59l0.89,-0.17l-0.57,-1.94l0.25,-1.1l0.41,0.25l0.32,-0.51l-0.24,-0.34l-0.65,0.34l0.16,-2.03l0.73,-0.68L397.98,381.82zM380.44,379.96l0.33,1.1l-0.81,0.17l-0.24,-0.42L380.44,379.96zM331.17,378.44l0.81,0.34l-0.4,1.1l-0.65,-0.59l-0.08,-0.68L331.17,378.44zM382.63,378.44l0.33,0.42l-0.97,2.03l-0.89,0.17v-0.34l0.65,-0.08l-0.4,-0.42l0.16,-0.42l0.73,0.17l-0.16,-1.18L382.63,378.44zM393.92,374.38l0.57,0.93l-0.08,1.01l-0.65,0.68l-0.65,-0.25l-0.08,0.76l-1.3,0.68l0.98,-2.03l0.65,-0.17l-0.08,-1.27L393.92,374.38zM389.94,370.24v0.51l0.41,-0.08l0.89,0.85l-0.49,0.76l-0.49,-0.08l0.24,-0.68l-0.89,-0.84L389.94,370.24zM379.87,368.38l-0.32,2.79l1.14,1.1l0.41,1.6l-0.65,4.99l-0.65,-0.85l-0.89,0.25l1.06,-2.37l-1.06,-0.51l-0.08,-0.59l-0.89,-0.34l-0.32,-0.68l-0.49,0.17l-0.16,-0.59l-0.97,0.42l-0.65,2.28l-0.57,0.59l1.7,3.72l0.9,0.17v0.51l1.14,-0.51l0.98,0.25l-0.24,0.59l-0.81,-0.34l-0.48,1.18l-1.54,0.93l0.49,1.77l0.98,1.35l-0.08,2.37l0.89,0.08l0.57,-1.52l0.65,0.51l0.33,-0.59l0.49,0.09l0.08,0.51l1.22,-0.17l0.35,-0.62l0.22,-0.98h0.33l-0.65,2.28l0.49,2.2l-0.49,0.34l-0.73,-1.86l-0.16,0.51l-0.73,-0.25l0.08,0.59l-0.57,0.08l0.24,0.76l-0.4,1.1l1.3,0.25l0.9,0.68l0.65,-0.08l-0.16,0.76h1.38l-0.73,0.59l-1.14,-0.42l0.16,1.01l-0.57,-0.17l-0.73,0.68l1.14,0.68l-0.08,0.93l0.81,-0.17l1.38,1.27l-0.08,0.59l-0.73,0.59l-1.95,0.08l1.06,0.17l1.06,1.52l0.49,4.14l-1.46,-1.6l-0.57,-1.27v-1.69l-0.89,-1.1l0.57,-1.6l-1.05,-0.42l0.89,-1.44l-1.14,-0.42l0.33,-0.67h0.41v-0.51l-0.73,-0.59l-1.38,0.17l-0.57,-0.42l-0.41,-1.1l-0.89,-0.25l-1.22,-1.77l0.08,-1.86l-1.46,-4.05l-0.57,-2.45l0.16,-2.45l-0.73,-1.52v-1.69l0.57,-0.84l-0.16,-1.69l0.97,-0.59l1.06,-3.04v2.03l0.81,0.76l1.46,-2.96l0.98,-0.34L379.87,368.38zM412.91,368.13l0.24,1.18l0.81,0.51v0.76l-1.54,0.59l0.08,0.93l-0.4,0.17l-0.571.69c00,-1.14,-0.62,-1.3-0.715c-0.09,-0.05,0.16,0.38,0.16,0.38l-0.4,0.68l-0.08,1.77l-0.97,1.27l-0.4,-0.59l-0.73,0.84l-0.57,-0.59l-1.3,-0.08l-1.46,1.94l0.08,0.76l-0.41,0.51l-1.3,-0.25l-1.79,0.42l-0.57,-0.34l-0.4,-1.6l-2.03,-0.68l-0.08,-0.59l0.73,-1.1l4.14,0.25l0.57,-0.42l1.06,0.76l0.9,-0.08l0.89,-1.52l-0.24,-0.42l0.65,-0.42l0.89,0.68l-0.24,1.1l1.14,0.59l1.63,-2.7l-0.08,-0.34h-0.89l0.98,-0.51l-0.16,-0.76l0.49,-0.68l-0.49,-1.01l0.98,-1.18l0.65,-0.17v-0.51L412.91,368.13zM385.23,366.86l0.08,0.85l-0.73,0.08l-0.16,-0.59L385.23,366.86zM334.17,366.78l0.57,4.14l-0.48,1.27l-0.97,0.25l0.32,0.42l0.65,-0.08l-0.49,1.69l0.24,1.94l-1.22,1.6l-1.13,0.42v-0.85l0.24,-0.17v-1.01l0.81,-3.38l-1.3,-4.56l0.9,-1.1L334.17,366.78zM389.37,366.27l1.06,1.1l-1.22,-0.76L389.37,366.27zM386.61,365.51l0.49,1.18l-1.06,-0.51L386.61,365.51zM401.87,365.34l0.9,0.93l2.84,-0.42l2.19,0.42l-0.65,1.35l0.08,1.18l-3.57,5.32h-0.65l-1.05,1.01l-1.38,-0.68l-0.97,0.68l-1.06,-0.08l-0.08,-0.42l1.71,-0.76l1.79,0.85l1.14,-0.93l-0.57,-1.44l-0.57,0.17l-1.14,-1.1l-1.3,-0.08l0.16,-0.84l-0.57,-0.84l0.08,-0.51l1.22,-0.68v1.44l0.49,0.76h0.89l-0.24,-2.2h0.41l0.16,0.76l1.3,-0.51l-1.62,-1.01l0.41,-0.84l-0.73,-1.52H401.87zM398.54,365.17v0.76l-0.57,0.51l0.49,0.25l-0.41,1.61l-0.65,-0.93l0.16,-1.1l-0.65,-0.93L398.54,365.17zM406.26,365v0.51l-1.05,-0.17L406.26,365zM406.99,364.33l0.73,0.85l-0.32,0.76l-0.89,-0.34l0.08,-1.01L406.99,364.33zM397.08,362.89l0.41,0.68l-0.57,0.84l-0.16,-1.35L397.08,362.89zM389.53,362.55l0.81,1.44l-0.08,1.1l-0.89,-1.27L389.53,362.55zM406.01,362.3l0.08,1.35l-0.32,0.17l-0.49,-0.84l0.33,-0.68H406.01zM393.84,360.95l-0.81,1.69l0.16,-1.35L393.84,360.95zM396.92,360.95l0.33,0.76l-0.65,0.25l-0.16,-0.76L396.92,360.95zM387.26,360.44l0.24,0.42l-1.05,2.79l-0.41,-1.52L387.26,360.44zM391.24,361.88l-0.4,0.34l-0.24,-0.51l1.06,-1.27L391.24,361.88zM396.51,358.67l0.73,0.85l-0.81,0.25v0.51l-0.57,-0.08l0.08,-1.35L396.51,358.67zM419.65,357.57l0.24,0.42l-0.89,0.59L419.65,357.57zM397.17,356.98l0.56,0.34l-1.05,-0.08L397.17,356.98zM387.67,356.89l0.16,1.69l-0.32,0.85l-0.16,-1.94L387.67,356.89zM397.33,354.19l-0.16,0.68l-0.81,-0.17L397.33,354.19zM388.64,353.34l0.08,0.51l-1.05,1.69l-0.49,-1.27L388.64,353.34zM301.78,349.37l-0.08,1.01l-0.81,0.08l-0.08,-0.34L301.78,349.37zM380.6,349.37l-0.73,1.01l-0.65,-0.34l0.16,-0.51L380.6,349.37zM381.17,348.35l0.24,0.85l-0.49,0.17L381.17,348.35zM301.05,345.06l-0.24,0.42l0.98,-0.08l0.73,1.1l2.11,0.17v0.85l0.65,-0.17l0.16,0.51l0.41,-0.76l1.22,-0.42l-1.14,1.61l-0.65,-0.09v0.93l0.65,-0.59l0.49,0.08l-0.14,-0.51l0.39,-0.53l1.38,-0.73l0.24,0.59l-1.46,0.93l-0.81,1.1h-0.73l-0.41,-0.51l0.08,-1.01l-0.57,0.08l-0.57,-1.18h-1.46l-0.89,-0.76l-1.22,0.09l-0.16,-0.51L301.05,345.06zM407.47,340.66l0.41,2.54l-0.81,-0.25l-1.13,-1.86l0.08,-0.34L407.47,340.66zM339.36,337.62l0.81,0.85l-0.49,1.1l1.22,1.69v1.01l-1.05,1.27l-1.62,0.42l-1.22,-1.1l-0.41,-3.89l0.97,-1.18L339.36,337.62zM394.65,328.82l0.57,0.51l-0.32,0.68l-0.49,-1.01L394.65,328.82zM337.5,327.98l0.24,0.59l-0.41,0.34l0.65,0.17l0.65,1.86l-1.06,0.85l-0.56,1.44l-1.14,0.85l-0.65,-0.85l1.14,-2.2l0.24,-2.03l0.49,-0.08l-0.16,-0.68L337.5,327.98zM409.66,326.88l1.3,0.93l0.81,-0.17l0.49,-0.68l0.81,0.25l-1.54,1.61l-0.08,1.35l-1.14,1.52l0.49,-0.17v2.03l1.3,1.78l0.57,3.3l1.06,1.44l-0.65,1.27l0.49,0.25l0.98,3.72l1.95,4.4v1.18l-0.49,0.34l0.65,0.42l1.62,4.14l-0.24,2.2l-0.89,1.61l-0.08,1.1l-1.14,0.68l-0.41,3.04l-0.16,-0.51l-1.95,-0.08l0.65,-2.2l1.22,0.08l0.57,-0.51l-0.81,-1.94l-1.05,-0.51l-0.08,-0.51l-1.14,0.08l-0.16,0.85l-0.89,0.59l-1.46,0.17l-1.95,4.39l-1.06,-0.08l0.41,-1.52l0.65,-0.76l-0.16,-1.69l2.11,-1.86l-0.08,-1.27l-0.97,-2.03l0.65,-3.47l0.57,-1.1l0.08,-2.28l-1.22,-0.93l-0.16,-1.01l0.24,-0.51l2.35,0.08l0.73,-0.51l-0.4,-2.03l0.57,-0.42l0.24,-1.01l-0.41,-1.52l-1.87,-1.61l-0.08,-1.27l0.49,-1.35l-0.24,-0.93l-0.65,-0.25l0.08,-1.27l-0.73,-0.59l-1.7,0.59l-1.54,-0.93l0.08,-0.42l1.14,-0.34l0.33,-0.93l0.73,0.08l-1.13,-1.01l1.38,-1.61l0.24,-1.18L409.66,326.88zM338.39,325.61l-0.73,0.59l0.32,0.85l-1.3,0.08l0.16,-0.93L338.39,325.61zM338.47,323.33v0.59l-0.89,1.18l-1.13,-0.08l0.41,-1.35L338.47,323.33zM339.04,320.2l0.24,0.85l-0.73,0.68l-0.24,1.1l-0.81,0.09l0.73,-0.42l-0.16,-0.42l-1.87,1.27l-0.16,-1.01L339.04,320.2zM337.58,319.35l0.57,0.25v0.51l-0.49,-0.17l-0.65,0.85h-0.49v-1.01L337.58,319.35zM503.02,318.08l0.57,0.51l1.38,-0.25l1.46,2.12l-0.08,1.61l-1.3,2.2l-1.54,0.09l-0.41,-0.68h-0.81l-0.97,-0.76l-2.6,-0.59l0.57,-0.51l0.57,-1.78L503.02,318.08zM320.13,316.14l0.57,0.76l-1.22,0.17l-0.24,-0.68L320.13,316.14zM415.84,315.46l0.24,0.68l-1.38,0.85L415.84,315.46zM507.16,315.21l0.81,0.51l-1.14,0.09l-0.08,-0.51L507.16,315.21zM417.62,313.6l0.08,0.68l-0.73,0.68l-0.24,-0.68L417.62,313.6zM418.59,312.67l-0.49,1.01l-0.16,-0.76L418.59,312.67zM421.44,308.61v0.42l-0.81,0.51v-0.68L421.44,308.61zM424.77,305.73v0.42l-1.06,0.25L424.77,305.73zM320.37,303.45l0.65,0.76l0.89,-0.42l0.65,0.34l-0.81,0.93l-1.54,-0.34l-1.22,0.25l-0.49,-0.51l0.16,-0.51l0.9,0.09L320.37,303.45zM314.93,298.54l0.25,1.78l0.65,0.42l-0.16,0.85l0.57,0.42l-0.73,1.61l-1.22,0.51l-1.71,-2.96l-1.7,-1.18l-0.24,-1.35L314.93,298.54zM299.51,296.34l0.41,0.17l-0.32,0.51l0.24,0.51l-0.73,0.25l-0.24,-0.59L299.51,296.34zM326.54,295.83l1.54,2.12l2.19,0.17l1.79,2.45l3.25,3.21l3.49,1.44l0.97,1.27l-0.97,2.37l-1.38,0.51l0.08,1.27l-0.65,0.42l0.16,0.93l-0.57,0.34l-0.16,1.52l0.98,3.98h0.65l0.98,-1.1l1.05,-2.03l-0.24,1.19l0.33,1.35l-1.14,1.95h-0.65l0.41,-1.18l-0.89,0.93l-1.79,-0.34l-0.16,1.01l-1.54,0.17l0.16,-1.27l0.81,-0.51l1.22,0.34l0.41,-1.44l-3,1.01l-1.14,-1.18l0.32,-0.34l-0.24,-0.59l-0.73,-0.17l0.32,-1.01l-0.24,-1.78l1.14,-0.17l0.89,-1.18h1.79l-1.7,-0.59l-1.06,1.1l-1.05,0.34l-0.81,-0.76l2.68,-1.18l0.41,-0.59l0.98,0.25l0.41,0.76l1.14,-0.25l-0.08,-0.34l-0.97,0.17l0.16,-0.93l-0.65,0.25l-0.97,-0.34l-0.81,0.85l-1.95,0.42l0.24,-0.93l1.7,-1.1l0.25,-0.59l1.62,-0.51l-0.32,-0.17l0.16,-0.84l-2.11,1.78l-1.05,0.25l-0.24,0.85l-0.81,0.17l-0.08,-0.93l1.62,-1.69l-0.32,-0.17l-0.65,0.59l-0.32,-0.25l1.14,-1.01l0.49,0.34l1.22,-1.78l-0.08,-0.34l-0.97,1.02l-0.4,-0.59l0.32,-2.54l-0.32,0.08l-0.32,2.45l-0.32,0.17l0.24,0.76l-1.79,1.19l-2.35,-1.27v-2.54l-0.57,-1.27l-0.24,0.76l0.41,0.59v1.27l-0.32,0.93h-0.41l-0.81,-0.84l-0.32,-1.86l-1.3,-0.42l0.49,-1.1l-0.81,0.68l-1.05,-1.44l0.24,-2.28l1.22,-0.68v1.1l0.98,-0.17l-0.65,-1.18L326.54,295.83zM303.08,292.79l0.24,0.85l-0.49,0.34l-0.41,-1.1L303.08,292.79zM304.14,291.01l0.24,0.34h1.22l0.49,1.61l0.73,0.51l-0.32,1.52l-1.3,1.1l-1.38,-0.08l-0.89,-1.01l1.22,-2.12l-0.57,-1.27L304.14,291.01zM426.06,291.01l0.9,0.42l0.57,0.85l1.3,-0.25l-1.22,0.51l0.16,0.59l-0.49,0.17l0.33,0.93h-0.73v-1.69l-0.81,-1.01l-0.65,-0.17L426.06,291.01zM412.91,290.08l0.73,1.86l0.97,0.51l1.14,-0.08l0.16,1.86l-0.73,0.59l0.73,0.68l0.16,0.85l2.92,-0.42l1.22,-0.76l0.57,-1.02l1.05,0.25l0.08,1.19l-1.05,0.09l-0.65,0.51l-1.14,2.71l-1.3,0.08l1.38,2.12l0.98,0.68l1.87,-0.25l0.73,0.34l0.41,1.95l2.35,-1.27l1.22,-1.18h0.65l-0.08,2.03l-1.7,0.17l-0.73,1.1l-1.54,0.17l-0.16,0.59l-2.27,0.42l-0.24,1.44l0.57,0.76l-0.65,0.76l-0.65,-0.17l-2.11,1.18l-2.84,4.65l-0.65,2.54l-0.89,1.44l-0.4,2.88l0.57,0.34l-0.16,0.93l-1.13,0.42l-1.06,1.35l-1.38,0.59l-0.73,-0.17l-0.65,1.86l-0.4,0.09l0.08,0.59l-1.46,1.19l-1.05,0.25l-3.25,-0.34l0.41,-0.42l-0.16,-2.03l-1.54,-2.37l2.11,-1.18l0.08,-0.59l-0.73,-0.93l-1.38,0.51v0.85l-0.89,1.35l-0.41,-0.08l0.33,-0.51l-0.57,-0.17l-1.38,0.17l-0.73,1.18l-1.14,-0.42l0.41,2.62l-1.22,1.94l-1.14,0.25l0.41,-1.1l-0.49,-0.51l-0.89,0.34l-0.33,-0.84l-0.73,0.34l-1.46,-0.25l-0.49,0.25l-0.16,0.76l-1.46,0.51l0.25,2.28l-0.57,1.61l-0.97,0.17l0.98,0.76l-1.38,1.44l-0.49,1.78v1.18l0.81,1.78l1.22,0.08l0.08,-0.51l0.33,0.42l-1.46,3.21l-0.89,0.85l1.06,1.1l0.49,2.03l-0.41,1.86l-1.46,1.86l-0.33,2.03l-0.73,0.51l0.49,1.61l-1.3,0.25l-0.16,-1.01l-0.73,-0.25l0.16,0.42l-0.65,0.08l-0.24,0.68l0.57,1.52l-1.13,-0.34l0.08,0.59l-1.05,1.44l0.08,1.18l-0.81,-0.08l0.24,1.35l-0.41,0.85l0.41,0.59l-0.41,0.76l1.22,1.35l-0.32,0.25l-0.65,-0.93l-0.41,0.59l-1.13,-0.42l-0.81,0.34l0.57,1.61l0.65,0.08l0.49,-0.59l1.14,2.11l1.22,0.08l-0.81,0.93h-1.79l0.08,-0.42l-1.38,-0.34l-0.32,0.93l-1.3,-0.08l-0.73,1.61l-0.81,-3.21l0.24,-0.42l0.98,0.17l0.49,-0.68l0.08,-1.61l-0.81,-1.1l0.08,-0.68l0.65,-0.76h1.14l-0.4,-1.01l0.98,-0.08l0.32,-0.51l0.41,-2.37l-0.41,-0.08l-0.08,-1.1l0.41,-0.25l0.41,0.93l1.22,-0.34l-0.24,-0.76l0.57,-0.93l-0.41,-0.34l0.73,-0.25l0.25,-1.18v-0.34h-0.89v-1.6l0.81,-0.08l0.08,1.35l0.57,0.34l1.14,-0.51l-0.49,-0.76l2.03,0.25l-0.32,-0.42l0.33,-0.59l-0.73,-0.59l-0.16,-0.76l-1.71,0.17l-0.24,-0.76l-0.97,-0.17l1.22,0.09l0.16,-0.68l-2.03,-0.08l0.24,-0.68l-0.41,-0.51v-1.18l-0.73,-1.27l0.81,-0.84l0.33,-1.18l-0.73,-0.42l-0.08,-1.69l1.06,-0.84l0.33,-1.77l1.38,-1.44l0.57,-1.94l0.73,-0.42l-0.08,-0.76l0.73,-0.42l3.17,-4.14l0.98,-4.4l2.35,-1.86l1.71,-4.48l2.11,-1.78l0.81,-1.44l-0.16,-1.01l2.44,-2.37l1.38,0.17l1.62,-2.96l1.22,0.51l-2.35,2.45v0.93l0.81,0.59l-0.24,0.42l-3.81,2.03l-1.62,2.88l0.16,0.68l0.97,0.59l5.52,-0.68l2.19,-1.01l0.33,-1.18l1.22,0.08l2.11,-1.44l1.3,0.34l1.46,-0.93l0.65,-0.93l0.16,-1.61l-1.62,-1.61l1.38,-1.61l0.41,-1.52l1.46,0.25l1.38,-0.93l0.65,-1.01l1.79,0.17l2.27,-0.68l-0.41,-2.62h-2.51l-0.08,-2.03l0.98,-1.27l-0.16,-1.86l-1.13,0.09l-0.41,-0.42l-0.89,0.25l-0.73,-1.1l-0.81,-0.17l-0.57,0.59l0.08,1.18l-1.3,0.34l-0.24,1.69l-0.49,0.42l-0.08,1.95l0.97,0.42l0.08,1.95h-0.32l-0.16,-1.86h-1.62l-1.95,1.86l-0.65,1.78l-2.52,2.12h-1.05l3.25,-2.2l0.89,-2.2l1.46,-1.44l0.9,-4.32l3,-2.79l0.24,-2.54l-0.41,-2.28L412.91,290.08zM305.68,287.2l-0.24,3.13l-1.13,0.42l-0.32,-0.25l0.41,-0.51l-0.08,-0.85l0.89,-0.76l0.16,-1.1L305.68,287.2zM336.69,285.77l0.49,0.25l0.25,1.02l-0.73,1.27l-4.06,1.86l0.25,-0.59l1.7,-0.93l1.87,-0.42l0.24,-1.27l-1.3,-0.42l-0.08,-0.42L336.69,285.77zM308.11,283.48l0.41,0.68l-0.32,0.93l0.49,0.25l-0.81,0.17l-0.57,0.68l-0.33,-0.59l-0.57,0.17l0.81,0.93l-0.16,0.59h-0.49l-0.73,-0.51v-0.85l0.81,-0.76l-0.16,-0.93l1.79,-1.02L308.11,283.48zM289.2,282.21v0.68l-1.3,1.02l-0.16,1.1h-0.89l-0.33,-0.76l0.65,-1.27L289.2,282.21zM336.2,281.02l-0.24,0.76l1.3,0.85l-0.08,0.85l-0.65,0.76l-1.3,-1.27l-0.97,0.17l0.08,-0.85l-0.89,-0.34l0.08,-0.42l0.89,-0.42L336.2,281.02zM299.18,280.6l0.08,1.61l-0.97,0.25l-0.24,0.93h-0.65l-0.49,-0.42v-0.51l0.73,-0.42l-0.41,-0.93l0.49,-0.42L299.18,280.6zM417.46,280.52l1.62,0.76l0.49,0.93l-0.57,0.17l-0.57,-0.93l-1.54,-0.42h-0.33l-0.16,0.85l-0.24,-0.42l-0.48,0.08l0.49,-0.76L417.46,280.52zM296.58,280.43l0.57,0.25l-0.08,0.34l-0.57,-0.25l-0.4,0.08v0.42l-1.38,-0.17l0.49,-0.68H296.58zM425.01,271.88l0.73,0.34l-0.08,0.68l-0.65,-0.76l-1.54,0.08L425.01,271.88zM275.56,270.78l0.16,1.52l0.81,0.25l-0.65,0.25l0.16,1.35l-1.05,0.17l-0.57,-0.17v-0.42l1.3,0.17v-0.51l-1.05,-0.42l-0.24,-0.59l1.14,0.08l-0.73,-1.44L275.56,270.78zM276.78,267.99v0.76l1.87,-0.17l-0.49,1.02l-0.65,-0.25l-0.49,0.42l-0.32,-0.51l-0.89,0.25v-0.51L276.78,267.99zM328.57,265.45l0.41,0.42l1.95,-0.25l3.33,2.71l-0.08,1.19l0.57,1.1l-0.73,0.93l-0.08,0.85l0.81,-1.27l0.41,0.42l-0.16,0.85l-1.05,1.19l-0.65,-1.35l-1.22,-0.17l0.57,1.02h0.57l0.41,0.68l1.14,0.42v2.12l0.24,-0.68l0.73,-0.34l-0.08,1.02l-1.54,1.44l0.89,0.08l-0.24,1.52l0.49,0.59l-0.97,0.93l-0.49,-0.08l0.57,-0.17l-0.08,-0.42l-0.97,-0.25l-1.3,-1.35l1.62,-3.13l-0.16,-0.68h-1.22v-1.52l-0.89,-0.51l0.08,-0.51l-0.73,-0.17l0.49,-0.93l-0.16,-0.51l-2.51,-2.88l-0.08,-0.59l-1.62,-0.93l0.16,-0.59L328.57,265.45zM338.8,260.63l0.49,2.03l-0.73,0.68l-0.32,2.88l-1.06,0.76l-0.16,2.29l-1.14,2.71l0.16,-1.61l0.73,-1.18l-0.08,-4.49l0.73,-3.39L338.8,260.63zM318.83,259.52l0.32,0.85l1.14,0.93l3.49,0.34l1.79,3.39l-2.03,0.09l-0.49,-3.3l-1.54,0.17l0.9,0.34v0.42l-1.87,-0.25l-2.11,0.51v-3.3L318.83,259.52zM317.2,258.85l0.73,0.68l-1.14,0.85l-0.32,-1.02L317.2,258.85zM346.19,239.71v6.35l-0.97,1.27l-0.65,2.63l-0.41,0.25l0.81,-3.05l-0.33,-2.29l1.3,-3.98l-0.16,-1.02L346.19,239.71zM328.57,237.68l0.98,0.68l-0.16,3.47l0.41,1.27l-0.41,0.17l-0.65,-0.76H328l-0.97,1.02l-2.03,0.68l-1.62,2.8l-1.46,0.68l-1.7,2.63l-1.3,0.59l-0.57,-0.42l-0.08,0.68l-1.87,1.69l-1.06,2.46l-1.38,1.1l0.25,0.68l0.89,-0.25l1.38,1.02l-0.08,0.59l-0.65,0.25l-0.49,-0.08l-0.16,-0.51l-0.73,0.17l-0.4,-1.02l-0.81,0.51l-2.27,-0.34l0.08,-0.68l1.38,-0.76l0.65,-1.1l2.19,0.17l-0.25,-1.19l0.98,-0.34l-0.4,-1.18l-0.57,0.17l-0.24,0.59l-0.57,-0.25l-0.97,-2.03l-0.73,-0.34l-0.49,0.42l0.16,1.44l-0.41,0.34l-1.05,-0.25l-0.16,1.44l-0.97,1.36l0.89,1.69l-0.65,-0.34l-0.16,-0.76h-0.57l0.08,-0.85l-0.57,-0.09l0.24,0.76l-0.49,0.68l-0.89,0.42l-0.16,0.68l-0.57,-0.17L306.16,258l0.49,0.85l-1.14,-0.17l0.08,0.93l1.06,-0.25l0.73,0.51l0.57,-0.85l-0.48,-1.52l0.73,-0.76l-0.32,1.02l0.49,0.42l-0.24,0.51l1.22,0.17l-0.16,-1.61l-0.57,-0.42l0.49,-0.51l0.73,0.59l-0.4,0.85l0.32,1.27l-0.97,0.51l0.49,1.02l-0.49,-0.42l-0.24,0.68l-1.22,-0.59l-2.19,-0.17l-1.22,0.76h-0.81v0.85l-0.65,0.17l-0.65,-0.59l-0.89,0.08l0.49,-2.03l-0.49,-0.68l-0.57,1.61l-0.81,-0.08l-0.16,0.93l-0.97,-0.17l0.08,-1.27l1.22,-0.51l0.98,-2.03l1.22,-0.08l0.08,2.29l0.73,0.17l0.24,0.51l2.84,-1.69l4.55,-7.28l2.11,-1.19l1.06,0.25l0.81,0.76l1.46,-0.17l0.49,-0.59l0.16,-2.29l2.84,-0.42l4.63,-2.37l2.35,-3.73l1.3,-1.1l0.24,-2.12L328.57,237.68zM352.19,214.29l0.33,0.59l-1.54,4.24l-0.73,3.98l0.73,7.37L350,233.1l-0.97,1.36l-1.14,0.51h-1.38l0.33,-3.47l1.06,-0.76l1.3,0.85l1.05,-1.61l0.08,-2.29l-0.57,-0.93l-1.14,-0.08l-0.24,-0.59l0.81,-2.63l-0.08,-2.88l1.14,-2.03v-1.69l1.14,-1.02l0.16,-1.27L352.19,214.29zM340.83,193.7l2.84,0.42l-0.41,0.42l-2.27,-0.51l-0.57,0.59l0.57,1.53l-0.24,0.51l0.73,0.68l2.68,-0.25l1.38,0.59l-2.11,0.93l-2.84,-0.17l-0.24,0.51l-2.52,0.08l-0.32,-0.93l-0.97,-0.68l0.33,-0.93l0.73,0.59l0.08,-2.46l1.54,0.25L340.83,193.7zM338.23,191.83l0.89,0.85l1.14,0.25v0.76l-0.49,-0.17l-0.08,-0.49l-0.56,-0.1l-0.57,0.68l-0.08,-0.76l-0.81,-0.17l0.16,-0.76L338.23,191.83zM340.99,190.9l1.06,1.27l-0.97,-0.59l-0.73,0.25l0.08,0.51l-0.32,0.09l-0.16,-0.93h0.73L340.99,190.9zM342.13,190.64l0.89,0.42l0.08,1.1l-0.73,0.08l-1.14,-1.27L342.13,190.64zM343.83,189.97l0.41,0.76h-0.89l-0.16,-0.59L343.83,189.97zM306.33,167.83l-0.65,1.61v1.7l-1.46,0.68l-1.54,2.97l-0.81,0.25l-0.73,0.85l-2.92,8.31l-1.54,7.8l-0.32,4.07l-0.81,0.85l0.32,3.14l-1.3,5.93l-1.71,18.39l-2.52,13.81l-3.81,7.2l-1.79,1.36l-0.57,2.96l0.25,0.59l-2.19,0.51l-1.62,2.37l-0.57,0.17l-1.79,-1.69l-2.19,-1.1l-0.16,0.93h-0.65l0.08,2.63l0.57,0.08l0.89,-0.68l0.41,0.25l-0.97,0.42l-0.16,0.76l-2.27,-0.59l-0.57,0.68l0.33,1.44l2.92,-0.17l0.08,0.59h0.41l0.24,-0.51l0.65,-0.08l-0.32,-0.25l0.24,-1.19l-0.41,-0.08l-0.08,-0.68l2.6,0.85v-0.93l0.89,-0.51l-0.73,3.73l-1.05,2.88l-0.65,0.42l-1.62,-0.08l-1.54,1.35l-1.87,-0.34l-0.49,1.78l0.49,2.46h-0.57l-0.57,2.46l0.24,4.83l0.49,0.51l-0.24,6.26l0.81,5.33l2.35,0.51l0.81,1.78l1.3,0.68l1.62,1.78l4.55,1.1l2.03,1.69l1.14,-0.08l0.73,-0.59l0.41,1.02l0.81,0.59l-1.06,1.35l0.08,0.76l1.22,1.18v0.68l0.81,1.1h0.73l0.97,0.68l1.14,-0.08l0.41,0.68l2.27,0.42l2.76,-1.01l0.49,-0.85l0.57,-0.08l0.89,1.1l2.76,1.69l-0.32,2.37l1.54,1.35l0.49,2.12l-0.33,0.25l-0.97,-0.68l-0.32,1.95l-0.49,0.68l-0.41,-0.51l-1.05,0.09l-1.62,1.61l-0.73,0.17l0.16,2.28l-0.57,-0.25l0.33,-0.85l-0.41,-1.27l-3.41,-0.25l-0.89,-1.1l-1.22,-0.42l-0.73,-0.76l-2.27,-0.25l-0.81,0.76l-1.3,0.42l-0.24,0.85l-2.27,2.54l-2.68,6.94l-0.89,5.16l0.08,1.94l-0.89,0.76l0.73,0.59l-0.08,1.44l-2.68,7.78l-3.08,15.64l-2.44,7.18l-2.43,9.55l-2.03,12.93l-0.24,31.5l1.22,7.01l2.19,2.44l0,0l-7,2.12l-4.85,2.16h-13.86l-7.62,-3.6h-49.72l0,0l2.03,-2.13l0,0l1.45,-2.12l2.61,-2.43l2.32,-3.34l0,-4.25l-1.16,-4.25l-0.3,-8.19l2.52,-5.26l-4.79,-4.36v-44.71l-2.77,-10.82l-0.69,-13.71v-10.83h-3.46l-2.08,4.33l-1.38,7.22l-2.77,0.72l-2.77,-2.89l0,0h-3.46l0,0v-15.95l-0.74,-0.01l0.83,-35.35l2.6,-7.04l1.56,-5.96h4.68l4.16,-1.08l2.6,-1.63l5.72,-1.08l2.08,-1.08l-0.52,-3.79l-4.16,-2.17l0.52,-28.74l3.12,-2.17v-4.34l-2.6,-3.25v-10.85l2.08,-5.43l0.52,-6.51l3.12,-2.71l5.72,-2.17l5.2,-1.08l13.4,-0.5l-0.1,-0.91l12.68,-4.02l10.91,-1.63l6.42,-3.49l0,0l26.87,2.43l0,0l25.37,1.11l0,0L306.33,167.83z"/>
		<path id="BZ-CY" title="Cayo" class="land" d="M177.86,316.77L180.63,319.65L183.4,318.93L184.78,311.71L186.86,307.38L190.33,307.38L190.33,318.21L191.02,331.92L193.79,342.75L193.79,387.46L198.58,391.82L196.06,397.08L196.36,405.27L197.52,409.52L197.53,413.77L195.2,417.1L192.59,419.53L191.14,421.66L191.14,421.66L185.05,428.03L185.05,428.03L184.11,428.87L187.56,435.31L191.71,440.35L197.25,439.63L197.25,447.55L193.1,447.55L190.33,451.87L186.86,461.23L184.09,465.56L177.86,467.71L173.42,470.28L168.52,485.03L167.95,496.85L168.16,504.11L159.84,504.42L158.46,510.89L159.07,511.66L145.99,519.52L143.91,526L140.44,531.03L138.37,537.5L132.13,545.41L132.13,551.16L132.13,551.16L128.43,555L127.25,554.99L126.59,561.22L119.66,562.66L119.66,566.25L124.51,567.69L124.51,571.28L112.04,584.22L105.8,587.09L102.34,589.25L98.18,592.84L95.41,594.27L87.1,596.43L82.25,600.02L79.48,605.77L71.16,609.36L65.62,608.64L62.85,604.33L58,603.61L54.54,608.64L53.84,611.51L51.76,614.38L32.37,614.38L29.59,618.69L24.05,622.28L19.2,632.33L10.43,633.09L10.43,633.09L12.26,604.84L13.27,604.79L16.59,554.19L15.53,554.18L22.8,441.52L22.63,357.73L22.63,357.73L30.98,355.01L33.75,349.24L41.37,344.91L47.61,339.86L55.92,340.58L58,342.75L90.56,342.75L96.8,340.58L100.26,336.25L102.34,331.92L105.11,329.76L108.57,332.64L127.97,333.37L129.36,329.76L130.74,329.04L134.9,332.64L144.6,332.64L146.68,329.76L153.61,328.31L153.61,323.26L159.15,321.1L164,320.38L169.54,316.77L169.54,316.77z"/>
		<path id="BZ-CZL" title="Corozal" class="land" d="M355.11,183.35l1.14,1.87h-1.54L355.11,183.35zM356.09,181.15l0.57,0.51l-0.32,0.68l-0.65,-0.85L356.09,181.15zM322.24,167.58l0.24,0.76l-1.13,0.26l-0.08,-0.51L322.24,167.58zM333.2,160.88l0.49,0.42l-0.4,0.76l-1.46,-0.17l0.25,-0.76L333.2,160.88zM349.92,144.93l-0.41,1.87l-0.49,0.08l0.57,-3.14l2.44,-5.85l0.49,-0.17l-0.32,1.78L349.92,144.93zM369.16,121.25l0.33,2.8l-1.3,1.11v0.59l0.41,0.17l-0.16,0.76l-1.14,0.6h-1.14l0.41,1.44l-2.19,-0.68h-1.79l-1.87,1.36l2.35,-3.39l0.49,0.09l0.33,0.68l-0.08,-0.93l0.73,-0.51l-1.54,-0.85l1.79,-0.59l0.08,-1.95l0.41,-0.42l0.49,-0.08l-0.16,1.19l0.41,0.09v0.77l0.81,0.51l1.95,-0.59l-0.24,-1.44L369.16,121.25zM371.76,113.78l0.56,1.36l-0.16,1.02l-1.71,1.78l-1.22,-0.25l-0.33,-0.93l0.57,-0.51l0.81,0.42l0.73,-0.25l0.24,-0.68h-0.41l-0.24,0.59l-0.65,-0.25l1.7,-1.19l-0.33,-0.68l-0.65,-0.08v0.68h-0.49l-0.4,1.1h-0.33l0.24,-1.53l0.81,-0.59H371.76zM376.14,113.53l-0.4,7.13l-1.14,1.27l-1.79,0.34l-0.4,1.61l-0.57,0.6l-2.11,0.42l-0.24,-0.59l0.57,-0.42l0.16,0.68h0.57l0.16,-1.44l1.71,-1.78v-0.42l-0.49,-0.08l-0.49,1.02l-0.89,0.59l0.08,-1.1l-0.49,0.09l-0.32,0.34l-0.16,-1.19l0.73,-1.61h1.54l0.49,-1.19h0.41l0.57,1.02l1.71,-0.25v-0.51l-0.81,-0.51l-0.08,0.34l-0.83,0.2l-0.47,-0.54l-1.06,0.17l-0.16,-0.34l-0.73,0.6l0.08,-0.51l0.81,-0.68l1.38,-0.25l0.57,-0.85l0.08,-1.1L376.14,113.53zM399.92,89.16l0.09,0.88l2.08,1.51l1.16,1.78l-1.38,1.86l0.9,0.68l0.41,1.78l1.06,1.61l0.24,3.23l1.46,3.23l0.41,4.5l1.79,3.23l-0.33,1.95l-1.95,0.08l-1.86,1.27l-1.95,0.59l-1.46,1.53l-0.97,0.17l-1.3,2.55l-2.84,2.8l-0.89,0.34l-1.54,2.21l-0.81,1.61l-0.4,2.97l-0.89,2.38l-1.54,2.29l-0.89,5.01l-1.14,2.29l-1.87,2.21l-2.27,6.02l-0.49,0.34l-3,7.63l-0.81,0.85l-1.3,3.65l-2.11,1.44l-0.41,1.95l-5.11,6.87l-0.41,2.12l-3.41,3.22l-1.05,1.53l-0.24,2.46l-0.89,1.36l-1.95,2.29l-3.25,1.87l-2.43,-0.42l-4.47,1.61l-2.84,-2.63l-0.08,0.59l1.14,0.93l-1.46,-0.34l-0.65,0.85l-1.46,0.25l0.41,-0.42l-0.16,-0.51l-0.81,-0.51l0.81,-1.44l0.41,0.25l1.14,-0.76l0.81,0.42l0.33,0.85l1.06,0.25l0.98,-0.25l0.25,-0.68l0.89,-0.34l-0.08,-1.02l0.41,-0.25l0.49,0.93h0.9l0.57,-0.68l-0.08,0.76l0.49,0.08l1.3,-1.44l-0.24,1.61l0.32,0.42l2.27,0.17l0.89,-2.03l-2.76,-2.12l0.24,-1.61l0.73,-0.76l0.08,-0.76l0.49,-0.25v0.68l1.06,-0.34l-0.97,0.85l0.57,0.17v0.42l-1.14,-0.17v0.34l0.32,0.51h1.3v-0.76l1.14,0.17l0.41,-0.34l0.08,-1.1l1.22,0.08l1.38,-0.76l0.08,-0.85l1.14,-0.08l-0.08,-0.59l-0.48,0.17l-0.08,-0.42l1.38,-0.85l0.08,-0.68h0.73l-0.16,0.76l0.65,0.17l1.46,-1.27l0.16,-0.59l-0.89,0.34l0.08,-0.76h0.57v-0.68l-0.4,-0.17l0.16,-1.1l0.73,-0.17l0.65,-2.37l-0.24,-0.76l0.49,-0.85l1.3,-0.42l-0.33,-1.02l0.65,-0.51l-0.57,-0.59l0.32,-1.27l-0.48,-0.42l-0.73,0.42l0.16,-0.93l-0.65,0.42l-0.24,1.1l0.32,0.34l-0.65,1.19l-0.81,0.43l-0.08,0.76l-2.19,3.05l-0.16,1.19l-1.54,1.19h-0.57l-0.08,-0.34l0.73,-1.19l-0.97,0.76l-0.4,1.02l0.33,1.7l-0.73,1.78l-1.05,0.59l-1.3,0.08l-0.24,1.44l-0.57,-0.51l0.16,-2.03l0.49,-0.25l-0.08,-0.68l0.73,-1.53l1.3,-0.85l-0.16,-0.59l0.41,-0.68l-1.06,0.25l-0.81,0.85l-0.49,1.53l-0.65,0.68l-0.32,-1.61l0.73,-0.25v-1.19l0.89,-0.25l-0.24,-0.76l1.22,-1.02l-0.49,-1.1l0.41,-0.34l-0.16,-0.51l0.49,-0.51l0.65,-2.8l1.22,-0.93l1.79,-2.54l1.79,-6.28l0.81,-0.17l0.41,-1.02l0.08,0.93l1.14,-0.34l-0.32,-0.68l-0.57,-0.17l0.81,-0.08l-0.41,-2.04l1.3,-3.14l0.89,-0.25l-0.48,-0.59l0.41,-0.17l0.16,-1.19h0.98l0.08,-1.27l1.95,-1.44l0.08,-0.59l2.68,-2.97l0.33,-0.85l1.3,-0.17l-0.32,-1.78l-0.65,1.02l-0.24,-0.34l1.05,-2.38l-0.4,-2.04l-0.65,-0.42l-1.14,1.95v0.76l-0.81,0.6l0.81,-2.46l-0.73,-0.17l-0.89,1.36l0.08,0.93l-2.03,1.61l0.16,1.7l0.57,-1.1l0.41,-0.08v0.51l-1.14,1.7l-1.3,0.17l0.81,-3.73l-0.81,-2.71v-2.12l1.54,-1.78l0.57,0.42l-0.73,0.43l0.49,1.1l2.76,0.17l1.71,-3.14l1.87,-1.61v-0.76l0.41,-0.25l0.65,0.17l0.81,1.27l2.44,-0.59l0.65,-1.1l-0.24,-0.76l-0.73,0.17l0.49,-0.93l-1.14,0.34l-0.73,-0.42l-0.33,0.34v-1.1l-1.62,1.19l0.25,-3.14l2.84,-1.27l1.46,-3.9l1.87,-1.53l0.08,-1.87l1.06,-1.1l0.25,-1.27l-0.57,-2.63l0.32,-1.36l0.73,-0.68l-0.08,-1.44l0.81,-0.25l0.08,0.68l0.81,-0.17l0.33,-0.59l-0.08,-1.78l0.89,-1.95l1.86,-2.3l1.8,-1.44l0.57,-2.04l1.14,-0.25l-0.24,-1.19l-0.73,0.34l0.73,-1.1v-1.02l0.89,-0.17l-0.57,0.68l0.16,1.45l0.98,0.08l1.14,-1.1l-0.24,-0.42l-0.32,0.43l-0.32,-0.25l1.14,-1.36L399.92,89.16zM329.22,42.33l0.25,0.59l1.14,0.26l-0.57,0.68l0.33,0.77l-0.24,1.11l-0.89,-1.19V42.33zM246.01,3.08l1.78,0.53l6.32,-0.29l7.67,-1.31l2.66,0.69l0.65,0.94l-0.24,0.85l4.3,3.15l0.41,2.3l0.73,0.43l-0.08,0.77l0.9,1.02l-0.65,0.43l-0.89,1.62l-0.49,-0.08l-0.41,0.77l-1.22,0.34l-0.32,1.11l-1.05,-0.17l-0.89,0.6l-0.65,3.57l-1.54,2.04l-2.35,1.96l-1.3,0.26l-1.7,1.62l-2.11,0.34l-2.84,2.21l-2.27,0.85l-2.43,2.21l-2.27,0.34l-1.38,1.02l-0.32,0.85l-1.54,0.6l-0.97,1.45l-0.16,4.17l0.81,2.98l1.3,1.27l0.73,0.17l0.16,0.85l0.97,0.85l4.79,-0.93l2.52,-1.7l1.06,-0.25l0.98,-1.19l1.54,0.26l1.62,-1.02l2.52,-0.68l0.24,-0.6l3.9,-0.08l0.57,1.11l-2.43,1.36l-0.73,1.19l-2.92,2.04l-1.95,3.49l0.08,1.96l1.06,-0.17l2.35,0.85l0.49,-1.02l0.81,0.09l0.57,-0.59l1.38,-0.17l1.54,-1.36h1.3l2.44,-0.93l3,-2.04l3.57,-0.17l0.65,-0.59l1.71,0.34l2.6,-1.7l1.14,0.34l1.54,-1.02l0.65,1.02h0.49l1.22,-0.42l0.9,-1.36l1.05,-0.34l1.22,1.62l1.54,0.94l-2.11,1.44l0.33,1.62l0.73,0.68l2.44,-0.51l4.22,-2.55l1.87,-0.34l-0.16,0.68l-0.89,0.43v0.68l-0.49,-0.08l-0.49,1.53l0.57,0.09l1.87,-1.1l0.24,0.34l-1.95,1.45l-0.57,-0.08l-0.32,0.51l-1.38,0.17l-0.57,0.51l0.65,1.19h0.41l0.33,0.68h0.57l0.97,-0.85l0.16,-0.68h0.49l1.95,-1.7l7.79,-0.34l1.54,-0.85l1.06,-1.44l1.22,-0.25l2.27,-1.44h0.73l2.19,-1.87l3,-1.53l1.46,-0.26l0.73,-0.76l3.09,0.51l1.71,-0.34l1.22,-0.42l1.54,-1.79l0.65,-0.08l-0.32,0.26l0.49,0.77l-0.41,0.94l0.25,0.6l-0.65,0.43l0.08,2.47l-1.05,-0.17l-0.08,0.68l0.49,0.34l-0.32,0.68L328,45.99h0.41l0.49,0.77l0.41,-0.08l-0.08,-0.59l0.73,0.09l-0.73,3.06l0.49,3.15l-0.65,2.81v2.04l-0.65,1.45v0.43l0.73,0.42l0.33,1.62l-0.97,-0.34l-0.57,0.43l-0.32,1.45l0.57,0.51l-0.57,0.42l-0.16,0.94l0.16,0.85l0.73,0.09l0.08,-1.61l0.65,-0.25l0.41,1.11l0.65,0.43l0.65,-0.34l1.22,1.53l-0.49,0.17l-0.89,-0.68h-0.81l-0.57,1.19l0.16,0.68l2.35,0.68v1.53l-0.81,0.43l-0.32,-0.85l-0.49,-0.08l-0.49,1.53l0.57,0.43l0.16,2.38l-0.65,2.72l0.16,2.55l0.41,0.77l-0.33,2.63l0.24,1.95l0.65,0.68l-0.08,1.36l0.81,0.68l0.08,1.36l-2.19,13.16l-0.65,8.83l-0.73,2.04l0.16,3.57l-1.05,2.04l-0.24,3.74l-1.22,-0.17l-1.22,1.95l-0.89,5.6l-1.79,3.14v1.44l-1.3,4.07l-1.3,6.96l-3.09,4.07l-2.68,2.55l-0.32,0.93l-0.89,5.43l0.57,1.53l0.97,0.51l-1.14,1.36h0.81l0.16,0.42l-0.89,0.09l-1.62,2.12l-3.98,2.21l-0.73,1.36l0,0l-25.37,-1.11l0,0l-2.97,-0.27l0,0l-24,-22.13l-11.08,-12.31l-14.55,-9.42l-2.77,-5.8l-3.46,-13.04l-2.77,-7.25l-9.01,-6.52l-14.03,-5.98l-4.38,-3.36l-11.77,-0.71l0,0l1.04,-3.29l-0.17,-2.88l0.92,-6.16l1.03,-3.77l-0.18,-2.11l0.81,-1.71l5,-4.46l4.2,-5.34l3.26,-3.32l0.79,-1.39l0.52,-1.96l-0.86,-3.73l0.38,-2.45l2.15,-3.9l0.89,-3.5l2.8,-5.44l1.84,-6.57l0.11,-2.46l1.59,-3.84l2.34,-2.35l2.89,-1.74l5.6,-5.58l2.58,-0.94l0.49,0.43l5.19,1l1.58,2.63l1.54,0.59l2.54,-0.38l11.12,-4.75L243.58,0L246.01,3.08z"/>
		<path id="BZ-OW" title="Orange Walk" class="land" d="M180.23,79.43L192,80.14L196.38,83.5L210.42,89.48L219.42,96L222.2,103.25L225.66,116.3L228.43,122.09L242.98,131.51L254.06,143.82L278.06,165.95L278.06,165.95L254.17,163.79L254.17,163.79L247.74,167.28L236.83,168.91L224.15,172.93L224.25,173.84L210.85,174.34L205.65,175.42L199.94,177.59L196.82,180.31L196.3,186.82L194.22,192.25L194.22,203.1L196.82,206.35L196.82,210.69L193.7,212.86L193.18,241.6L197.34,243.77L197.86,247.56L195.78,248.65L190.07,249.73L187.47,251.36L183.31,252.44L178.64,252.44L177.08,258.4L174.48,265.45L173.65,300.8L174.39,300.81L174.39,316.77L174.39,316.77L169.54,316.77L169.54,316.77L164,320.38L159.15,321.1L153.61,323.26L153.61,328.31L146.68,329.76L144.6,332.64L134.9,332.64L130.74,329.04L129.36,329.76L127.97,333.37L108.57,332.64L105.11,329.76L102.34,331.92L100.26,336.25L96.8,340.58L90.56,342.75L58,342.75L55.92,340.58L47.61,339.86L41.37,344.91L33.75,349.24L30.98,355.01L22.63,357.73L22.63,357.73L22.33,210.15L23.02,169.78L28.07,162.83L34.52,161.7L38.17,156.37L45.49,154.37L54.21,150.93L57.3,150.76L59.11,151.76L66.12,158.16L70.31,165.44L71.22,165.73L72.85,164.49L73.83,164.71L75.08,165.85L76.55,166.15L80.77,164.73L82.59,164.96L89.89,175.99L95.61,178.8L100.49,180.55L102.09,181.76L103.32,184.23L105.33,185.73L108.63,190.44L111.35,192.63L111.19,183.08L109.69,178.99L109.6,175.62L110.11,174.02L116.48,169.3L120.03,168.07L121.73,165.99L123.8,161.96L129,158.6L129.19,154.4L130.62,151.83L133.3,149.27L134.23,147.53L135.9,142.05L140.2,138.07L152.35,133L154.41,129.39L156.16,120.52L157.82,116.91L162.35,110.1L165.73,99.23L172.94,87.25L176.27,85.47L178.53,83.25z"/>
		<path id="BZ-SC" title="Stann Creek" class="land" d="M300.07,625.86l-0.32,-0.17l0.89,-0.84L300.07,625.86zM329.95,623.59l-0.16,0.76l-0.81,-0.34L329.95,623.59zM265.74,618.45l0.49,0.59l-0.57,0.42L265.74,618.45zM338.31,618.62v0.34l-0.73,-0.25l0.9,-0.59L338.31,618.62zM271.18,616.94l0.08,0.67l-0.41,0.17L271.18,616.94zM295.53,612.65l0.16,0.67l-0.65,0.25L295.53,612.65zM263.63,611.47l0.08,0.59l-0.81,-0.08L263.63,611.47zM295.12,610.97l0.57,0.34l-0.73,0.42l-0.24,-0.67L295.12,610.97zM272.88,608.27l0.57,0.67l-0.97,-0.17v-0.5H272.88zM297.72,608.02l-1.71,2.86l-0.66,0.01l-0.15,-0.52l1.38,-1.26l0.08,-0.67L297.72,608.02zM309,607.85l0.33,0.67l-0.57,0.34l-0.24,-0.59L309,607.85zM277.67,605.75l-0.24,0.59l0.08,-0.92h0.32L277.67,605.75zM281.4,604.15l0.33,0.42l0.98,0.08l-1.14,0.17l-0.57,-0.42L281.4,604.15zM252.91,603.65l0.16,1.35l-0.33,0.17l0.57,0.67l-1.38,0.42l-0.16,-2.19L252.91,603.65zM301.13,602.38l-0.24,0.93l-0.33,-1.18l0.73,-0.17L301.13,602.38zM275.23,601.79l0.08,0.59l0.89,0.67l0.41,-0.08l0.08,-0.67l0.65,0.17l-0.08,1.52l-1.06,0.08l-0.65,-0.67h-1.71l-0.41,1.01l-0.97,-0.34l0.25,-0.59l0.41,0.17l0.65,-0.93L275.23,601.79zM284.25,601.71l0.32,0.59l-0.89,0.25l-0.08,-0.67L284.25,601.71zM331.41,597.33l0.08,0.67l-0.4,0.17l-0.24,-0.67L331.41,597.33zM294.23,595.9v0.84l-0.49,0.34L294.23,595.9zM340.26,593.04l-0.08,0.67l-0.73,0.34l-0.08,-0.76L340.26,593.04zM333.2,592.62l-0.32,1.01v-1.01H333.2zM328.57,592.37v0.84h-1.22l-0.33,-0.42l0.57,-0.25l0.16,0.34L328.57,592.37zM332.3,591.86l0.08,0.59l-0.49,0.34l-0.32,-0.76L332.3,591.86zM328.16,588.83l0.16,0.84l-0.57,0.42v-1.01L328.16,588.83zM299.18,587.74l0.49,0.42l0.73,3.12l-0.81,-1.09l-0.16,-1.26l-0.4,-0.17l-0.16,-0.92L299.18,587.74zM315.26,582.27l0.33,1.77l-0.49,0.51l-0.33,-0.34l0.41,-1.18l-0.65,-0.08L315.26,582.27zM295.04,577.72l0.49,1.01l-0.57,0.08l-0.49,1.1v-0.93l-1.13,-0.34l-0.41,-0.76L295.04,577.72zM259.81,576.96v0.51l-0.73,0.08l-0.24,1.35l-0.81,-0.34l-0.16,-0.76l0.41,-0.42L259.81,576.96zM299.02,570.23l0.16,0.93l-0.49,-0.25l-0.41,0.34l0.33,-1.01H299.02zM296.75,567.37l0.65,0.76v1.69l-0.49,-0.17l-0.08,-1.77l-0.24,0.51l0.13,0.47l-0.46,0.29l-0.24,-0.42L296.75,567.37zM291.96,565.18l-0.24,0.42v-0.84h0.33L291.96,565.18zM310.14,563.83l0.65,1.52l-0.65,-0.25l0.08,0.93l-0.49,-0.34l-0.24,0.5v-1.94L310.14,563.83zM299.59,561.22l0.41,0.42l-0.08,0.67l-0.89,-0.08l0.16,-0.93L299.59,561.22zM304.21,558.95l1.22,2.19l-0.49,-0.42l-0.49,0.42l-0.97,-0.59l0.24,-0.25l-0.32,-0.76L304.21,558.95zM302.02,557.18l0.41,0.67l-0.24,1.1l-0.73,-0.42l-0.24,-1.01l0.08,-0.34H302.02zM299.59,556l-0.16,1.52l-0.4,-0.67l0.08,-0.76L299.59,556zM302.02,555.32l0.25,0.42l0.16,-0.34l0.41,0.17l0.33,1.35l-0.4,0.25h-0.49l-0.49,-1.09l-0.73,-0.25L302.02,555.32zM302.76,553.81l0.08,0.76l-0.32,0.17l-0.57,-0.67L302.76,553.81zM301.46,552.38l-0.49,0.76l-0.08,-0.59L301.46,552.38zM302.51,550.78l0.73,0.51l-0.24,1.43l-1.22,-0.59L302.51,550.78zM307.87,549.6l0.41,0.42v1.26l-0.89,2.27v-2.86l0.41,0.42l0.16,-0.93l-0.57,0.08l-0.08,-0.5L307.87,549.6zM307.22,543.78l0.9,0.76l0.08,0.93l-0.49,0.25l-0.73,-1.01l-0.08,-0.76L307.22,543.78zM404.47,541.01l0.16,0.42l-2.03,2.36l-1.54,0.84l-0.4,-1.1l0.73,-1.01l1.7,-0.08L404.47,541.01zM312.25,539.91l0.08,0.59l-0.73,-0.34L312.25,539.91zM413.16,535.02l0.16,0.59l0.57,0.25l-1.71,0.17v-0.42L413.16,535.02zM421.84,530.47l0.57,0.17l-0.41,0.68h-1.22l-0.25,-0.34l0.16,-0.51l0.41,0.34L421.84,530.47zM425.01,529.38l-0.08,0.76l-0.81,-0.34L425.01,529.38zM316.07,527.61l0.41,0.17l-0.16,0.76l-0.57,-0.51L316.07,527.61zM310.3,526.09l-0.16,1.01l-0.16,-0.93L310.3,526.09zM311.93,520.78l0.24,0.59l-0.65,0.25L311.93,520.78zM312.09,519.77l0.16,0.59l-0.4,0.25l-0.08,-0.76L312.09,519.77zM313.39,517.08l0.41,0.84l-0.57,-0.08l-0.16,0.59l0.02,-0.99L313.39,517.08zM312.74,516.4l0.33,0.76l-0.81,1.69l0.16,-2.36L312.74,516.4zM313.47,513.79l0.16,0.84l0.49,-0.59l0.41,0.34l0.89,-0.34l0.24,0.42l-0.24,0.76l-0.57,-0.34l0.24,0.93l-1.3,-0.67v1.43l-1.38,-1.01l0.24,-0.84l0.32,0.09v-0.93L313.47,513.79zM316.07,512.86l-0.08,0.84l-0.33,-0.76L316.07,512.86zM334.17,511.68l-0.08,1.77h-0.49l-0.16,-1.1L334.17,511.68zM314.69,511.09l-0.08,0.76l-0.33,-0.17l-0.08,0.68l-0.41,0.17l0.08,0.51l-0.49,0.09l0.32,-1.77L314.69,511.09zM327.19,506.62l1.22,0.34l0.73,2.02l-0.73,0.42v0.42l-1.54,0.51l-0.24,-0.76l0.73,-0.25l0.16,-1.18l-0.49,-0.59l0.16,1.43l-0.49,0.17l-0.57,-1.26l0.41,-1.1L327.19,506.62zM319.8,501.48l0.08,0.34l-0.57,0.34l-0.08,-0.59L319.8,501.48zM322.48,494.4l-0.08,0.76l-0.41,0.17l0.16,-0.93H322.48zM322.97,492.63l0.41,1.18l-0.73,-0.08l-0.41,0.51l0.33,-1.6H322.97zM324.02,489.09l-1.05,3.12h-0.32l0.24,-1.77L324.02,489.09zM329.87,488.92l-0.49,0.25l-0.24,1.1l0.41,2.11l0.65,0.42l-0.4,0.17l0.97,1.18l-1.7,-0.93l-0.41,-3.2l0.41,-1.01l0.98,-0.34L329.87,488.92zM339.93,487.15l0.16,1.01l-0.32,0.08l-0.24,-0.67L339.93,487.15zM335.15,484.54l-0.89,2.61l-1.14,1.44l-0.32,4.64l-1.38,1.69l-0.57,0.08l-0.24,-0.34l0.49,-0.76l-0.57,-0.84l1.22,0.84l1.06,-2.19l-0.73,-0.42l0.89,-1.77l-0.16,-0.84l-0.57,-0.25l0.33,-0.67h-0.41l-0.08,1.01l-0.41,0.08l-0.08,-1.18l2.6,-2.95L335.15,484.54zM331.57,465.56l0.89,0.59l-0.08,0.34l-0.89,-0.08l0.08,0.68l-0.65,-0.34l-0.49,0.25l0.08,-0.59l0.89,-0.25L331.57,465.56zM332.87,463.2l0.32,0.59l-0.49,-0.25l-0.57,0.59l-0.32,-0.17l-0.08,1.01l-0.4,0.25v-1.18L332.87,463.2zM343.02,461.85l1.3,0.42l1.54,-0.34v0.34l-3.49,1.18l-1.22,-0.59l0.16,-0.59L343.02,461.85zM330.44,459.91v1.01l-0.4,-0.17l-1.05,0.84l-0.16,-0.34l0.57,-0.76L330.44,459.91zM331.17,457.38l0.16,0.93l-0.49,0.25l-0.41,-0.51l0.57,-0.93L331.17,457.38zM335.39,454.25l-0.32,1.44l-0.57,0.25l0.41,-1.6L335.39,454.25zM350.73,453.24l0.41,0.51l-0.4,0.93l0.16,1.01L350,455.86l0.08,0.51l-0.81,0.34l-0.08,-3.12L350.73,453.24zM346.83,427.25l2.11,1.6l-0.33,1.1l0.65,0.34v1.27l-0.41,0.85l-2.43,0.34l-1.3,-0.25l-1.38,0.59l-1.13,1.27l-0.33,-0.68l0.81,-1.1l0.33,-1.43l0.57,-0.25l0.49,-2.61l0.97,-0.76L346.83,427.25zM272.15,423.1l1.14,1.28v3.12l0.81,3.29l1.22,2.79l1.38,1.77l1.06,0.68l2.19,0.51l2.11,-0.34l0.81,-0.76l1.38,0.08l1.79,1.35l0.41,1.1l-0.24,1.69l0.57,1.44l0.33,5.65l1.79,2.78l-0.49,2.11l0.65,4.3l1.38,4.13l1.38,1.86l0.32,1.35l1.87,3.21l-0.16,3.29l-1.95,5.06l-1.38,1.27l-1.22,0.25l-0.41,0.51l0.16,0.84l-0.73,-0.17l0.24,-0.51l-0.32,-0.25l-0.97,-0.17l-4.06,1.01l-3.08,1.35l-1.46,1.52l-2.03,0.84l-0.49,0.76l-0.33,1.77l0.24,2.36l-0.57,2.11l-2.19,2.28l0.65,4.81l1.38,3.96l2.6,4.97l2.6,2.44l0.89,-0.17l-1.38,1.35v2.11l1.3,2.44l1.62,0.93l0.81,1.01l0.08,0.34l-0.65,0.42l1.06,0.08l0.24,0.51l-0.65,0.59h-0.89l-3.25,-1.1l-2.03,0.34l-0.97,1.18l-0.4,2.36l-0.57,0.51l-3.9,0.68l0.08,2.61l-0.73,1.01l-0.08,1.18l-0.73,1.43l-0.57,-0.17l0.16,-2.61l-0.73,-0.93l-2.43,0.67l-2.35,2.02l-0.33,2.19l0.57,0.84l-0.16,1.77l-0.97,0.93l2.03,-0.42l0.57,-3.45l0.65,-1.01l1.38,-0.76l0.49,-0.76l0.98,0.08v0.51l-2.27,1.26l-0.81,1.6l-0.16,1.52l0.16,2.86l1.38,4.47l2.11,3.62l-0.73,3.2l-1.46,1.43l-0.08,1.52l-1.06,1.85l0.73,2.61l-0.49,3.12l0.65,2.95l-0.97,4.21l-1.62,2.36l-6.41,4.38l-2.84,1.35l-0.81,1.35l-0.08,4.21l-1.14,3.2l0.24,2.61l-1.87,0.84l-0.65,1.35l-0.33,2.61l1.05,5.3l1.87,4.29l-1.38,1.52l0.08,1.43l-0.65,1.43l-1.87,0.84l0.25,1.85l1.05,1.43l-2.84,1.68l-0.16,-1.68l-1.3,0.51l-0.16,-0.42h-0.57v-0.5l1.95,-1.6l1.54,-2.94l0.73,-0.59l-0.49,-0.34l-0.08,-0.84l0.57,-5.55l-0.41,-1.85l-0.73,-0.59l0.73,-3.45l-0.16,-1.85l0.65,-1.43l-0.16,-2.02l0.49,-0.84l-0.16,-0.34l-0.41,0.59l-0.08,-0.84l1.3,-1.6l0.33,0.08l0.08,1.1l1.22,-0.84l0.33,-3.28l-0.41,-2.27l0.41,-1.43l1.46,-2.02l3.25,-1.01l-0.16,-0.76l1.62,-1.01l-0.08,-0.51l-0.57,-0.17l0.08,-0.5l1.14,-0.34l1.14,0.76l1.46,-0.25l0.73,-1.01l1.14,-0.59l-0.08,-0.59l0.9,-0.67l0.49,-3.37l-1.62,-1.94l-1.62,-0.25l-0.89,1.35v1.18l-0.65,0.67l-1.95,0.42l-1.22,1.94l-1.62,1.1l0.32,2.69l-1.22,2.27l-0.57,0.17l-0.08,-0.84l-1.38,0.25l-0.41,1.09l-1.46,1.18l-0.57,1.26l-0.73,-0.25v0.67l-1.46,1.35l-0.24,0.67l0.33,0.93l0.49,0.93l0.32,-0.08l-1.14,2.1l0.16,2.95l1.3,1.85l-0.73,1.35l0.33,2.02l-0.89,3.11l-1.38,-0.08l-1.22,0.51l-1.7,2.44l0.16,0.67l0.73,0.34l1.79,-0.25l0.49,1.68l0.97,0.51l0.08,0.67l-0.65,0.59l-0.24,1.01l-0.65,0.17l0.16,-1.18l-0.97,-1.01l-4.14,1.01l-0.15,-0.26l0.07,-0.5l-0.81,-0.08l-0.97,-1.52l0.24,1.35l0.65,0.84h0.49l0.16,0.59l-1.06,0.42v1.1h-0.65l-0.41,1.68l-1.3,0.59l0.25,0.51l1.14,0.5l0.9,-0.25l0.49,0.76l1.54,0.17l0.49,-0.84l-1.13,0.17v-0.25l-0.41,-0.17l0.16,-0.5l-1.06,-2.02l1.54,1.43h0.97l0.98,-0.76l1.06,0.59l0.16,0.84l-1.05,0.59l-0.65,1.6l-2.51,0.76l0.16,2.44l0.49,0.42l0,0l-44.94,-1.92l-0.69,-2.87l4.16,-2.15l0.69,-4.31l-1.39,-7.9l-4.16,-7.18l-2.77,-2.87l-5.54,-7.19l2.77,-1.15v-6.04l-4.85,-6.47l-6.23,-3.59l-10.99,-2.13l-36.12,0.69l0,0v-5.75l6.24,-7.91l2.08,-6.47l3.46,-5.03l2.08,-6.47l13.09,-7.86l-0.62,-0.77l1.39,-6.47l8.32,-0.31l-0.22,-7.26l0.58,-11.81l4.89,-14.75l4.44,-2.56l6.24,-2.16l2.77,-4.32l3.46,-9.36l2.77,-4.32h4.16v-7.92l-5.54,0.72l-4.16,-5.04l-3.44,-6.44l0.93,-0.84l0,0l4.06,-4.25l0,0h49.72l7.62,3.6H260.3l4.85,-2.16L272.15,423.1zM334.25,415.01l1.95,1.6v0.76l-0.73,0.42l-0.24,0.84l-0.41,-0.34l0.41,-0.59l-0.25,-0.67l0.19,-0.96l-1.49,-0.9L334.25,415.01zM333.2,412.56l0.49,1.35l-0.65,0.68l-0.24,-1.52L333.2,412.56z"/>
		<path id="BZ-TOL" title="Toledo" class="land" d="M279.38,725.87l0.08,1.26h-0.41l-0.25,-0.67L279.38,725.87zM280.67,723.77l0.32,0.59l-0.49,0.25L280.67,723.77zM282.38,718.57l0.57,0.08l-0.08,0.42l-0.97,0.17L282.38,718.57zM283.84,717.05l0.24,0.59l-0.65,0.25l-0.25,-0.59L283.84,717.05zM146.65,715.04l0.81,1.01l-0.16,0.51l-1.05,-1.26L146.65,715.04zM144.62,714.53l0.08,0.42l-0.73,0.34v-0.67L144.62,714.53zM149.09,710.25l0.08,0.5l-0.49,0.42L149.09,710.25zM162.16,709.83l0.16,0.84l-0.65,0.34l0.08,-1.09L162.16,709.83zM151.2,708.49l0.32,0.76l-0.57,0.25l-0.24,-1.01H151.2zM148.68,707.9v0.5l-0.89,0.76l-1.38,0.59l-0.08,0.59h-0.73l0.33,-0.84l1.14,-0.25L148.68,707.9zM162.4,706.89l0.49,0.5l-0.89,-0.25L162.4,706.89zM165.08,706.05l0.24,1.09l-1.14,0.76l-0.33,-0.84l0.81,0.25l-0.24,-0.92L165.08,706.05zM170.6,705.13l0.81,0.08v0.5l-1.05,0.34l-1.05,-0.42L170.6,705.13zM166.21,704.87l0.65,0.5l-0.08,0.59l-0.33,0.34l-0.57,-0.34l0.24,0.51l-0.65,0.17v-1.09L166.21,704.87zM145.51,704.62l1.14,0.17l-1.62,0.17L145.51,704.62zM192.6,704.62l0.16,0.76l-0.41,0.08l-0.32,-0.67L192.6,704.62zM150.06,704.45l0.73,2.1l-0.08,1.01l-0.41,-0.25l-0.24,0.93l-0.81,0.17l-0.08,-0.5l0.65,0.17l0.16,-0.5l-0.08,-0.59l-0.49,0.17v-0.34l0.81,-0.25l-0.4,-1.68L150.06,704.45zM164.35,702.86l-0.16,0.84l-0.97,-0.25v0.34l1.82,0.31l-0.44,-0.57l0.81,-0.25l-0.06,0.89l0.47,-0.05l-0.08,-0.42l0.57,-0.08l1.14,1.35l0.73,-0.42l0.16,-1.01l0.81,1.09l-1.79,0.59l-0.81,-0.76h-3.41l-0.32,-1.09L164.35,702.86zM153.31,702.77l1.22,0.42l-0.08,0.84l-0.81,0.17l0.32,0.34l-0.16,1.18l-1.06,-0.08v-1.18l-0.65,0.76v-0.84l-0.73,-0.59l0.65,-0.42l0.49,0.25l0.41,-0.84H153.31zM153.14,701.93v0.42l-0.89,-0.17L153.14,701.93zM155.25,701.43l0.41,0.08v1.01l0.65,-0.17l-0.08,0.76l-0.89,0.84l-0.73,-0.84l0.57,-1.01l-0.25,-0.59L155.25,701.43zM165.32,701.26l1.14,0.42l0.57,0.92l1.54,-0.34l0.24,0.59h-0.97l-0.08,0.76l-0.41,-0.34l-0.81,0.25l-0.16,-1.43l-2.27,-0.5L165.32,701.26zM190.97,701.26l0.08,0.76l-0.57,0.25v-0.92L190.97,701.26zM172.71,700.76l0.65,0.17l-0.08,0.92l-0.57,-0.34l-0.73,1.09l-0.57,-0.17l-0.16,-0.67L172.71,700.76zM155.58,700.42l0.08,0.59l-0.73,-0.17L155.58,700.42zM168,700.42l0.49,1.01l-0.16,0.5l-0.73,-1.34L168,700.42zM153.88,700.25l0.08,0.34l-0.81,0.67l0.65,0.08l0.57,-0.84l0.41,0.42l-0.41,0.92l-0.65,0.08l0.08,0.5l-0.32,0.08v-0.59l-0.97,-0.92L153.88,700.25zM154.69,699.25l0.49,0.42l-0.33,0.42l-0.49,-0.33L154.69,699.25zM148.68,699.08l0.16,0.93l-0.73,-0.34v-0.59H148.68zM153.39,699.08l-0.08,0.84H152.9l-0.24,-0.84H153.39zM158.42,698.4l0.49,0.42l-0.48,1.34l-1.79,-0.33l-0.08,-0.34l1.14,-0.08l0.25,-0.67l-0.33,-0.17l-1.54,0.84l0.49,-0.92L158.42,698.4zM155.58,697.98l0.24,0.59l-0.81,0.25l-0.16,-0.59L155.58,697.98zM172.3,694.88l0.24,0.92l-0.89,1.43l-0.57,-0.59l0.57,-1.6L172.3,694.88zM158.58,694.62l0.24,1.01l-0.65,-0.34v-0.67H158.58zM157.45,693.95l-0.33,0.93l-0.81,-0.25l-0.08,-0.42L157.45,693.95zM159.15,693.95l0.08,0.51l-0.81,-0.17L159.15,693.95zM159.8,692.86l0.16,0.25l-0.65,0.59L159.8,692.86zM177.99,691.94l0.41,1.01l-0.81,-0.67L177.99,691.94zM185.94,691.52l-0.49,1.26l-1.14,-0.08v-0.59L185.94,691.52zM164.18,691.26l-0.24,1.01l0.65,0.76l-1.05,-0.08l-0.08,0.34l1.06,0.34l0.08,1.34l-0.57,0.17l-0.32,-0.5l-0.57,0.59l-0.32,-0.75l0.41,-0.08l0.25,0.26l0.4,-0.77l-0.65,-0.17l-0.21,0.47l-1.09,0.28l0.24,0.84l-0.32,0.42l-0.81,0.59l-0.48,-0.17l-0.33,-0.84l0.98,-0.08l-0.81,-0.5v-0.42l2.76,-0.76v-0.34h-0.57l0.57,-0.5v-1.18l0.73,0.17L164.18,691.26zM162.72,691.01v0.67h-0.73v-0.59L162.72,691.01zM173.28,690.68l0.32,1.26l-0.97,-0.25l-0.41,0.92h-0.65l-0.24,0.59l-0.89,-0.34l0.33,-1.01l0.97,-0.67l0.97,0.08L173.28,690.68zM145.43,689.84l0.24,1.01l-0.49,-0.59L145.43,689.84zM164.92,689.25l1.87,0.67l-0.65,0.42l-0.81,-0.17l-0.24,-0.59l-0.97,0.42v-0.59L164.92,689.25zM177.17,687.57v0.67l-0.73,0.34l0.12,-0.64L177.17,687.57zM174.74,687.06l0.41,1.09l-0.4,0.84l-0.89,0.34l-0.41,-1.26l0.65,0.59l0.55,-0.99l-0.79,0.15L174.74,687.06zM175.95,686.56l0.49,0.92l-0.16,0.51l-1.3,-0.84l0.25,-0.5L175.95,686.56zM190.97,682.69l0.33,0.34h-0.41l-0.16,0.67h-0.65v-0.42L190.97,682.69zM220.28,643.43l0.89,0.67l-0.16,0.34l-1.05,-0.34l-0.16,-0.59L220.28,643.43zM231.97,629.47l0.73,0.93l-0.49,1.43l-0.4,-0.34L231.97,629.47zM229.61,629.39l0.65,0.59l1.05,-0.34l-0.49,0.5l0.49,0.76l-0.73,0.08l0.08,0.51l-1.22,-0.67l-0.24,-1.35L229.61,629.39zM239.52,615.34l0.49,0.34l-0.16,1.77l-0.57,-0.5v-1.01l-0.89,-0.25l0.08,-0.5l3.41,-1.85l-0.49,0.93L239.52,615.34zM132.13,551.16l36.12,-0.69l10.99,2.13l6.24,3.59l4.85,6.47v6.04l-2.77,1.15l5.54,7.19l2.77,2.87l4.16,7.18l1.39,7.9l-0.69,4.31l-4.16,2.15l0.69,2.87l44.94,1.93l0,0l1.06,0l0.08,1.26l-1.54,0.51l-2.19,-0.5l-0.97,0.59l0.33,1.18l-0.81,2.44l0.08,1.35l-2.43,1.68l0.24,1.35l-1.3,1.94l-0.16,2.36l0.73,1.68l-0.65,2.02l0.08,1.26l-0.32,-0.25l-0.89,0.59l-0.41,-0.67l-0.81,0.25l-0.57,-1.09l-1.22,1.01l-0.57,-0.17l-0.4,1.09l0.41,2.44h-0.49l-0.16,-0.92l-1.46,-0.59l-0.08,-0.84l-0.97,-0.84l-0.81,-0.34l-0.49,0.42l0.98,0.17l0.49,0.59l0.16,1.77l0.41,0.42l-0.41,0.5l0.16,1.35l0.65,1.43l-1.79,-0.34l-0.08,0.67l0.97,1.43l-0.89,0.34l-0.16,0.67l-0.73,0.34l0.16,1.09l1.06,0.42l0.24,0.59h0.57l0.89,-1.26l0.73,0.08l0.65,-1.35l0.33,0.59l0.73,0.17l-0.16,0.67l-1.3,0.51l0.16,0.76l-0.73,-0.17l-0.89,1.18l0.24,0.5l-0.33,0.25l-0.41,-0.59l-0.97,-0.08l-2.6,2.19l-0.81,-0.17l-0.24,-0.59l0.49,-0.42l0.33,0.51l0.08,-1.09l-0.73,-2.61l-1.22,1.18l-2.68,1.35l0.24,0.76l-0.73,0.59l0.32,2.77l-0.89,0.76l-0.57,2.1l0.49,0.93v1.68l-1.38,1.18l-0.49,2.35l-1.79,4.2l-3,1.68l-2.76,2.27l-2.19,2.19l-0.41,1.85l-2.03,2.19l-4.06,2.1l-0.89,2.27v6.89l-5.93,0.17l-0.73,0.76l-1.46,-0.08l-1.05,0.67l-0.81,1.43l-0.16,2.35l-0.81,2.35l-0.49,0.25l0.16,1.34l-1.14,1.26h-0.41v-0.59l0.49,-0.76l-0.57,0.08l0.16,-0.75l-0.89,-0.84l-0.16,-0.76l2.35,-2.18l-0.08,-0.59l-1.06,-0.92l-1.22,0.17l-0.73,0.67l-0.49,1.68l-1.05,0.34l-0.49,-0.34l1.46,-1.34l0.16,-1.76l0.73,-0.67l-0.08,-2.6l-2.52,2.44l1.3,2.19l-0.16,0.59l-1.14,0.76l-0.08,-0.67l-0.97,-0.59h-0.89l-0.57,0.67l-0.81,-0.42l-1.62,-3.02l-5.19,-4.54l-3.9,-0.08l-1.7,1.01l-0.81,2.02v1.93l1.3,0.59l0.16,1.93l-0.16,0.76l-0.65,0.25l-1.22,1.77l-1.54,-0.17l-0.33,-1.01l-0.97,-0.34l-1.14,1.18l-1.3,0.08l0.16,0.93l-0.73,-0.17l-0.89,0.67l-2.11,0.34l-1.87,-0.25l-0.49,0.76l-1.05,0.42l1.71,0.67l-0.41,1.01l-0.41,-0.34l-1.71,0.42l-2.84,-0.08l-0.73,-0.5l-2.52,-0.25v0.59l-0.89,0.08l0.89,1.51l-1.46,-0.08l-0.16,1.68l-0.89,1.09l-2.44,0.34l-1.46,0.67l-0.33,1.18l0.65,1.6l-0.57,0.42v1.01l2.03,4.2l-0.81,1.26l0.24,0.92l0.89,1.18l-0.08,0.59l1.14,1.26l1.46,0.17l-4.38,2.44l-0.4,0.76l0.33,2.18l-0.81,0.08l-1.22,0.92l0.08,1.34l1.54,1.6l-0.4,0.34l-0.16,1.26l-8.04,3.19l-0.97,0.5l-0.65,0.92l-3.33,0.76l-0.89,1.26l0.16,1.68l-0.65,0.76l-0.16,2.02l-1.06,0.67l-1.13,2.02l-0.73,3.53l-1.54,0.34l-1.22,-0.59l-3.08,0.5l-0.97,1.26l-0.49,1.6l-2.19,0.84l-0.49,1.18l-0.89,0.34l-0.73,0.92l-0.81,0.17v3.78l-0.57,3.11l-1.06,1.85l-5.27,2.52l-2.76,2.35l-2.76,1.43h-0.81l-4.95,2.18l-2.03,2.94l-1.78,0.25l-0.81,1.01l-0.73,2.52l-0.49,4.78l3.57,11.5l1.22,1.93l1.79,4.49l-3.39,1.8l-4.59,1.45L80.19,792l-5.47,-1.27l-4.81,-0.48l-3.65,-1.94l-1.08,0.09l-3.23,1.84l-1.24,-0.08l-1,-2.74l-1.16,-0.99l-2.91,-1.15l-2.5,0.31l-1.54,2.1l-1.18,-3.43l-0.76,-0.48l-0.77,0.21l-0.48,0.9l0.35,1.38l-0.48,1.25l0.14,1.32l-1.3,-0.72l0.04,1.58l-0.9,-0.27l-2.31,-2.62l-0.18,2.9l-0.83,0.07l-0.31,-0.57l-0.08,1.34l-0.82,0.07l-2.01,-3.79l-1.31,-0.69l-2.68,0.08l-2.62,0.91l0.74,1.73l-0.2,0.55l-1.17,-0.27l0.03,1.11l-1.17,-0.27l-0.76,-0.69l-2.13,0.35l-2.1,-1.89l-2.99,2.4l-1.72,0.49l-3.03,-1.16l-3.66,-3.23l-1.31,-0.34l-0.82,0.24l-0.59,2.59l-2.24,0.01l-6.7,2.51l-1.49,-0.73l-0.3,-1.43l-1.02,0.14L0,781.15l2.3,-22.45l8.13,-125.6l0,0l8.77,-0.76l4.85,-10.05l5.54,-3.59l2.77,-4.31h19.4l2.08,-2.87l0.69,-2.87l3.46,-5.03l4.85,0.72l2.77,4.31l5.54,0.72l8.31,-3.59l2.77,-5.74l4.85,-3.59l8.31,-2.15l2.77,-1.44l4.16,-3.59l3.46,-2.15l6.24,-2.87l12.47,-12.93v-3.59l-4.85,-1.44v-3.59l6.93,-1.44l0.67,-6.23l1.17,0.01L132.13,551.16z"/>
	</g>
</svg>
