<?xml version="1.0" encoding="utf-8"?>
<!-- (c) ammap.com | SVG map of Iceland - Low -->
<svg xmlns="http://www.w3.org/2000/svg" xmlns:amcharts="http://amcharts.com/ammap" version="1.1">
	<defs>
		<style type="text/css">
			.land
			{
				fill: #CCCCCC;
				fill-opacity: 1;
				stroke:white;
				stroke-opacity: 1;
				stroke-width:0.5;
			}
		</style>

		<amcharts:ammap projection="mercator" leftLongitude="-24.531109" topLatitude="66.574598" rightLongitude="-13.496555" bottomLatitude="63.377251"></amcharts:ammap>

		<!-- All areas are listed in the line below. You can use this list in your script. -->
		<!--{id:"GL1"},{id:"GL2"},{id:"GL3"},{id:"GL4"},{id:"GL5"},{id:"GL6"},{id:"GL7"},{id:"GL8"},{id:" GL9"},{id:"GL10"},{id:"IS-1"},{id:"IS-2"},{id:"IS-3"},{id:"IS-4"},{id:"IS-5"},{id:"IS-6"},{id:"IS-7"},{id:"IS-8"}-->

	</defs>
	<g>
		<path id="GL1" title="Glacier 1" class="land" d="M264.99,231.56L264.08,236.48L261.22,238.53L261.22,239.67L262.61,240.08L263.35,241.31L263.02,245.16L258.76,247.78L257.53,249.42L259.5,249.99L259.42,251.96L256.96,254.74L258.02,257.44L257.94,259L255.65,260.64L255.49,263.42L253.03,265.06L253.03,266.2L254.75,266.53L255.08,267.84L252.29,270.54L243.29,275.54L239.27,280.21L235.92,280.12L235.1,275.95L233.95,274.64L230.67,275.7L230.59,279.96L229.53,282.01L228.38,282.5L227.07,281.76L224.12,276.52L224.21,273.74L223.63,272.43L220.11,272.02L219.78,270.63L221.26,269.81L220.11,268.91L218.8,268.91L218.15,269.97L217.27,269.93L217.27,269.93L217.25,269.81L217.25,269.81L213.99,266.63L220.36,261.43L219.81,257.55L223.65,254.6L228.84,252.82L232.88,253.2L237.07,252.19L237.84,250.57L236.83,248.55L241.1,245.37L243.43,245.52L245.21,247.54L246.3,243.97L246.22,236.37L251.5,230.94L253.28,229.54L255.07,229.31L256.07,226.75L260.01,226.21L260.01,226.21L263.02,227.14L264.33,228.95z"/>
		<path id="GL2" title="Glacier 2" class="land" d="M299.82,242.08L300.3,241.99L300.59,239.66L298.11,235.88L297.97,231.51L302.63,231.66L303.94,227.73L306.27,227.44L306.7,226.42L305.54,225.11L306.12,222.78L312.67,217.24L317.91,216.95L320.97,219.57L323.15,220.3L325.04,220.16L325.04,218.55L327.23,218.26L329.56,221.03L336.69,224.96L336.09,229.95L336.09,229.95L335.38,231.22L335.96,243.74L332.91,249.27L330.43,251.16L328.1,252.18L324.9,249.71L323.73,252.33L323.88,254.37L326.5,257.57L325.19,258.44L324.32,260.04L321.84,258.3L319.08,258.01L318.35,254.08L314.71,253.78L313.69,260.04L311.07,259.61L308.45,258.15L302.92,252.91L302.92,251.46L302.04,250.87L300.01,251.02L298.26,246.94L300.01,243.16z"/>
		<path id="GL3" title="Glacier 3" class="land" d="M132.78,68.83L130.83,68.83L124,63.12L120.38,59.08L118.43,58.66L116.76,51.27L120.1,47.79L122.33,47.09L126.65,48.49L128.18,50.72L130.41,52.11L131.39,56.43L133.34,57.96L137.1,64.93L134.59,67.99z"/>
		<path id="GL4" title="Glacier 4" class="land" d="M43.05,234.98L43.05,236.1L44.45,235.96L45.14,239.16L44.03,240.42L44.03,241.67L42.22,242.51L37.34,239.3L37.34,238.05L38.46,237.21L38.73,235.68L39.85,234.98z"/>
		<path id="GL5" title="Glacier 5" class="land" d="M232.28,246.76L231.3,247.59L226.43,247.17L225.59,245.78L226.43,244.94L226.43,243.69L228.66,242.02L229.07,240.63L230.47,240.63L231.86,242.16L233.67,242.44L234.09,244.53L232.84,245.36z"/>
		<path id="GL6" title="Glacier 6" class="land" d="M368.59,248.89L367.47,249.32L364.81,248.89L362.66,246.14L364.55,244.34L366.61,243.56L366.96,242.62L371.08,240.56L373.15,241.5L373.66,242.79L372.8,244.6L370.74,245.97z"/>
		<path id="GL7" title="Glacier 7" class="land" d="M273.66,385.3L274.98,386.01L274.98,386.01L276.81,385.61L280.66,386.01L282.08,387.03L282.89,388.65L282.39,389.97L279.75,392.91L277.92,393.52L271.33,393.72L266.56,389.56L265.85,387.94L268.79,384.9L272.55,384.59L272.55,384.59z"/>
		<path id="GL8" title="Glacier 8" class="land" d="M307.24,368.87L309.37,370.09L309.37,370.09L313.94,371.3L317.69,374.55L317.89,375.97L316.98,377.59L313.33,378.61L312.72,380.03L314.24,381.04L315.66,381.14L317.18,382.46L317.18,384.29L314.95,384.49L313.63,388.24L316.68,391.69L320.12,392.5L320.73,393.42L320.43,394.94L315.36,398.69L314.34,397.68L311.4,397.48L310.59,396.16L309.78,395.95L309.88,397.48L308.86,398.79L300.75,398.69L299.73,399.5L297.3,399.2L296.89,400.52L295.98,400.31L294.97,396.46L293.85,395.45L293.14,395.75L293.04,397.68L289.08,400.52L288.78,398.79L290.4,396.56L290.71,392.91L286.14,391.49L285.23,389.97L285.53,388.24L286.55,387.13L288.78,386.72L289.69,385.1L290.5,379.62L292.33,380.13L292.73,380.94L294.36,380.74L293.44,378.71L289.08,377.39L290.6,372.42L292.23,372.93L292.83,373.94L298.42,370.59L298.72,369.68L300.14,369.78L304.3,367.85L305.72,368.06L305.72,368.06z"/>
		<path id=" GL9" title="Glacier 9" class="land" d="M376.14,260.44L376.89,260.67L376.89,262.03L380.38,261.65L381.74,258.15L387.56,253.3L388.15,251.94L390.28,251.55L390.86,248.83L396.11,243.59L400.38,241.46L404.26,242.62L405.03,244.18L407.36,243.79L408.72,241.85L412.02,239.13L415.32,238.55L419.2,236.41L426.58,238.16L429.49,238.35L430.27,237.38L431.43,237.38L434.93,240.29L435.14,239.83L435.14,239.83L435.31,244.56L433.18,246.31L431.82,250.19L432.21,257.57L434.34,256.99L435.51,255.43L435.7,250.78L437.45,250.19L439,250.78L438.42,255.24L440.17,256.02L439.58,259.7L437.06,261.45L437.06,263.97L443.27,261.65L445.21,258.54L446.18,254.08L450.65,249.81L457.25,247.28L465.01,241.07L467.15,240.1L469.28,241.07L474.72,241.07L480.15,242.04L483.45,245.54L483.26,253.3L491.22,259.32L492.96,259.51L493.16,254.46L493.93,252.91L498.4,250.58L501.11,251.55L500.14,254.08L498.01,255.24L498.01,257.76L501.5,257.18L502.86,258.73L504.61,256.99L509.46,256.99L509.46,259.51L508.69,261.26L509.07,263L513.34,263.2L515.67,266.3L513.15,267.47L511.21,270.38L510.43,273.68L508.88,275.23L506.74,275.23L505,276.98L503.44,275.04L502.09,275.04L501.11,276.79L499.76,281.64L500.92,283.19L502.86,283.38L504.41,284.94L504.61,288.04L500.73,287.27L499.95,284.74L497.62,282.22L496.26,282.41L496.26,285.13L493.93,284.36L491.99,284.74L492.77,287.46L488.69,289.98L489.27,291.93L495.1,296L496.46,298.52L499.37,300.46L496.85,301.24L495.1,300.66L494.71,298.72L485.39,292.12L484.62,293.67L478.99,295.42L482.68,299.88L489.47,303.96L480.93,302.6L483.26,305.71L488.5,306.87L487.72,309.01L484.03,309.98L482.48,309.01L479.38,308.62L474.52,309.98L470.25,308.62L463.65,309.2L465.21,312.69L467.73,314.83L466.37,318.9L464.43,319.49L460.16,315.41L460.74,310.75L458.8,310.75L458.41,319.1L460.94,324.34L462.88,326.09L463.65,328.61L463.27,331.33L460.74,333.85L456.47,332.1L455.31,333.08L451.81,332.88L450.45,331.72L447.54,331.33L445.02,332.69L444.24,334.82L450.65,338.12L451.04,339.87L445.41,340.45L443.47,343.36L443.66,345.11L442.5,345.69L441.91,347.63L434.34,347.83L430.27,341.42L431.43,339.87L431.82,335.4L430.46,333.66L427.94,333.08L425.8,333.85L425.22,338.12L423.28,338.12L422.5,334.43L425.8,331.33L427.74,330.55L426.77,328.61L425.03,327.64L423.47,329.58L422.12,329.58L422.12,327.45L415.32,326.48L413.38,325.12L410.27,325.31L411.83,326.86L411.05,328.61L408.53,328.42L407.36,330.16L408.33,331.91L412.8,335.6L411.83,340.65L410.08,341.81L403.87,342.78L400.76,342.39L399.6,340.84L397.82,340.84L397.82,340.84L396.47,338.22L397.83,337.44L399.39,332.78L400.36,325.8L399.77,322.5L400.55,320.56L400.74,317.26L396.28,314.15L394.53,312.21L392.59,312.99L393.56,316.29L392.98,318.23L391.62,318.03L390.65,316.29L389.29,315.31L387.55,315.51L387.35,317.45L384.83,319.78L381.53,319.78L380.56,316.67L380.56,313.96L378.03,314.15L378.42,318.81L379.39,320.56L378.81,326.18L376.29,330.45L368.52,330.26L366.58,329.29L365.03,326.77L363.09,326.38L361.34,324.05L361.54,319.2L364.84,318.42L364.64,316.29L359.79,315.7L359.6,311.04L355.32,309.49L352.8,303.67L352.8,300.95L361.92,291.83L362.51,288.72L364.25,285.81L364.25,283.09L370.85,280.57L371.05,278.82L365.42,276.69L365.03,273L366,269.51L371.82,264.07L374.35,260.58z"/>
		<path id="GL10" title="Glacier10" class="land" d="M216.07,271.63L215.61,275.95L214.38,276.52L211.1,277.67L208.04,274.65L208.04,274.65L208.72,272.75L211.2,270.19L213.99,270.27z"/>
		<path id="IS-1" title="Höfuðborgarsvæði utan Reykjavíkur" class="land" d="M158.79,344.5L156.5,342.67L147.78,342.84L139.72,345.3L132.78,337.64L132.78,337.64L133.13,336.5L135.19,335.78L139.58,335.29L140.39,333.4L141.14,334L141.81,333.39L142.06,333.09L139.67,330.36L137.9,329.72L139.7,326.96L140.94,326.52L141.16,327.15L142.3,327.05L142.68,327.73L142.68,328.72L141.71,327.99L141.4,328.65L139.98,328.78L140.83,329.63L143.09,328.99L142.98,329.88L143.83,329.87L144.47,329.48L143.6,327.14L145.68,326.64L143.22,326.26L142.19,323.93L139.6,321.77L138.68,322.87L138.29,322.18L139.61,320.97L141.98,322.79L143.4,322.12L144.95,323.31L146.31,323.02L147.13,322.09L148.93,323.4L149.09,325.9L149.75,325.04L151.78,325.47L149.92,323.87L150.09,323.26L149.91,322.64L150.47,321.77L151.56,321.47L150.26,320.67L150.12,319.58L151.87,320.21L152.39,321.39L152.52,321.94L154.21,320.97L153.92,320.27L156.36,319.65L156.55,318.55L155.96,318.38L155.02,319.31L152.58,319.33L153.62,318.18L153.09,317.14L155.76,316.45L156.3,315.52L153.44,316.15L151.78,315.11L149.75,315.65L149.57,315.05L150.66,313.69L150.22,312.18L148.22,311.7L146.61,313.05L145.39,312.39L146.4,311.64L146.61,310.91L149.35,305.15L150.6,304.57L152.52,301.7L155,299.43L155.12,298.21L156,299.23L157.76,298.7L158.45,299.36L160.45,299.4L161.64,298.29L158.92,298.06L158.21,296.83L163.2,294.04L164.79,294.14L164.23,294.69L164.41,295.69L166.12,295.98L168.11,295.33L168.72,296.28L171.05,296.79L173.03,296.33L172.53,295.04L174.41,293.46L175.95,293.2L175.95,293.2L180.56,294.32L185.06,297.04L186.22,298.43L186.22,298.43L186.41,298.23L186.41,298.23L186.45,299.07L185.13,300.39L183.16,301.7L181.02,302.03L179.21,304L178.88,305.65L173.78,311.08L174.11,315.69L175.1,317L174.6,322.27L173.45,323.58L172.96,325.89L171.31,327.04L170.82,329.51L166.21,336.25L165.39,338.72L163.91,339.71L162.92,344.32L158.81,344.48L158.81,344.48z"/>
		<path id="IS-2" title="Suðurnes" class="land" d="M101.37,330.77L104.45,332.05L107.85,336.72L109.44,337.92L109.86,340.27L109.47,340.71L110.23,341.26L110.13,343.98L110.73,344.82L111.86,343.82L112.49,344.5L115.15,344.98L117.83,344.87L118.72,344.1L118.02,343.64L118.92,341.65L120.61,340.09L122.16,340.61L125.58,337.86L127.14,337.98L128.68,339.55L129.95,339.87L131.6,339.12L132.78,337.64L132.78,337.64L139.72,345.3L147.78,342.84L156.5,342.67L158.79,344.5L158.79,344.5L157.16,346.13L157.16,346.13L155.35,347.61L153.38,350.57L149.26,353.86L148.6,355.83L143.83,359.78L143.73,361.9L143.73,361.9L139.67,361.98L136.13,362.83L132.68,361.92L130.57,362.68L127.7,362.54L125.88,361.34L123.58,361.18L122.15,359.82L120.95,359.59L119.12,361.7L118.32,361.68L118.42,363.05L117.83,363.57L116.96,363.12L116.62,361.87L114.63,363.44L112.18,362.86L111.98,364.24L111.33,364.18L110.68,365.07L109,365.17L105.79,363.82L101.06,366.45L100.6,364.97L99.16,364.14L100.79,361.75L101.44,359.25L99.35,357.35L99.04,355.63L99.52,354.71L100.86,354.39L101.83,349.62L104.38,349.41L105.12,348.81L104.45,348.62L104.88,347.51L102.62,348.46L101.57,347.83L101.04,348.15L98.37,344.85L98.98,342.14L100.48,341.53L100.92,340.62L100.62,333.96L101.21,332.79L100.63,332.29L101.61,331.59L100.79,330.86z"/>
		<path id="IS-3" title="Vesturland" class="land" d="M196.02,219.27l-0.04,-0.29l0,0l5.9,4.19l6.96,0.08l6.28,3.8l2.56,-3.18l2.02,-1.47h4.19l0.47,-2.33l1.47,-0.85l9.7,4.5l7.22,-1.94l3.41,1.47l12.41,-0.08l1.55,0.62l-0.1,2.4l0,0l-3.93,0.54l-1.01,2.56l-1.78,0.23l-1.78,1.4l-5.27,5.43l0.08,7.6l-1.09,3.57l-1.78,-2.02l-2.33,-0.15l-4.27,3.18l1.01,2.02l-0.78,1.63l-4.19,1.01l-4.03,-0.39l-5.2,1.79l-3.83,2.95l0.54,3.88l-6.36,5.2l3.26,3.18l0,0l0.16,1.16l0,0l-1.34,0.66l0,0l0,0l0,0l-2.07,-1.35l-2.79,-0.08l-2.48,2.56l-0.68,1.89l0,0l-2.27,0.2l-1.24,2.4l-3.49,3.88l-8.07,7.68l-2.33,5.04l-2.17,2.17l0,0l-2.25,2.4l0,0l-1.16,-1.4l-4.5,-2.71l-4.61,-1.13l0,0l-2.35,-0.6l-1.2,0.59l-0.58,1.34l-1.35,0.24l-0.64,-0.14l0.13,-0.5l2.04,-1.19l-0.9,-1.49l-5.09,0.74l-3.3,-1.67l-2.5,0.19l-5.08,3.02l-0.45,1.42l-2.08,1.02l-1.36,2.56l-5.59,4.13l-4.87,1.15l-1.13,-0.73l-1.21,0.22l-0.62,-1.33l-1.1,-0.65l-0.99,0.26l0.42,-1.56l1.34,-0.7l3.63,-4.45l0.83,-0.34l0.06,1.62l2.23,0.14l3.07,-1.53l0.14,-1.11l-2.65,-2.37l-1.39,-0.14l-0.56,1.39l-1.05,0.11l-1.07,1.34l-0.13,-0.98l-2.58,-2.84l1.46,-2.26l0.38,-3.55l1.33,-1.28l0.18,-2.47l1.26,-2.9l3.15,-1.69l1.05,-1.71l0.65,0.39l4.98,-1.03L152,272.26l-0.46,-0.53l1.93,-4.02l-1.45,-0.17l-0.66,0.7l-0.21,-0.77l-2.44,1.86l-0.79,-0.21l-1.04,0.68l-0.43,1.8l-1,-0.55l-0.65,-0.12l-0.07,0.76l-0.95,0.46l-0.71,-0.54l-0.7,0.62l-0.56,2.56l-1.12,-0.44l-0.42,0.71h-2.02l1.61,-4.31l-0.33,-1.16l-1.96,3.26l0.54,0.52l-0.59,1.49l0.47,0.85l-0.3,1.4l-1.57,0.72l0.41,0.93l-0.43,2.83l-1.03,0.66l-2.76,-0.83l-1.24,1.16l-0.93,-0.32l-0.88,-1.77l0.17,-1.64l-0.93,-0.12l-0.53,0.31l-0.49,0.13l-0.32,-0.99l0.53,-0.1l0.23,-2.78l-0.13,-1.33l0.65,-2l-0.63,-1.09l-0.3,-0.28l-1.23,-0.46l-1.03,-1.39l-1.64,1.61l-2.23,0.44l0.37,-3.75h-0.78l-0.35,-1.81l0.92,-2.4l-0.49,-0.45l-0.65,0.61l-1.49,-1.81l0.44,-0.59l-0.48,-0.66l-3.51,-2.24l0.22,-0.98l1.75,-0.92l0.32,-1.73l1.51,-0.85l0.28,-3.23l0.5,-0.25l1.24,0.96l0.96,-1.71l-0.66,-1.76l1.67,-1.17l-0.1,-1.15l-2.25,-1.39l-0.75,-0.08l-0.3,0.86l-2.28,-0.52l-0.48,1.21l-1.32,-0.48l1.43,-1.17l0.73,-1.99l-0.24,-1.18l-0.79,-0.58l-1.86,0.17l0.25,-1l-0.58,-0.58l-1.06,0.73l-0.32,0.3l-0.8,0.85l-1.08,-1.72l-3.92,3.67l0.93,0.61l-0.03,0.49l-2.31,-0.4l-1.14,1.01l-0.63,-1.1l1.42,-0.71l-0.5,-1.01l-0.84,0.73l-1.09,-0.43l0.84,-1.16l-1.14,-1.31l-1.31,-0.23l-3.36,1.24l0.21,1.11l-3.7,-0.7l-1.15,-0.77l-3.6,1.24l-4.31,-1.7l-2.02,1.37l-1.24,-0.88l-3.27,-0.05l-8.65,-2.77l-5.78,-0.22l-0.65,0.36l-0.78,2.84l-1.51,1.31l-2.56,-0.52l-1.82,-1.17l-5.31,0.48l-0.59,1.31l-0.86,0.33l-0.37,1.6l0.75,1.3l-1.49,1.71l-0.05,1.6l-2.84,-0.83l-4.05,0.58l-1.45,1.1l-3.99,-2.83l-2.4,-0.29l-1.27,-2.34l0.21,-0.81l-1.8,-2.22l-0.61,-2.69l-2,-1.46l-1.69,-3.22l-0.49,-3.09l0.14,-1.2l0.93,0.77l2.33,-0.4l3.63,-5.18l1.26,0.51l0.49,-0.71l2.51,-0.69l1.38,0.2l2.73,3l3.68,1.04l0.23,0.77l3.58,0.34l1.89,-3.07l2.8,0.13l0.15,-0.63l1.02,-0.17l1.15,-2.89l1.25,-1.36l2.96,0.68l1.07,0.12l2.55,0.77l-1.76,-2.63l2.11,-0.99l1.19,0.6l0.46,1.48l0.1,0.82l1.14,-0.48l0.67,1.49l-1,1.8l1.33,0.33l1.36,-0.8l0.52,0.88l0.85,-0.08l1.44,-0.73l0.45,-2.35l-0.89,-2.24l-0.45,-4.29l1.75,-1.98l1.31,-0.29l1.64,0.96l3.41,0.18l-1.76,1.68l-0.84,2.45l-0.43,0.94l-1.36,2.59l1.98,1.18l0.14,2.14l1.52,0.95l0.55,-0.31l-0.03,-1.45l-1.23,-5.65l3.73,1.62l0.75,-0.33l1.01,1.58l1.01,-0.27l-0.85,-1.45l-2.74,-0.84l0.93,-3.22l1.18,-1.57l1.69,-0.63l1.79,0.39l1.4,1.3l-0.52,0.6l1.3,0.71l0.41,-1.77l1.2,0.21l0.59,-0.9l1.99,-0.14l0.96,-1.1l2.77,-0.85l-0.03,-0.96l-1.45,0.46l-0.49,-0.63l-2.43,0.3l-1.09,-0.79l0.74,-0.5l0.54,0.73l5.37,-4.57l1.17,-1.88l1.23,0.6l0.51,0.76l-0.14,0.74l1.14,0.6l-1.62,1.59l0.85,0.24l-0.05,1.35l-2.4,1.27l0.07,1.08l1.9,-1.28l0.28,0.79l0.6,0.83l0.76,0.39l0.07,1.17l1.01,0.75l1.01,-0.3l1.23,0.93l0.43,1.41l1.87,1.37l-2.76,-5.2l0.62,-0.28l0.93,-2.82l1.34,-0.18l1.14,-1.74l1.09,-0.52l2.36,0.46l0.13,0.64l2.81,-0.07l0.5,-0.83l5.51,-1.78l2.22,2.42l1.11,-0.35l1.55,0.72l0.75,-0.45l0.45,0.46l-0.35,0.92l1.06,0.1l0.67,0.81l2.17,-0.76l1.38,1.08l0.68,-0.59l-0.12,-0.8l-0.3,-0.6h1.07l0.23,0.81l1.78,-0.51l4.39,1.73l1.47,-0.73l2.32,0.81l1.82,-0.69l3.45,0.24l0.87,0.2l1.53,-1.55l0.16,-2.1l-0.78,-1.08l-2.48,-0.62l0.05,-0.62l3.37,-2.96l0.06,-2.41l2.13,-3.17l-0.09,-1.05l1.42,-1.5l0.24,-2.15l-1.03,-1.36l0.3,-1.81l-1.4,-1.24l-3.96,0.17l-0.59,4.75l-1.07,-0.45l-0.47,1.66l-1.77,0.71l-1.01,1.78l-4.5,3.12l-3.17,1l-3.07,0.03l-2.15,-1.49l-6.05,-0.49l-1.01,-0.93l-1.05,-0.41l-3.59,-1.74l-0.38,-0.79l-1.2,-0.07l0.02,-1.7l-1.3,-0.69l-1.37,1.78l-0.88,0.49l-0.64,0.36l-1.13,-0.57l0.09,-0.71l-3.6,0.37l-0.81,-0.72l0.47,-0.75l-0.59,-1.12l5.64,-0.76l0.21,-0.42l-1.34,-0.84l-0.81,0.48l-1.58,-1.93l0.07,-0.7l1.19,-2.25l0.99,-1.48l0.9,-0.63l0.58,0.4l1.95,-2.23l-0.12,-1.02l2.38,-1.55l0.39,0.57l0.83,-0.93l0.47,-0.89l-1.37,-0.29l0.04,-0.52l11.79,-4.71l1.61,-2.19l4.45,-3l1.87,-2.05l2.13,-0.09l2.02,-3.34l0.81,-0.03l1,-2.21l1.54,1.17l5.96,-1.09l4.76,-4l-0.4,-0.66l0,0l1.91,-3.07l1.44,0.22l1.11,1.44l-1,2.77l-1.77,2l1.66,1.22l0.11,2.22l-2.33,1l-0.78,2.33l0.33,1.77l2.22,1.44l1.77,2.55l4.99,-2.77l1.77,1.44l4.88,6.98l0.67,5.1l3.55,2.66l0.89,1.66l0.33,5.1l1.77,2l0.44,4.54l-2.22,3.66l-0.44,2.33l1.66,3.66l2.11,0.22l0.22,1.22l-1,0.89v1.66l2.22,2.77l0.22,2.88l4.32,2.22L196.02,219.27zM43.05,234.98v1.12l1.39,-0.14l0.7,3.21l-1.11,1.25v1.25l-1.81,0.84l-4.88,-3.2v-1.25l1.12,-0.84l0.28,-1.53l1.12,-0.7H43.05zM232.28,246.76l-0.97,0.84l-4.88,-0.42l-0.84,-1.39l0.84,-0.84v-1.25l2.23,-1.67l0.42,-1.39h1.39l1.39,1.53l1.81,0.28l0.42,2.09l-1.25,0.84L232.28,246.76z"/>
		<path id="IS-4" title="Vestfirðir" class="land" d="M191.47,192.97l-1.88,6.9l0.44,2.88l5.1,9.42l0.55,4.99l0,0l0.33,2.11l0,0l-7.31,-2.55l-4.32,-2.22l-0.22,-2.88l-2.22,-2.77v-1.66l1,-0.89l-0.22,-1.22l-2.11,-0.22l-1.66,-3.66l0.44,-2.33l2.22,-3.66l-0.44,-4.54l-1.77,-1.99l-0.33,-5.1l-0.89,-1.66l-3.55,-2.66l-0.66,-5.1l-4.88,-6.98l-1.77,-1.44l-4.99,2.77l-1.77,-2.55l-2.22,-1.44l-0.33,-1.77l0.78,-2.33l2.33,-1l-0.11,-2.22l-1.66,-1.22l1.77,-1.99l1,-2.77l-1.11,-1.44l-1.44,-0.22l-1.91,3.07l0,0l-0.76,-0.18l-3.54,2.36l-6.34,-1.98l-2.78,1.6l-0.1,-0.77l-0.91,-0.27l1.63,-1.37l-0.03,-1.19l-0.61,0.24l-0.79,-0.68l-2.03,-2.55l-0.06,-1.48l-2.25,-0.72l-0.43,0.64l0.59,3.54l-2.02,0.37l0.46,-2.11l-1.27,-1.98l-0.33,-2.58l-1.76,-1.02l-0.67,0.76l0.82,3.59l-0.98,1.04l0.04,1.43l-1.3,0.79l-0.84,2.79l-0.64,-0.01l-0.08,1.49l-1.56,1.6l-0.7,-0.44l-1.26,0.49l-1.33,-0.33l-0.83,-0.59l-0.88,-0.57l-0.33,-2.21l-1.1,-1.25l-3.96,-1.15l-0.43,-2.06l4.28,-2.78l3.93,-0.45l2.44,-1.04l2.43,-2.73l1.32,-5.05l2.71,-2.81l-0.61,-0.2l-2.56,2.04l-3.44,6.32l-2.27,2.18l-3.61,0.51l-1.6,-0.96l0.45,-1.07l2.77,-2.02l0.1,-3.12l-0.67,0.25l-0.54,1.89l-2.82,2.4l-0.81,1.86l-0.79,-0.53l-0.38,-2.17l-1.59,-1.11l0.93,4.51l-2.32,2.06l-1.41,0.33l-0.8,-0.85l-0.22,-2.54l0.8,-3.37l-2.17,-5.74l0.15,-2.05l-2.17,-4.8l0.42,7.02l1.03,2.92l-0.38,3.43l-2.08,2.54l-1.39,-2.01l0.58,-3.29l-2.06,-7.12l0.64,6.57l-0.95,4.23l0.66,1.22l-1.23,1.72l-2.43,-1.54l-1.82,-7.43l2.42,-4.38l-0.03,-2.32l-1.61,2.59l-1.29,0.71l-1.17,-1.96l-1.05,-0.66l-0.76,0.39l2.33,7.48l-0.29,2.68l1.58,7.29l-2.99,-1.31l0.46,-0.79l-1.56,-2l-2.47,0.16l-0.86,-1.2l-1.47,0.47l-0.04,-1.14l1.1,-0.7l0.01,-0.95l0.92,-0.99l0.82,-1.11l2.55,-3.75l-1.71,-1.59l-1.45,0.07l-1.14,-2.64l0.59,4.92l-3.69,4.14l-0.39,-3.58l-0.93,-1.15l-0.47,-2.45l-1.21,3.65l0.59,0.66l-0.7,0.95l0.14,1.26l-2.18,3.63l-2.56,0.46l-1.51,-1.3l-3.49,-0.29l-0.42,-3.41l0.97,-1.89l-0.8,0.01l-2.08,2.81l0.2,0.94l-1.36,1.89l1.29,4.75l-1.92,3.45l-1.56,0.49l-6.61,-1.29l-1.93,-3.47l-0.93,-0.09l-0.03,0.92l-1.4,0.53l3.04,1.94l-2.36,-0.23l-2.43,1.83l-3.12,1.15l-1.69,-0.05l-1.44,1.17l-3.15,-0.56l-0.7,2.19l-1.55,1.16l-0.35,2.1l-1.34,1.88l-9.41,1.15l-3.79,-0.84l-0.82,-1.16l1.28,-4.44l-0.32,-1.95l-3.68,-1.03l0.93,2.93l-5.01,-3.51l-5.59,-2.62l-2.88,-0.51l-1.15,0.85l-8.58,0.49l-3.26,1L0,146.81l3.22,-2.24l1.31,-3.14l3.05,-0.25l1.55,-1.32l0.42,-1.7L8.87,134.1l2.76,-3.04l0.29,-2.86l9.04,4.24l1.41,1.64l0.54,1.8l1.03,0.54l0.76,-0.43l2.14,2.14l1.84,0.88l1.84,-0.25l1.75,0.7l0.35,1.49l3.56,3.58l2.16,0.72l1.02,-1.59l2.81,-0.95l-1.25,-0.8l-1.33,0.78l-3.09,-0.68l-6.01,-7.52l-1.34,-0.25l-3.83,-5.86l-0.39,-1.11l0.91,-0.35l7.34,0.99l1.98,2.16l4.31,1.66l0.29,0.97l2.13,1.56l-1.92,-3.73l-1.97,-0.4l-3.63,-3.96l-2.88,-1.75l-2.14,-0.52l-3.28,-3.25l-3.28,-11.25l1.24,-3.73l3.71,0.92l6.52,4.89l3.07,0.62l2.42,2.89h1.16l2.33,1.83l1.6,0.2l6.81,3.72l-0.41,2.69l1.76,-1.01l0.69,2.49l1.14,1.48l0.12,1.24l-1.55,2.28l0.52,0.87l-0.25,1.99l1.48,0.51l2.13,-4.91l1.53,1.91l-0.15,-2.63l4.36,3.5l1.5,-1.73l-1.4,-0.66l-1.23,-2.52l2.87,-0.51l1.21,-1.05l2.19,-0.19l2.46,-1.34l-0.86,-0.39l-3.93,0.47l-2.21,0.91l-3.73,-1.13l-1.8,-0.93l-2.85,-4.67l3.62,-1.25l5.25,-0.16l2.39,-1.33l3.53,-0.17l2.88,0.78l0.21,-1.66l-1.59,-1.2l3.59,-2.23l-0.81,-1.55l-2.07,0.23l-3.35,2.55l-2.12,-0.24l-4.71,1.23l-5.35,-0.57l-1.41,0.84l-9.67,-3.32l-6.33,-6.93l-2.52,-7.53l1.49,-4l1.92,-1.15l9.17,3.51l0.44,1.82l2.37,1.44l2.06,0.07l1.3,-1.29l1.96,-0.07l1.04,2.07l1.44,1.14l1.75,-0.11l1.43,0.76l2.67,-0.39l5.28,2.36l3.58,0.16l-7.37,-2.81l-0.96,-1.2L62.4,96.98l-1.58,-0.85l-0.65,0.41l-0.23,-2.33l-0.6,-0.6l-1.7,-1.06l-1.8,0.65l-2.78,-1.23l-1.98,-2.97l-4.97,-3.57l-0.56,-1.36l-2.1,-1.4l-2.49,-3.96l-0.98,-0.56l-0.71,-3.79l1.53,-3.79l1.65,-1.3l2.91,1.64l2.61,0.07l5.71,3.4l6.77,2l0.19,-1.74L59.7,73.38l-3.95,-2.22l-6.72,-5.67l-1.28,-2l0.52,-0.96l4.16,-0.41l1.41,-1.59l1.45,0.15l2.79,1.57l2.17,2.59l4.2,2.53l-4.26,-3.81l-2.05,-3.11l-7.16,-2l3.54,-4.36l3.36,-0.33l-0.34,-1.63l0.69,-0.62l6.44,0.66l2.92,0.97l3.02,2.07l0.66,2.45l1.94,-0.21l3.47,2.34l1.95,5.04l-1.07,3.58l-2.56,1.49l0.56,2.61l0.48,0.14l0.42,-1.43l1.64,-1.08l3.9,-5.1l0.85,-0.01l2.06,1.97l0.54,2.06l-0.04,6.97l-2.61,2.21l-2.9,5.47l0.56,0.25l1.63,-1.48l0.78,-1.36l3.35,-3.72l1.63,-5.52l1.41,4.55l-1.4,3.85l0.94,2.78l0.79,0.03l-0.78,-2.94l2.5,-4.29l-0.35,-2.4h1.26l0.13,4.5l-1.54,4.7l-4.86,6.81l-0.63,1.62l0.38,0.5l2.96,-4.48l2.62,-2.38l2.65,-6.72l1.03,2.45l-0.35,5.94l-2.02,5.89l0.1,2.02l0.88,-0.53l3.16,-8.23L96.37,83.72l0.76,-3.11l-0.83,-2.4l1,-6.61l0.69,-0.75l1.61,2.2l0.74,-0.97l1.79,0.4l1.12,3.7l1.5,1.02l0.75,-0.45l0.63,2.94l1.14,0.45l-0.45,0.59l0.46,1.58l0.9,-0.12l-0.6,2.82l0.45,0.75l-0.44,5.21l-3.23,7.9l0.62,0.75l-1.36,3.08l0.47,0.33l0.74,-0.2l1.4,-2.8l-0.05,-2.91l1.31,-1.8l0.2,-2.16l1.21,-1.95l-0.04,-2.31l1.73,-2.06l0.04,-2.99l0.46,-2.52l0.48,-0.14l1.2,3.18l-0.02,2.3l0.69,0.27l0.33,-1.05l0.42,-0.73l1.24,2.07l-0.3,6.26l1.07,-1.21l-0.37,-2.69l0.86,-1.49l0.38,3.58l-0.87,2.58l0.27,1.22l-2.95,6.54l-1.96,3l-3.64,3.24l2.31,-0.61l3.39,-3.31l0.58,-1.73l2.65,-2.25l0.49,-2.64l1.53,-3.06l-0.12,-2.14l1.03,-1.11l1.06,0.24l0.64,-0.52l-1.23,-1.9l-0.71,-0.33l-0.74,-5.71l-1.25,-3.58l-3,-3.68l-1.16,-0.33l-0.29,-1.36l1.46,-2.09l-0.37,-1.83l4.15,-3.13l0.7,-1.48l-2.28,0.56l-2.22,1.79l-2.84,-0.41l-3.34,-1.93l-1.27,-1.98l-3.33,-0.98l-5.03,-2.91l-1.48,0.01l-1.09,-1.23l-2.85,-0.67l-5.31,-4.58l-1.65,-2.29l-0.8,-3.17l0.54,-1.65l3.4,-1.25l1.2,-0.88l1.08,-0.96l5.97,-1.13l4.76,2.82l3.7,-0.19l2.03,3.01l2.21,1.17l-0.41,-1.92l-1.42,-1.07l0.1,-1.77l2.38,1.32l0.25,-1.62l4.39,-0.72l4.08,-2.26l-1.64,0.08l-0.61,-0.54l-4.65,1.36l-4.65,-0.52l0.92,-2.23l2.01,-0.61l1.63,-2.1l1.62,-0.88l-1.5,-0.4l-0.11,-1.32l0.63,-0.9l-1.8,-0.87l0.19,2.15l-1.2,2.08l-3.14,2.65l-4.53,-0.34l-2.46,-1.32l1.93,-4.58l0.16,-2.72l3.2,-0.95l0.25,-1.52l-4.44,1.02l-1.98,4.38l-2.31,1.78l-3.83,0.88l0.42,-4.26l2.04,-1.28l0.58,-2.53l-1.43,2.24l-3.59,1.91l-0.43,2.66l-1.02,1.12l-2.83,1.31l-0.95,1.17l-3.37,-0.15l-0.7,-0.41l-2.49,-2.11l-4.3,-2.19l-2.05,-3.13l0.92,-1.17l5.13,2.5l1.34,-0.57l0.35,-1.04l1.7,-0.57l0.56,-1.52l-0.34,-2.85l-2.12,-0.19l-4.31,-5.65l2.15,-1.18l2.77,2.52l1.57,-2.29l3.89,0.11l1.31,-2.47l-1.64,-1.19l0.03,-0.8l1.42,-0.67l4.76,1.57l2.15,2.41l3.86,0.65l1.05,3.12l1.58,0.32l1.35,-0.3l1.81,-3.16l1.19,-0.87l-0.67,-2.68l0.79,-0.49l1.44,0.13l2.96,2.5l0.49,2.26l1.57,-0.11l0.29,0.98l1.9,-0.32l0.6,-2.51l-1.83,-2.82l1.01,-0.08l2.84,1.22l0.14,1.25l0.63,0.39l0.02,4.18l1.11,0.94l0.54,2.01l5.21,2.92l-0.34,1.26l2.06,1.04l-0.99,1.41l0.63,1.41l1.02,0.29l2.21,-0.97l-2.66,4.25l0.38,1.02l1.74,1.16l-2.16,3.71l0.72,1.13l0.91,0.28l2.87,-2.75l0.65,0.08l0.34,1.96l-1.14,2.22l0.56,0.47l2.62,-4.42l0.17,-1.43l0.96,-0.73l-0.49,4.09l1.13,1.43l1.58,-0.78l1.52,0.21l2.99,-2.3l-0.2,3.4l1.34,1h1.05l-0.54,2.83l-3.63,2.49l-0.81,1.3l3.99,-2.5l1.43,0.01l0.16,1l1.24,0.52l1.01,1.74l1.92,0.01l2.06,1.02l3.27,0.04l-1.34,1.48l-0.1,1.08l2.55,1.73l-1.57,3.92l0.38,1.3l0.77,1.03l-1.12,2.64l1.04,1.69l-0.3,1.28l0.53,1.16l1.63,1.05l1.75,-2.54l1.78,2.48l-0.52,2.09l-1.98,2.54l0.29,0.4l2.73,-1.77l0.87,-1.66l0.1,-2.62l-1.22,-1.83l0.57,-1.91l1.27,0.27l2.7,-0.81l2.75,6.02l-0.71,0.25l-2.74,-1.31l-0.63,0.68l1.41,1.06l-0.18,1.5l1.6,1.17l0.06,0.9l2.52,-0.07l4.11,-1.84l4.42,3.57l0.2,1.57l-0.56,0.54l-2.31,-0.26l-3.73,0.87l-2.74,1.48l-2.1,-0.15l-3.48,1.63l-0.89,-0.14l-0.2,0.63l0.75,2.27l4.37,-2.02l2.15,0.38l2.22,-1.24l2.53,-0.29l1.01,0.49l-0.15,1.01l-3.96,1.85l-0.51,1.18l7.29,-1.47l2.01,1.98l0.15,2.4l0.49,0.12l-0.2,2.67l-2.39,2.21l2.63,2.01l-1,1.79l0.1,2.38l-0.83,0.6l-1.46,3.72l-2.54,2.27l-3.56,0.49l-0.74,0.84l-1.72,-0.32l1.98,1.96l1.94,-0.3l1.14,1.21l3.21,0.94l-0.23,1.48l-2.18,1.39l-2.9,4.82l-4.89,-0.07l-2.14,-0.51l-0.15,-0.81l-2.15,-1.44l-2.49,-2.21l-1.67,-4.81l-2.21,-1.11l-0.15,-0.89l-3.23,0.8l-0.42,0.81l2.54,0.77l3.14,2.67l1.11,4.5l-1.88,1.87l1.42,0.93l0.17,2.77l1.06,0.56l-0.16,1.4l0.9,0.93l0.99,-0.4l1.05,0.9l4.59,0.22l1.63,-1.09l4.93,2.17l0.11,3.21l-3.79,3.85l-1,1.77l0.3,0.99l0.79,0.25l5.76,-6.25l3.69,0.99l-0.02,7.31l-1.59,4.71l-3.07,2.88l-0.01,1.08l-5.33,4.49l1.15,0.19l9.35,-5.6l0.88,3.15l1.58,1.11l0.33,1.47l1.19,0.25l0.68,0.33l0.52,0.33l-1.03,2.58l1.6,2.29l-0.37,2.82l0.64,4.9l-1.06,4.59l3.76,7.9l-0.44,0.58l2.47,4.4l0.09,6.91L191.47,192.97zM132.78,68.83h-1.95l-6.83,-5.71l-3.62,-4.04l-1.95,-0.42l-1.67,-7.38l3.34,-3.48l2.23,-0.7l4.32,1.39l1.53,2.23l2.23,1.39l0.98,4.32l1.95,1.53l3.76,6.97l-2.51,3.07L132.78,68.83zM107.28,154.8l-1.11,0.84l-1.95,-0.14l-0.56,-0.97l2.93,-2.65l1.11,0.56L107.28,154.8z"/>
		<path id="IS-5" title="Norðurland vestra" class="land" d="M302.92,57.71l3.2,3.04l-1.16,2.77l1.75,1.6l0.58,2.33l5.39,4.22l-2.91,10.19l2.91,4.8l0.15,5.82l-3.93,2.48l-2.18,2.18l-0.15,3.49l5.97,5.97l3.93,2.62v12.96l-2.04,5.68l-3.2,4.66l0.58,5.1l1.46,1.75l2.18,1.17l5.68,1.31l1.75,4.95l-2.18,3.49l-0.29,1.75l1.31,0.73l0.15,5.82l1.16,3.35l2.48,2.18l1.31,2.77l4.95,3.2l0.73,8.44l9.03,6.41l0.15,6.41l1.75,4.08l0.15,5.24l-2.04,7.72v5.24l1.75,1.46l2.04,3.93v5.39l-1.31,1.75l-3.93,-0.58l-2.04,1.46l-0.29,1.6l-0.71,0.59l0,0l-0.91,0.76l0,0l0.6,-4.99l-7.13,-3.93l-2.33,-2.77l-2.18,0.29v1.6l-1.89,0.15l-2.18,-0.73l-3.06,-2.62l-5.24,0.29l-6.55,5.53l-0.58,2.33l1.17,1.31l-0.44,1.02l-2.33,0.29l-1.31,3.93l-4.66,-0.15l0.15,4.37l2.48,3.79l-0.29,2.33l-0.48,0.09l0,0l0,0l0,0l0,0l0,0l-7.52,0.2l-0.87,-1.6l-2.33,-0.73l-4.51,0.73l-4.66,-2.18l-8.73,-2.04h-2.91l-1.46,-3.35l-1.83,-1.55l0,0l0,0l0,0l-0.65,-2.62l-1.31,-1.8l-3.01,-0.94l0,0l0.1,-2.4l-1.55,-0.62l-12.41,0.08l-3.41,-1.47l-7.21,1.94l-9.7,-4.5l-1.47,0.85l-0.46,2.33h-4.19l-2.02,1.47l-2.56,3.18l-6.28,-3.8l-6.96,-0.08l-5.9,-4.19l0,0l-0.29,-1.82l0,0l-0.55,-4.99l-5.1,-9.42l-0.44,-2.88l1.88,-6.9l0,0l0.55,0.33l0.28,-1.5l-0.13,-4.02l-2.75,-9.91l1.46,-2.16l-0.65,-1.55l1.23,-1.56l0.59,-3.06l-1.17,-10.46l0.33,-1.73l-0.83,-3.81l2.13,-1.11l3.84,10.99l1.96,3.84l1.38,0.05l0.85,2.72l0.22,-1.17l-3.76,-13.97l-0.82,-5.53l2.88,-12.9l2.74,-3.82l2.42,-1.57l4.1,-5.25l1.48,-0.6l1.71,-2.51l0.43,0.74l0.82,-0.31l0.73,-1.28l0.92,0.46l0.13,1.39l1.73,-0.07l-0.86,3.24l0.71,2.93l-0.32,4.43l6.22,0.42l7.52,-2l3.49,-2.33l1.39,-5.11l-0.12,-3.39l1.94,-5.18l0.01,-2.13l-0.89,-3.36l0.3,-2.27l-1.27,-2.21l-0.53,-3.58l-0.93,-0.16l-0.17,-1.18l0.99,-1.15l-0.63,-1.23l0.37,-1.92l-2.07,-4.5l-1.1,-5.82l-1.09,-2.51l-0.13,-4.19l-1.37,-3.79l-1.05,-0.33l1.63,-5.69l-0.71,-3.71l2.56,-1.11l1.99,0.23l1.85,-2.71l3.09,0.77l1.74,-0.38l3.58,-3.19l1.27,0.12l1.18,1.15l1.38,-0.16l0.28,2.07l2.82,3.6l-0.63,1.23l0.25,1.72l1.36,1.53l-0.21,1.68l1.77,3.63l2.23,2.3l0.81,2.97l-0.35,1.44l0.95,2.6l2.07,1.24l0.41,0.9l0.7,4.49l1.16,0.18l0.59,-1.11l2.6,2.29l1.66,0.73l0.87,-0.39l1.82,3.17l1.79,6.83l0.87,0.65l-0.3,5.27l0.85,2.46l1.84,1.08l2.88,-0.44l0.63,-0.63l0.49,-2.85l4.16,4.92l4.15,-2.55l-0.34,-2.45l1.46,-1.38l0.28,-1.67l-0.95,-2.65l1.51,-2.27l-1.91,-5.52l-0.26,-2.67l-1.91,-1.91l-0.47,-2.88l-2.27,-3.59l-1.29,-0.43l-0.45,-1.88l0.84,-0.88l4.05,-0.53l0.84,-1.59l0.2,-2.29l-1.95,-4.54l0.16,-1.8l4.54,-3.7l1.19,0.46l1.11,-0.53l3.55,0.12l2.46,-0.87l1.22,0.25l0.87,1.63l1.45,-0.12l0.54,-0.9l-0.69,-0.52l0.21,-1.17l2.22,0.14l0.58,-0.78l0.13,-3.43L302.92,57.71z"/>
		<path id="IS-6" title="Norðurland eystra" class="land" d="M362.43,1.98l0.98,1.57l-0.19,2.38l-2.35,-1.64l-0.28,-1.78l0.82,-1.06L360.99,0L362.43,1.98zM550.01,84.8l-3.86,0.6l-1.75,-0.97l-1.36,0.39l-2.72,2.33l-0.78,3.11l-3.49,4.08l-1.16,-1.16l-5.05,0.39l-2.13,1.36l-4.85,-0.78l-3.49,1.17l-6.4,0.58l-3.1,1.36l0.58,4.66l-3.49,2.72l-4.08,2.13l-0.78,1.75l-2.72,1.75l-7.18,1.55l-1.16,0.97l-1.75,6.02v2.33l1.94,11.65l-3.3,5.44l-3.49,0.78l-0.97,1.55l-3.3,-1.94l-4.46,0.39l-4.66,-1.16l-2.13,1.55l-0.78,1.36v3.11l-2.91,6.41l-0.19,3.49l-1.55,3.49l0.58,3.11l7.96,7.18l-1.36,2.52l-0.39,3.11l-2.72,2.91l-1.75,3.11l-3.1,2.91l-0.97,3.69l0.19,13.39l-1.36,1.36l0.39,4.85l1.55,1.75l-3.1,5.05l-4.46,0.78l-3.88,4.27l-1.75,3.3l-6.6,3.11l-3.69,2.52l-2.33,10.29l-1.54,3.42l0,0l-0.21,0.47l-3.49,-2.91h-1.16l-0.78,0.97l-2.91,-0.19l-7.38,-1.75l-3.88,2.13l-3.3,0.58l-3.3,2.72l-1.36,1.94l-2.33,0.39l-0.78,-1.55l-3.88,-1.16l-4.27,2.13l-5.24,5.24l-0.58,2.72l-2.14,0.39l-0.58,1.36l-5.82,4.85l-1.36,3.49l-3.49,0.39v-1.36l-0.75,-0.23l0,0l0,0l0,0l0,0l0,0l0.73,-0.06l-1.94,-2.52l-3.88,-3.1l-7.38,0.39l-2.52,-0.78l-3.1,-2.33l-0.39,-2.52l-2.33,-4.85l-1.16,-2.13l-1.75,-0.97l-2.52,-0.39l-2.33,0.39l-1.16,0.97h-2.52v-2.13l0.97,-1.55l-0.78,-1.55l-5.24,-4.66l-1.94,-0.97l0.12,-2.47l0,0l0.71,-0.59l0.29,-1.6l2.04,-1.46l3.93,0.58l1.31,-1.75v-5.39l-2.04,-3.93l-1.75,-1.46v-5.24l2.04,-7.71l-0.15,-5.24l-1.75,-4.08l-0.15,-6.41l-9.02,-6.4l-0.73,-8.44l-4.95,-3.2l-1.31,-2.77l-2.47,-2.18l-1.16,-3.35l-0.15,-5.82l-1.31,-0.73l0.29,-1.75l2.18,-3.49l-1.75,-4.95l-5.68,-1.31l-2.18,-1.16l-1.46,-1.75l-0.58,-5.09l3.2,-4.66l2.04,-5.68v-12.96l-3.93,-2.62l-5.97,-5.97l0.15,-3.49l2.18,-2.18l3.93,-2.47l-0.15,-5.82l-2.91,-4.8l2.91,-10.19l-5.39,-4.22l-0.58,-2.33l-1.75,-1.6l1.17,-2.77l-3.2,-3.04l0,0l2.51,-1.78l2.83,-3.22l2.62,-0.26l1.37,1.95l-1.23,4.93l0.62,0.08l3.02,-4.32l0.89,-2.8l-0.98,-1.52l3.99,0.85l1.56,1.84l0.14,1.59l-1.69,5.15l0.91,-0.04l1.21,-2.75l2.76,-1.49l1.35,0.27l1.95,2.01l1.91,4.46l-3.24,4.18l0.08,0.83l0.78,0.57l4.26,-2.94l0.99,0.47l1.27,1.91l0.72,6.66l0.63,0.64l-1.17,7.56l1.6,0.98l2.69,-0.18l2.38,2.58l1.49,-0.65l3.49,0.99l1.19,4.03l1.45,1.43l0.77,5.33l0.82,1l1.2,-1.3l1.83,2.22l-0.01,8.02l1.65,1.85l0.64,2.15l-0.59,0.85l0.59,2.06l-0.56,1.71l1.76,1.66l1.3,3.3l1.59,0.74l-0.48,2.08l0.88,0.59l0.58,-0.58v-1.48l-1.94,-9.06l0.68,-3.63l1.35,-2.86l-0.38,-1.08l0.69,-1.46l-0.81,-1.64l0.39,-1.57l-1.41,-5.39l-2.26,-3.43l0.01,-1.36l-0.81,-0.31l0.31,1.47l-1.46,-0.45l-0.45,0.41l-1.94,-1.94l-0.13,-2.36l1.3,-2.25l-3.38,-3.48l-2.32,-5.71l0.05,-1.94l-1.1,-3.59l-0.24,-6l-0.95,-2.68l0.64,-4.94l1.8,-2l0.66,-0.64l6.21,0.75l0.65,2.17l0.8,0.41l0.77,-1.75l1.19,-0.16l1.07,1.04l-0.32,1.26l0.78,0.97l3.59,-1.56l3.85,1.12l2.18,1.93l-0.42,1.16l1.54,2.5l2.76,0.55l0.65,1.87l3.58,3.4l3.23,5.31l-0.04,2.98l1.39,2.45l1.76,0.83l4.47,0.49l5.16,-0.88l1.67,-0.84l2.14,-2.27l-0.34,-1.27l0.47,-1.24l2.18,-2.4l-0.25,-0.83l-1.24,-0.03l0.94,-2.91l-1.01,-0.64l1.68,-1.26l-1.29,-1.02l2.56,-0.15l3.56,-3.36l-0.08,-3.81l-1.06,-0.82l0.01,-0.79l0.34,-1.22l1.61,-0.78l1.5,-2.03l1.42,-0.52l0.99,0.96l1.7,-0.01l0.77,-1.82l5.33,-0.56l1.77,1.39l1.14,5.69l1.51,2.31l-0.54,4.31l1.62,0.98l0.89,-1.05l-1.16,-0.6l0.37,-1.91l5.66,-0.53l2.72,-0.98l2.79,-2.45l11.38,-5.85l4.33,-5.01l0.8,-1.62l-0.33,-2.19l0.68,-2.49l-1.31,-1.34l-1,-1.72l-0.52,-0.96l-0.25,-3.29l-0.97,-2.32l-1.2,-0.9l-0.4,-3.98l0.64,-1.38l-0.98,-2.86l1.5,-0.51l-2.08,-4.43l-0.42,-2.45l-1.47,-1.57l1.36,-4.07l1.87,0.39l0.85,-0.69l1.01,-0.5l2.34,-0.78l0.73,1.14l0.06,1.71l2.55,-1.85l1.45,0.75l1.2,2.57l1.37,0.07l3.03,-1.22l-0.25,-2.51l0.79,-0.26l0.28,1.58l1.38,-0.64l1.56,-3.09l2.15,-0.71l1.54,0.22l0.78,0.96l0.85,-0.26l1.38,-0.04l1.8,0.36l1.74,0.83l1.56,-0.08l1.2,0.64l0.8,1.75l1.06,0.47l-0.6,1.46l1.86,-0.15l0.24,0.57l-2.81,1.8l0.16,1.43l0.1,1.01l-0.52,1.86l0.57,1.98l0.08,0.91l1.75,-0.58l0.62,-0.42l0.64,0.21l0.09,1.19l2.36,-1.19l0.9,0.18l-1.07,2.38l0.28,0.53l1.65,-0.64l2.26,1.09l3.05,0.39l1.16,1.85l0.68,5.68l-0.32,2.14l-1.28,2.43l-3.2,3.39l0.22,1.49l1.44,2.11l2.35,-1.18l0.21,0.39l-1.09,3.1l-0.01,1.97l0.65,0.69l2.92,-0.58l0.88,0.99l2.28,-1.79l0.34,1.81l3.13,0.49l0.22,2.17l1.37,1.46l2.47,0.14l1.44,3.68l1.51,0.41l2.79,-0.7l0.72,-0.78l0.6,-2.08l-1.1,-2.94l0.02,-3.49l0.84,-3.22l1.16,-0.3l2.31,1.1l7.83,-2.7l1.34,-1.44l-0.3,-1.69l1.32,0.25l2.17,-1.53l0.16,-1.17l1.54,-1.9l0.37,-3.66l1.58,-0.29l2.3,-2.69l3.7,-1.88l2.04,-0.17l0.56,1.13l2.71,2.14l2.29,0.47l2.78,-0.4l3.59,-2.18l4.21,-0.55l-2.05,2.56l-5.98,2l-3.99,2.58l-1.16,0.14l-4.4,4.19l-1.29,-0.07l-4.22,1.85l-2.15,3.77l3.94,5.28l-0.73,4.71L524.9,59.5l-4.78,1.16l-2.11,3.05l1.92,2.69l5.26,-0.9l-0.74,2.4l0.47,1.63l-2.11,3.56l0.69,0.57l2.66,-0.76l1.57,0.29l0.38,1.42l1.74,-0.26l0.76,0.79l2.81,-0.67l0.64,2.62l0.94,0.61l2.52,-0.52l1.44,-3.39l2.03,-0.6l1.43,-1.98l0.75,-0.3l1.69,1.31l1.13,-0.14l1.52,6.04l1.71,1.21L550.01,84.8zM368.59,248.89l-1.12,0.43l-2.66,-0.43l-2.15,-2.75l1.89,-1.8l2.06,-0.77l0.34,-0.94l4.13,-2.06l2.06,0.95l0.52,1.29l-0.86,1.81l-2.06,1.38L368.59,248.89z"/>
		<path id="IS-7" title="Austurland" class="land" d="M550.01,84.8l0.25,1.78l-3.25,8.33l-3.56,2.68l-0.61,1.58l-0.04,0.73l-3.35,1.52l-0.45,2.23l-1.06,1.2l1.23,3.01l-1.47,-0.47l-1.21,2.3l-2.1,1.65l-1.18,1.27l0.48,1.02l7.37,-6.72l-0.93,2.93l-1.31,0.81l-2.58,4.11l1.04,1.35l2.71,0.16l1.35,-1.75l1.45,0.22l3.47,-2.64l0.22,0.69l0.99,0.09l1.2,-1.19l5.02,0.15l2.72,-1.11l2.5,-2l6.64,-1.43l0.09,2.05l-3.02,7.19l0.43,1.66l2.25,2.63l7.24,6.61l7.75,4.39l3.72,0.94l1.39,-0.48l1.68,-1.84l2.1,0.28l0.56,-0.44l1.75,0.93l0.92,3.08l-2,0.9l-0.36,0.86l3.94,1.49l0.1,5.51l1.13,0.86l1.08,-0.16l2.09,-4.44l2.86,-0.08l-0.37,3.25l0.89,0.5l1.19,-1l1.4,2.89l1.34,0.29l-0.88,3.03l0.17,2.9l-1.81,0.09l-0.51,0.93l0.73,1.25l-0.22,1.23l0.98,1.01l-0.43,2.3l-1.78,0.67l1.4,2.98l-1.57,1.95l-2.94,1.73l-1.47,-0.58l-4.83,-0.12l-1.46,0.82l7.66,2.79l0.4,0.98l-2.64,2.77l-5.76,0.24l-2.01,1.87l-5.06,2.07l-0.56,1.71l0.41,0.78l2.11,-2.22l2.94,-0.53l3.45,-1.79l2.42,0.12l1.94,0.94l2.9,-0.15l0.93,-1.62l0.68,-0.08l6.65,3.38l-1.63,4.1l-1.6,1.96l-0.36,1.43l-1.42,0.87l-6.55,1.16l-5.51,-0.54l-7.63,2.4l2.63,0.01l5.08,-1.29l5.04,1.73l6.8,-0.4l1.03,-0.66l1.44,0.79l-0.07,3.19l-1.13,1.81l-1.37,0.62l-3.08,0.05l-2.04,2.17l3.34,-0.71l3.18,0.5l-0.39,1.29l-2.52,1.67l4.2,-0.75l-0.92,3.28l0.52,0.22l1.94,-2.37l1.7,-4.92l2.69,-3.29l-0.57,7.19l-1,2.16l0.51,1.24l1.85,0.14l-0.02,2.4l-2.44,3.27l-3.45,1.25l-0.4,1.34l1.16,1.43l-0.37,1.97l-3.53,1.19l-6.39,-0.1l-1.72,-3.39l-2.57,-2.58l-3.25,-1.82l-2.64,-0.59l-3.71,-3.41l-0.55,0.67l2.79,3.99l-4.73,0.41l-2.1,1.35l-1.98,0.22l-4.55,-1.18l-0.19,1.34l3.23,1.46l6.62,-0.72l1.74,1.05l2,0.07l0.69,0.87l3.09,-0.45l2.62,2.9l0.01,1.3l3.72,2.13l1.5,2.22l4.39,1.15l1.27,-0.78l-0.27,3.69l-1.4,0.5l-3.96,-0.48l-0.42,0.44l-4.25,-1.96l-1.27,0.64l-4.48,-0.08l-4.35,-2.12l-0.28,1.16l2.02,1.49l4.56,1.38l4.46,0.46l1.97,2.02l1.87,1.08l0.93,-0.13l0.88,1.49l-1.23,2.25l-1.75,1.16l-1.41,1.98l-4.09,-1.85l-2.95,-0.04l0.04,0.69l5.1,3.05l1.8,0.22l-0.42,1.26l-1.57,-0.62l-4.15,1.73l-1.45,-0.9l-1.43,0.31l-1.58,1.21l-0.54,-0.22l-0.69,-0.83l-1.65,0.47l0.5,1.26l-0.42,0.58l0.53,0.7l0.72,0.46l0.75,-0.14l1.4,1.94l-0.04,0.94l1.57,1.52l-0.9,1.45l-4.82,3.12l-1.48,0.04l-2.52,-0.01l-0.98,1.44l-1.4,-0.05l-0.58,-0.66l-1.25,-0.01l-1.01,0.61l-1.69,-1.64l-2.8,-0.73l-0.8,-3.59l-1.24,0.14l-0.23,-2.27l-0.42,-0.34l-1.4,-1.51l-1.89,-0.69l0.06,-1.94l-1.9,-1l-1.76,0.57l2.41,1.16l0.52,1.35l-1.23,1.22l0.14,0.96l2.67,1.08l1.3,1.51l0.35,3.55l1.05,1.45l1.79,0.58l0.13,1.9l1.5,0.83l1.22,-0.13l0.38,0.8l1.08,0.43l0.68,1.28l0.69,0.58l-0.7,1l-2.74,-0.1l-0.92,-0.3l-0.6,-1.34l-1.33,0.32l-2.41,-1.18l-3.52,0.75l-1.26,-0.37l-1.9,1.14l2.33,1.77l2.3,-0.1l1.33,1.18l0.13,3.22l-1.27,1.39l-0.9,0.39l-0.32,-0.64l-1.56,0.04l-0.77,1.15l-1.25,-1.19l-1.55,0.46l-1.04,-0.41l-1.33,2.21l0.94,2.42l-0.93,1.79l0.56,0.81l0.94,0.4l1.74,-1.09l1.4,1.21l6.19,-6.91l2.47,-2.13l0.47,0.84l-3.32,2.63l-4.6,7.02l-0.27,1.8l1.04,1.44l-2.33,5.38l0.45,2.8l-1.75,1.55l0.2,1.51l-0.73,1.4l-0.84,-0.36l-5.97,1.06l-4.06,1.5l-1.37,1.23l0.51,-1.13l2.51,-1.23l5.48,-1.56l3.19,-0.26l-4.41,-2.85l-2.25,0.62l-1.8,-0.42l-0.79,3.73l-0.74,-0.15l-2.77,1.91l-0.36,1.41l-1.84,-1l-0.19,1.79l-0.9,0.05l-1.05,1.92l-0.89,0.41l-0.95,-0.86l-1.24,1.14l0.42,1.39l-3.2,2.62l-0.81,1.88l1.97,0.59l2.52,-0.52l-0.52,0.97l0.62,1.12l-1.76,0.23l-0.79,2.49l-1.32,-0.01l-0.53,1.25l0.68,0.8l-0.28,0.56l-2.59,-0.13l-0.64,0.47l-5.05,-0.66l-3.89,1.02l0.95,-0.9l3.67,-1.08l3.91,0.66l2.71,-0.31l0.64,-1.65l-2.63,1.52l-0.37,-0.31l0.81,-0.88l-1.5,-2.47l-2.02,-1.65l-1.59,-0.42l-1.76,2.67l-2.35,-1.42l-0.91,-0.14l-0.86,0.03l0.95,-1.75l-1.65,0.88l-0.41,-0.4l-1.31,-0.28l-1.31,-4.65l-0.29,0.78l-0.69,-0.33l-0.41,-1.73l-1.01,-1.02l-1.72,0.22l-1.02,0.64l-0.27,1.04l0.64,6.73l-0.33,0.63l-1.24,0.19l-0.33,0.65l1.05,-0.1l-0.16,1.03l-0.9,0.43l-0.4,1.48l-2.56,2.76l-3,-2.94L500.15,311l1.11,1.69l-0.28,1.16l-1.4,-0.19l-0.52,-0.67l-0.78,1.27l-6.15,1.87l-1.44,0.02l-0.31,-1.45l-0.47,1.57l-3.81,3.69l-2.15,0.13l-0.32,0.73l-4.58,1.63l-5.26,3.33l-18.84,18.07l-0.15,-0.59l-1.76,-1.34l-0.08,2.56l-1.49,3.7l-1.91,2.62l-3.03,1.51l-0.41,2.09l-1.34,1.32l-2.07,1.46l-3.12,0.42l-2.04,1.95l-0.63,1.08l-3.53,-0.87l0.69,1.16l-2.63,-0.92l0.59,1.96l-0.48,2.69l-0.67,1.41l-0.21,-4.23l-0.79,-0.21l-0.56,0.74l0.41,2.1l-0.66,3.91l-11.67,1.32l-8.75,-0.58l-11.37,1l0,0l0.54,-29.22l0,0h1.78l1.17,1.55l3.11,0.39l6.21,-0.97l1.75,-1.16l0.97,-5.05l-4.46,-3.69l-0.97,-1.75l1.16,-1.75l2.52,0.19l0.78,-1.75l-1.55,-1.55l3.11,-0.19l1.94,1.36l6.79,0.97v2.13h1.36l1.55,-1.94l1.75,0.97l0.97,1.94l-1.94,0.78l-3.3,3.11l0.78,3.69h1.94l0.58,-4.27l2.13,-0.78l2.52,0.58l1.36,1.75l-0.39,4.46l-1.16,1.55l4.08,6.41l7.57,-0.19l0.58,-1.94l1.16,-0.58l-0.19,-1.75l1.94,-2.91l5.63,-0.58l-0.39,-1.75l-6.4,-3.3l0.78,-2.13l2.52,-1.36l2.91,0.39l1.36,1.17l3.49,0.19l1.16,-0.97l4.27,1.75l2.52,-2.52l0.39,-2.72l-0.78,-2.52l-1.94,-1.75l-2.52,-5.24l0.39,-8.35h1.94l-0.58,4.66l4.27,4.08l1.94,-0.58l1.36,-4.08l-2.52,-2.13l-1.55,-3.49l6.6,-0.58l4.27,1.36l4.85,-1.36l3.11,0.39l1.55,0.97l3.69,-0.97l0.78,-2.13l-5.24,-1.16l-2.33,-3.1l8.54,1.36l-6.79,-4.08l-3.69,-4.46l5.63,-1.75l0.78,-1.55l9.32,6.6l0.39,1.94l1.75,0.58l2.52,-0.78l-2.91,-1.94l-1.36,-2.52l-5.82,-4.08l-0.58,-1.94l4.08,-2.52l-0.78,-2.72l1.94,-0.39l2.33,0.78v-2.72l1.36,-0.19l2.33,2.52l0.78,2.52l3.88,0.78l-0.19,-3.1l-1.55,-1.55l-1.94,-0.19l-1.16,-1.55l1.36,-4.85l0.97,-1.75h1.36l1.55,1.94l1.75,-1.75h2.14l1.55,-1.55l0.78,-3.3l1.94,-2.91l2.52,-1.16l-2.33,-3.11l-4.27,-0.19l-0.39,-1.75l0.78,-1.75v-2.52h-4.85l-1.75,1.75l-1.36,-1.55l-3.49,0.58v-2.52l2.13,-1.16l0.97,-2.52l-2.72,-0.97l-4.46,2.33l-0.78,1.55l-0.19,5.05l-1.75,-0.19l-7.96,-6.02l0.19,-7.76l-3.3,-3.49l-5.43,-0.97h-5.44l-2.13,-0.97l-2.13,0.97l-7.76,6.21l-6.6,2.52l-4.46,4.27l-0.97,4.46l-1.94,3.11l-6.21,2.33v-2.52l2.52,-1.75l0.58,-3.69l-1.75,-0.78l0.58,-4.46l-1.55,-0.58l-1.75,0.58l-0.19,4.66l-1.16,1.55l-2.14,0.58l-0.39,-7.38l1.36,-3.88l2.13,-1.75l-0.18,-4.74l0,0l1.54,-3.41l2.33,-10.29l3.69,-2.52l6.6,-3.11l1.75,-3.3l3.88,-4.27l4.47,-0.78l3.11,-5.05l-1.55,-1.75l-0.39,-4.85l1.36,-1.36l-0.19,-13.39l0.97,-3.69l3.11,-2.91l1.75,-3.1l2.72,-2.91l0.39,-3.1l1.36,-2.52l-7.96,-7.18l-0.58,-3.11l1.55,-3.49l0.19,-3.49l2.91,-6.41v-3.1l0.78,-1.36l2.13,-1.55l4.66,1.17l4.46,-0.39l3.3,1.94l0.97,-1.55l3.49,-0.78l3.3,-5.43l-1.94,-11.65v-2.33l1.75,-6.02l1.16,-0.97l7.18,-1.55l2.72,-1.75l0.78,-1.75l4.08,-2.13l3.49,-2.72l-0.58,-4.66l3.11,-1.36l6.41,-0.58l3.49,-1.16l4.85,0.78l2.13,-1.36l5.05,-0.39l1.16,1.17l3.49,-4.08l0.78,-3.1l2.72,-2.33l1.36,-0.39l1.75,0.97L550.01,84.8zM509.8,298.03l0.48,0.95l-0.65,-0.13l0.65,1.25l-0.19,2.06l-0.37,1.34l-0.68,0.23l-0.95,-5.53L509.8,298.03zM511.52,299.88l1.21,2.5l0.48,2.82l-0.51,0.33l-2.79,-0.57L511.52,299.88zM518.06,306.72l0.83,1.44l-1.45,0.65l0.14,1.07l-0.94,0.12l-0.31,-1.71l0.8,-0.47l-0.49,-0.28l0.38,-0.79L518.06,306.72zM516.93,311.85l0.62,0.76l-5.08,-0.37l-8.83,1.1l-1.49,1.24l-10.56,2.24l-2.56,1.67l1.56,-1.63l11.04,-2.67l1.86,-1.07l5.36,-1.03l5.94,-0.25l1.15,-0.79L516.93,311.85zM444.91,355.99l-5.26,6.65l-1.99,4.33l-4.62,0.82l2.01,-0.93l3.9,-3.66l0.51,-1.79L444.91,355.99z"/>
		<path id="IS-8" title="Suðurland" class="land" d="M397.82,340.84l-0.54,29.22l0,0l-10.13,3.36l-5.79,2.78l-3.09,2.19l-3.02,3.06l-8.03,16.65l-6.23,7.4l-9.19,5.29l-7.19,1.23l-23.42,7.05l-7.16,-1.14l-5.32,-1.82l-3.05,0.25l-0.85,1.56l-2.89,-0.65l-2.32,0.96l-8.48,-4.85l-7.31,-2.59l-17.21,-7.57l-9.1,-1.84l-6.75,-0.22l-4.47,1.04l-5.38,-0.96l-5.26,-3.64l-8.91,-9.09l-11.53,-10.23l-10.17,-6.99l-6.6,-7.22l-6.01,-1.63l-8.1,-5.85l-0.35,0.44l-4.74,-0.7l-2.99,0.62l-1.6,1.6l1.05,1.62l-0.34,0.59l-1.16,0.45l-3.99,-0.38l-2.15,0.98l-4.78,0.65l-2.47,1.34l-3.25,-0.55l-1.28,-1.17l-1.4,-2.9l-2.07,-0.82l-2.2,-0.09l-0.39,1.25l-2.61,1.6l-3.88,0.8l0,0l0.1,-2.11l4.77,-3.95l0.66,-1.97l4.11,-3.29l1.98,-2.96l1.81,-1.48l0,0l1.65,-1.64l0,0l4.11,-0.16l0.99,-4.61l1.48,-0.99l0.82,-2.47l4.61,-6.75l0.49,-2.47l1.65,-1.15l0.49,-2.3l1.15,-1.32l0.49,-5.26l-0.99,-1.32l-0.33,-4.61l5.1,-5.43l0.33,-1.65l1.81,-1.97l2.14,-0.33l1.97,-1.32l1.32,-1.32l-0.04,-0.84l0,0l2.06,-2.2l0,0l2.17,-2.17l2.33,-5.04l8.07,-7.68l3.49,-3.88l1.24,-2.4l2.27,-0.2l0,0l3.07,3.02l3.28,-1.15l1.23,-0.57l0.46,-4.32l0,0l1.34,-0.66l0,0l-0.14,-1.04l0,0l0.88,0.04l0.66,-1.06h1.31l1.15,0.9l-1.47,0.82l0.33,1.39l3.52,0.41l0.57,1.31l-0.08,2.78l2.95,5.24l1.31,0.74l1.15,-0.49l1.06,-2.05l0.08,-4.26l3.28,-1.06l1.15,1.31l0.82,4.18l3.36,0.08l4.01,-4.67l9.01,-4.99l2.78,-2.7l-0.33,-1.31l-1.72,-0.33v-1.15l2.46,-1.64l0.16,-2.78l2.29,-1.64l0.08,-1.56l-1.06,-2.7l2.46,-2.78l0.08,-1.96l-1.96,-0.57l1.23,-1.64l4.26,-2.62l0.33,-3.85l-0.74,-1.23l-1.39,-0.41v-1.15l2.87,-2.05l0.9,-4.92l0,0l1.83,1.55l1.46,3.35h2.91l8.74,2.04l4.66,2.18l4.51,-0.73l2.33,0.73l0.87,1.6l7.53,-0.2l0,0l0.19,1.08l-1.75,3.79l1.75,4.08l2.04,-0.15l0.87,0.58v1.46l5.53,5.24l2.62,1.46l2.62,0.44l1.02,-6.26l3.64,0.29l0.73,3.93l2.77,0.29l2.48,1.75l0.87,-1.6l1.31,-0.87l-2.62,-3.2l-0.15,-2.04l1.16,-2.62l3.2,2.48l2.33,-1.02l2.48,-1.89l3.06,-5.53l-0.58,-12.52l0.71,-1.27l0,0l0.91,-0.76l0,0l-0.12,2.47l1.94,0.97l5.24,4.66l0.78,1.55l-0.97,1.55v2.13h2.52l1.17,-0.97l2.33,-0.39l2.52,0.39l1.75,0.97l1.17,2.13l2.33,4.85l0.39,2.52l3.11,2.33l2.52,0.78l7.38,-0.39l3.88,3.11l1.94,2.52l-0.73,0.06l0,0l-1.79,0.14l-2.52,3.49L366,269.51L365.03,273l0.39,3.69l5.63,2.13l-0.19,1.75l-6.6,2.52v2.72l-1.75,2.91l-0.58,3.11l-9.12,9.12v2.72l2.52,5.82l4.27,1.55l0.19,4.66l4.85,0.58l0.19,2.13l-3.3,0.78l-0.19,4.85l1.75,2.33l1.94,0.39l1.55,2.52l1.94,0.97l7.76,0.19l2.52,-4.27l0.58,-5.63l-0.97,-1.75l-0.39,-4.66l2.52,-0.19v2.72l0.97,3.11h3.3l2.52,-2.33l0.19,-1.94l1.75,-0.19l1.36,0.97l0.97,1.75l1.36,0.19l0.58,-1.94l-0.97,-3.3l1.94,-0.78l1.75,1.94l4.46,3.11l-0.19,3.3l-0.78,1.94l0.58,3.3l-0.97,6.99l-1.55,4.66l-1.36,0.78L397.82,340.84zM274.98,386.01l1.83,-0.41l3.85,0.41l1.42,1.01l0.81,1.62l-0.51,1.32l-2.64,2.94l-1.83,0.61l-6.59,0.2l-4.77,-4.16l-0.71,-1.62l2.94,-3.04l3.75,-0.3l0,0L274.98,386.01zM309.37,370.09l4.56,1.22l3.75,3.25l0.2,1.42l-0.91,1.62l-3.65,1.01l-0.61,1.42l1.52,1.01l1.42,0.1l1.52,1.32v1.83l-2.23,0.2l-1.32,3.75l3.04,3.45l3.45,0.81l0.61,0.91l-0.3,1.52l-5.07,3.75l-1.01,-1.01l-2.94,-0.2l-0.81,-1.32l-0.81,-0.2l0.1,1.52l-1.01,1.32l-8.11,-0.1l-1.01,0.81l-2.43,-0.3l-0.41,1.32l-0.91,-0.2l-1.01,-3.85l-1.12,-1.01l-0.71,0.31l-0.1,1.93l-3.96,2.84l-0.3,-1.72l1.62,-2.23l0.3,-3.65l-4.57,-1.42l-0.91,-1.52l0.31,-1.72l1.01,-1.12l2.23,-0.41l0.91,-1.62l0.81,-5.48l1.83,0.51l0.41,0.81l1.62,-0.2l-0.91,-2.03l-4.36,-1.32l1.52,-4.97l1.62,0.51l0.61,1.01l5.58,-3.35l0.3,-0.91l1.42,0.1l4.16,-1.93l1.42,0.2l0,0L309.37,370.09zM238.17,413.06l-0.49,1.58l-1.9,1.11l0.46,0.79l-1.02,1.52l-0.72,0.09l-0.01,-0.77l0.74,-0.33l-1.99,-4.45l3.89,-1.53l0,1.04L238.17,413.06z"/>
	</g>
</svg>
