<?xml version="1.0" encoding="utf-8"?>
<!-- (c) ammap.com | SVG map of Moldova - Low -->
<svg xmlns="http://www.w3.org/2000/svg" xmlns:amcharts="http://amcharts.com/ammap" version="1.1">
	<defs>
		<style type="text/css">
			.land
			{
				fill: #CCCCCC;
				fill-opacity: 1;
				stroke:white;
				stroke-opacity: 1;
				stroke-width:0.5;
			}
		</style>

		<amcharts:ammap projection="mercator" leftLongitude="26.648880" topLatitude="48.495637" rightLongitude="30.175684" bottomLatitude="45.461826"></amcharts:ammap>

		<!-- All areas are listed in the line below. You can use this list in your script. -->
		<!--{id:"MD-AN"},{id:"MD-BA"},{id:"MD-BD"},{id:"MD-BR"},{id:"MD-BS"},{id:"MD-CA"},{id:"MD-CL"},{id:"MD-CM"},{id:"MD-CR"},{id:"MD-CS"},{id:"MD-CT"},{id:"MD-CU"},{id:"MD-DO"},{id:"MD-DR"},{id:"MD-DU"},{id:"MD-ED"},{id:"MD-FA"},{id:"MD-FL"},{id:"MD-GA"},{id:"MD-GL"},{id:"MD-HI"},{id:"MD-IA"},{id:"MD-LE"},{id:"MD-NI"},{id:"MD-OC"},{id:"MD-OR"},{id:"MD-RE"},{id:"MD-RI"},{id:"MD-SD"},{id:"MD-SI"},{id:"MD-SN"},{id:"MD-SO"},{id:"MD-ST"},{id:"MD-SV"},{id:"MD-TA"},{id:"MD-TE"},{id:"MD-UN"}-->

	</defs>
	<g>
		<path id="MD-AN" title="Anenii Noi" class="land" d="M422.71,446.6L423.02,445.63L423.02,445.63L422.51,423.64L418.93,418.52L411.85,421.85L411.85,421.85L411.85,421.85L411.85,421.85L411.85,421.85L411.85,421.85L413.9,412.21L412.36,409.15L400.77,400.79L401.62,393.29L405.2,388.69L405.2,388.69L404.35,385.29L409.29,381.27L422.08,381.1L422.08,381.1L427.54,391.84L432.65,387.75L432.65,387.75L439.13,379.22L449.7,377.18L449.36,364.56L455.32,359.11L457.2,352.8L457.2,352.8L459.25,352.8L459.25,352.8L471.35,363.45L473.74,369.59L470.33,380.67L472.37,384.59L472.37,384.59L471.18,386.64L471.18,386.64L460.95,384.59L460.27,390.73L460.27,390.73L466.07,397.21L472.71,399.94L483.63,393.97L483.63,393.97L491.81,398.92L491.81,398.92L491.3,402.5L491.3,402.5L489.08,405.91L490.1,409.66L490.1,409.66L492.49,415.28L492.49,415.28L490.79,418.69L489.76,415.79L489.76,415.79L487.21,411.19L487.21,411.19L478,410.34L477.15,412.04L477.15,412.04L476.12,414.43L476.12,414.43L474.59,421.08L474.59,421.08L478.34,427.39L478.34,427.39L480.56,433.18L480.56,433.18L463,432.67L455.5,439.15L448.85,440.85L443.9,445.8L445.1,457.9L445.1,457.9L437.08,455.52L437.08,455.52L435.55,452.79L435.55,452.79L431.12,447.5z"/>
		<path id="MD-BA" title="Bălţi" class="land" d="M196.57,185.23L196.61,185.17L196.61,185.17L197.86,183.73L197.86,183.73L197.8,183.22L197.8,183.22L210.71,186.23L208.6,180.57L212.15,176.54L217.9,176.25L217.9,176.25L218.44,175.39L218.44,175.39L220.21,179.22L227.97,183.64L235.64,176.64L240.34,182.87L240.54,187.47L236.7,191.02L240.34,194.28L239.58,198.12L232.1,195.72L220.49,198.79L220.49,198.79L218.77,199.55L218.77,199.55L208.41,199.46L210.81,193.32L197.29,188.62z"/>
		<path id="MD-BD" title="Tighina" class="land" d="M493.39,431.38L491.82,433.94L480.22,432.09L480.22,432.09L478.34,427.39L478.34,427.39L474.59,421.08L474.59,421.08L476.12,414.43L476.12,414.43L477.15,412.04L477.15,412.04L478,410.34L487.21,411.19L487.21,411.19L489.76,415.79L489.76,415.79L490.79,418.69L490.79,418.69L492.68,431.2L492.68,431.2z"/>
		<path id="MD-BR" title="Briceni" class="land" d="M89.29,30.08L99.44,33.83L99.44,33.83L96.29,42.45L106.35,49.44L106.35,49.44L107.44,52.72L107.44,52.72L105.04,60.59L107.22,65.62L103.72,68.9L99.57,68.24L97.6,72.18L87.11,67.59L87.77,59.5L81.43,60.37L76.62,65.4L75.75,82.23L66.09,93.6L66.09,93.6L62.3,96.14L59.22,94.68L55.58,90.71L62.06,87.98L55.13,85.82L53.88,79.11L49.66,77.54L49.9,81.04L46.55,82.44L44.67,75.36L31.37,64.79L23.87,61.83L19.17,65.38L18.3,60.81L13.19,64.68L12.05,60.58L8.87,66.04L6.48,62.29L1.85,61.28L0,55.58L4.32,49.22L8.87,48.54L8.87,40.81L11.59,39.33L19.89,50.81L27.17,50.7L27.74,41.72L23.3,30.24L33.19,29.33L35.58,22.51L53.88,36.26L62.18,31.6L66.84,35.24L68.77,34.33L66.72,23.19L69.34,21.48z"/>
		<path id="MD-BS" title="Basarabeasca" class="land" d="M371.19,527.29L370,521.84L380.74,516.38L392.33,504.62L402.22,506.32L407.42,515.36L411.34,516.55L411.34,516.55L409.37,520.23L396.59,525.07L398.98,537.86L405.46,551.5L403.76,559.29L397.96,564.46L399.36,568.47L399.36,568.47L388.24,565.65L382.1,560.36L376.82,562.41L375.45,565.65L357.72,566.33L354.65,555.42L363.86,555.42L380.06,550.99L384.15,544.17L383.12,540.59L375.11,535.3L371.05,529.18L371.05,529.18z"/>
		<path id="MD-CA" title="Cahul" class="land" d="M327.32,733.94v2.56l0,0l-15.72,4.07l-1.87,-17.56l8.87,-3.75l0,0l4.17,2.59L327.32,733.94zM317.91,605.8l-0.17,12.45l0,0h0.07l0,0l-9.79,3.92l-2.9,14.15l1.88,18.07l6.14,7.5l0,0l-2.05,2.73l0,0l-1.19,1.02l0,0l-1.53,-0.17l0,0l-10.4,1.02l2.05,10.91l1.88,2.39l8.87,1.71l5.29,7.16l2.73,-3.24l2.73,2.05v5.28l4.94,5.8l-2.9,6.54l0,0l-3.75,0.36l0,0l-11.08,1.19l0,0l-20.97,-7.67l-1.19,16.71l2.39,5.12l0,0v9.72l0,0l-4.6,5.46l2.56,6.65l0,0l1.53,2.22l0,0l-2.22,3.41l0,0l-2.05,1.53l0,0l-10.31,11.68l-0.68,6.82l-3.82,-1.1l-3.56,-6.63l0.14,-9.25l-3.56,-2.42l0.14,-5.4l-6.12,-0.85l-7.68,-6.83l6.69,-8.39l5.97,-0.43l2.42,-2.56l-1.28,-6.12l2.42,-4.98l-4.41,-15.65l0.71,-6.26l-3.41,-1.85l-4.12,-11.02l-1,-32.58l-5.69,-13.23l0.85,-14.79l3.09,-6.24l0,0l9.51,-2.48l0,0l13.13,2.9l7.67,-1.87l0,0l2.56,2.9l0,0l5.97,4.43l9.72,-2.05l0,0l5.63,1.36l0,0l1.71,-8.35l6.99,-2.73l0,0l1.85,-1.2l0,0L317.91,605.8z"/>
		<path id="MD-CL" title="Călăraşi" class="land" d="M320.9,277.08L321.32,292.62L329.85,295.69L331.72,297.73L330.36,299.27L330.36,299.27L327.8,300.63L327.8,300.63L325.93,306.26L319.28,307.62L315.36,313.08L306.83,316.66L306.15,318.53L311.78,320.41L313.99,327.91L312.29,334.73L307,335.24L303.76,340.01L291.66,345.81L279.72,345.31L279.72,345.31L280.24,344.62L280.24,344.62L268.98,339.5L263.02,339.33L258.42,334.22L249.04,331.66L247.16,326.2L240.86,322.17L240.86,322.17L248.19,314.44L254.49,302.51L267.28,291.94L268.3,278.81L269.13,276.58L272.48,277.27L272.48,277.27L297.2,282.73L318.17,277.96L318.17,277.96z"/>
		<path id="MD-CM" title="Cimişlia" class="land" d="M352.52,447.78L363.86,449.89L371.02,460.12L375.11,459.95L378.69,449.38L383.64,445.97L391.99,451.42L394.04,456.71L392.67,463.53L392.67,463.53L393.26,463.51L393.26,463.51L398.64,478.53L398.64,478.53L400.34,483.65L405.12,483.65L405.12,483.65L414.49,478.19L414.49,478.19L417.73,481.43L415.52,506.32L415.52,506.32L416.88,509.04L416.88,509.04L414.34,509.34L411.34,516.55L411.34,516.55L407.42,515.36L402.22,506.32L392.33,504.62L380.74,516.38L370,521.84L371.19,527.29L371.19,527.29L371.02,529.51L371.02,529.51L363.52,529.51L341.7,521.84L335.39,517.06L329.42,519.62L322.17,515.7L322.17,515.7L323.45,514.85L323.45,514.85L329.42,507.34L328.91,499.84L333,492L330.78,468.98L330.78,468.98L331.81,468.98L331.81,468.98L334.71,468.98L337.6,465.23L337.09,457.56L339.99,450.4L343.4,450.06L344.77,453.47L347.15,453.3L350.73,449.21L350.73,449.21z"/>
		<path id="MD-CR" title="Criuleni" class="land" d="M450.89,361.66l-1.19,15.52l-10.57,2.05l-6.48,8.52l0,0l-5.11,4.09l-5.45,-10.74l0,0l-9.21,-0.68l-11.08,5.03l-2.04,-3.41l1.36,-6.65l9.72,-2.9l11.93,1.02l3.24,-4.77l-1.1,-3.83l0,0l17.12,-19.02l7.68,-3.48l0,0l5.11,1.36l5.29,7.33l0,0l-0.85,1.71l0,0H457.2l0,0l-1.87,6.31L450.89,361.66zM406.57,308.2l4.26,7.35l6.14,2.22l-1.53,5.11l11.59,2.05l11.08,-4.4l0,0l0,0.05l0,0l9.38,5.8l0,0l-9.42,5.07l-3.2,8.48l-4.43,5.46l-6.82,1.53l-6.65,11.59l0,0l-1.7,0.51l0,0l-1.7,1.02l0,0l-13.47,3.24l0,0l-9.38,-2.05l0,0l-3.24,-12.1l-8.35,1.53l-1.19,6.14l-2.05,0.51l-1.87,-3.58l-10.3,-3.24l5.36,-4.09l0.68,-4.26l0,0l-1.98,-3.8l0,0l2.66,-19.39l0,0l14.15,-1.7l0,0l9.55,-4.94l0,0l4.6,-2.05l0,0L406.57,308.2z"/>
		<path id="MD-CS" title="Căuşeni" class="land" d="M480.22,432.09L491.82,433.94L493.39,431.38L493.39,431.38L494.05,431.54L494.05,431.54L499.87,437.36L507.4,438.05L509.62,437.36L512.19,426.75L516.47,428.63L516.81,431.88L524.17,431.54L524.68,439.93L530.5,452.59L523.71,465.67L523.71,465.67L523.14,465.77L523.14,465.77L521.43,471.08L516.13,472.28L512.87,476.39L503.97,476.56L495.93,483.57L490.11,481.35L480.52,488.88L485.32,494.01L476.76,499.15L477.27,503.77L485.33,512.97L485.33,512.97L478.24,519.63L476.53,529.05L473.4,529.85L467.77,516.38L463.17,515.18L459.25,521.15L460.76,533.56L453.34,534.39L447.82,544L443.05,544L440.66,541.27L446.12,529L447.31,500.35L444.41,496.6L438.79,497.29L434.08,506.98L416.88,509.04L416.88,509.04L415.52,506.32L415.52,506.32L417.73,481.43L414.49,478.19L414.49,478.19L405.12,483.65L405.12,483.65L400.34,483.65L398.64,478.53L398.64,478.53L393.26,463.51L393.26,463.51L402.9,464.21L405.8,461.31L405.8,461.31L417.39,454.15L422.17,448.36L422.17,448.36L426.34,445.63L435.55,452.79L435.55,452.79L437.08,455.52L437.08,455.52L445.1,457.9L445.1,457.9L443.9,445.8L448.85,440.85L455.5,439.15L463,432.67L480.56,433.18L480.56,433.18z"/>
		<path id="MD-CT" title="Cantemir" class="land" d="M250.95,611.69L255.94,592.04L251.13,578.7L254.55,575.82L254.12,571.02L262.87,565.48L266.71,559.07L262.87,550.75L270.56,535.77L270.56,535.77L286.63,535.3L291.92,540.42L300.44,542.29L303.85,538.71L302.83,533.77L310.5,530.7L312.37,535.3L309.65,540.93L318.85,547.75L318.85,547.75L319.34,547.75L319.34,547.75L316.21,558.57L326.78,564.88L326.78,574.94L324.05,586.87L316.21,585.34L311.78,589.43L315.36,604.43L315.36,604.43L315.67,604.6L315.67,604.6L313.82,605.8L313.82,605.8L306.83,608.53L305.13,616.88L305.13,616.88L299.5,615.52L299.5,615.52L289.78,617.56L283.82,613.13L283.82,613.13L281.26,610.23L281.26,610.23L273.59,612.11L260.46,609.21L260.46,609.21z"/>
		<path id="MD-CU" title="Chişinău" class="land" d="M416.7,358.59L416.7,358.59L415.26,359.02L415.26,359.02L413.56,360.04L413.56,360.04L400.09,363.28L400.09,363.28L390.71,361.24L390.71,361.24L387.47,349.13L379.12,350.67L377.93,356.81L375.88,357.32L374,353.74L365.99,350.5L363.7,350.5L363.09,354.93L363.09,354.93L361.05,359.19L351.5,360.9L346.04,364.48L344,370.44L346.21,375.39L346.21,375.39L346.1,375.58L346.1,375.58L361.05,388.26L362.07,393.37L377.75,400.36L379.63,412.3L383.89,418.1L392.25,418.61L407.08,426.45L411.17,425.43L411.85,421.85L411.85,421.85L413.9,412.21L412.36,409.15L400.77,400.79L401.62,393.29L405.2,388.69L405.2,388.69L404.35,385.28L400.09,384.94L401.11,375.39L410.83,372.49L422.76,373.51L426,368.74L426.17,366.18L417.65,359.36z"/>
		<path id="MD-DO" title="Donduşeni" class="land" d="M141.71,77.26L145.04,67.81L143.94,58.84L150.72,50.32L150.5,43.11L168.64,42.01L179.35,35.24L194,41.79L203.18,30.87L215.63,30.01L215.63,30.01L218.3,39.1L218.3,39.1L209.62,45.95L208.53,49.88L221.65,58.19L215.96,64.53L209.4,66.27L209.4,66.27L205.03,68.24L205.03,68.24L190.17,76.55L182.96,93.16L170.06,102.34L180.55,113.92L177.93,118.08L174.21,118.08L174.21,118.08L172.47,118.08L172.47,118.08L170.72,114.58L163.29,115.45L151.35,108.9L151.35,108.9L151.37,108.46L151.37,108.46L148.53,105.84L148.75,85.95L142.19,80.48L142.19,80.48z"/>
		<path id="MD-DR" title="Drochia" class="land" d="M237.05,130.97L241.54,142.89L237.6,153.16L237.6,153.16L237.6,155.34L237.6,155.34L230.39,168.9L226.23,164.31L219.24,170.43L219.24,170.43L216.84,173.05L216.84,173.05L214.21,169.77L200.88,170.43L184.49,151.19L172.9,148.57L168.97,145.07L165.91,129.77L172.25,125.4L173.56,118.08L173.56,118.08L174.21,118.08L174.21,118.08L177.93,118.08L180.55,113.92L170.06,102.34L182.96,93.16L190.17,76.55L205.03,68.24L205.03,68.24L207.84,66.98L207.84,66.98L214.21,77.42L226.23,78.52L241.1,93.16L247.87,103.87L243.72,116.55L238.69,116.55L233.01,123.54L236.29,130.97L236.29,130.97z"/>
		<path id="MD-DU" title="Dubăsari" class="land" d="M449.7,342.4l-7.68,3.48l-17.12,19.02l0,0l-7.25,-5.54l0,0l-0.94,-0.77l0,0l0.26,-0.08l0,0l6.65,-11.59l6.82,-1.53l4.43,-5.46l3.2,-8.48l9.42,-5.07l0,0l7.16,-0.85l11.59,-8.69l3.24,0.51l-3.07,5.97l-5.28,2.22l-3.41,7.5l-8.18,5.63L449.7,342.4zM438.28,296.88l20.97,-4.94l6.31,-5.1l1.32,3.26l0,0l-25.02,13.78l-3.75,6.14l0.17,6.65l0,0l-0.17,3.87l0,0l-11.08,4.4l-11.59,-2.04l1.53,-5.11l-6.14,-2.22l-4.26,-7.35l0,0l5.46,-2.71l1.02,-3.92l-5.28,-8.86l0.51,-3.41h6.82l0.17,-3.58l0,0l5.11,-3.92l0,0l3.18,-1.02l4.83,3.5L438.28,296.88z"/>
		<path id="MD-ED" title="Edineţ" class="land" d="M106.48,49.85L110.28,40.92L123.61,36.11L121.87,52.07L124.27,61.47L134.98,73.05L141.54,76.11L141.54,76.11L142.19,80.48L142.19,80.48L148.75,85.95L148.53,105.84L151.37,108.46L151.37,108.46L151.15,112.18L151.15,112.18L136.29,124.85L126.67,123.32L124.27,128.57L121.21,129.44L115.31,124.85L109.84,125.07L105.25,128.13L102.19,139.93L98.7,144.09L93.01,145.62L93.01,145.62L88.3,139.62L90.59,133.22L84.63,130.82L86.5,127.19L78.45,126.79L80.82,120.37L75.38,119.41L74.64,115.27L68.48,110.62L69.11,97.3L66.09,93.6L66.09,93.6L75.75,82.23L76.62,65.4L81.43,60.37L87.77,59.5L87.11,67.59L97.6,72.18L99.57,68.24L103.72,68.9L107.22,65.62L105.04,60.59L107.44,52.72L107.44,52.72z"/>
		<path id="MD-FA" title="Făleşti" class="land" d="M164.79,293.88L159.67,291.77L163.12,283.38L159.01,279.93L161.64,270.22L155.72,264.47L152.76,266.11L143.22,260.52L135.72,239.54L135.72,239.54L154.13,225.26L165.74,227.46L178.39,203.29L185.39,207.51L189.42,205.6L193.93,197.83L195.37,186.9L195.37,186.9L196.57,185.23L196.57,185.23L197.29,188.62L210.81,193.32L208.41,199.46L218.77,199.55L218.77,199.55L219.67,199.15L219.67,199.15L222.7,203.8L218.44,209.25L219.46,212.15L232.25,228L224.4,232.27L223.21,241.98L214.69,248.12L215.88,251.87L228.67,251.87L226.45,263.12L221.16,264.66L221.16,264.66L213.66,263.29L209.4,275.91L191.33,276.25L177.86,282.73L171.38,292.79z"/>
		<path id="MD-FL" title="Floreşti" class="land" d="M239.79,130.97L259.68,131.19L272.14,134.91L283.28,129.01L290.93,132.5L307.76,133.38L313.66,126.16L326.12,117.64L327.43,114.14L319.81,107.78L319.81,107.78L323.17,95.91L326.95,95.03L332.06,96.73L334.96,102.19L344.68,103.21L347.07,107.64L341.61,111.22L338.03,108.84L337.01,113.78L327.46,121.62L328.14,123.84L335.13,128.27L341.1,119.75L346.21,120.43L351.67,122.99L361.39,135.09L361.39,135.09L358.49,137.65L357.98,143.27L351.5,148.39L351.5,156.23L342.81,158.96L341.61,165.27L335.13,165.44L336.33,159.3L329.34,154.35L312.8,161.69L310.58,170.38L306.83,172.6L306.83,178.73L314.16,177.37L318.26,179.42L324.05,199.19L324.05,199.19L321.66,201.41L321.66,201.41L316.89,203.97L315.02,209.08L306.32,206.01L301.66,209.96L301.66,209.96L299.93,208.23L299.93,208.23L268.05,184.53L237.6,155.17L237.6,155.17L237.6,153.16L237.6,153.16L241.54,142.89L237.05,130.97L237.05,130.97z"/>
		<path id="MD-GA" title="Unitatea Teritorială Autonomă Găgăuzia (UTAG)" class="land" d="M296.77,703.91l11.94,2.73l0,0l11.08,-1.19l0,0l2.27,0.1l-3.46,13.72l0,0l-8.87,3.75l1.88,17.56l15.72,-4.07l0,0l-6.69,4.69l3.16,11.23l-9.21,4.43l-30.43,-5.09v-1.98l0,0l2.05,-1.53l0,0l2.22,-3.41l0,0l-1.53,-2.22l0,0l-2.56,-6.65l4.6,-5.45l0,0v-9.72l0,0l-2.39,-5.11l-0.17,-15.34l3.75,-1.53L296.77,703.91zM362.38,665.3l1.82,8.27l-13.6,8.12l0,0l-2,-1.39l-11.08,4.77l0,0l-3.92,0.68l-9.38,-9.55l0,0l0.51,-3.92l0,0l23.02,-5.28l0,0L362.38,665.3zM318.43,665.3l-1.02,4.09l0,0l-2.22,1.71l0,0l-4.94,0.85l-2.05,-4.6l1.71,-1.7l0,0l1.19,-1.02l0,0l3.41,-1.87L318.43,665.3zM322.17,515.7l7.26,3.92l5.97,-2.56l6.31,4.77l21.82,7.67h7.5l0,0l0.03,-0.32l0,0l4.07,6.12l8.01,5.29l1.02,3.58l-4.09,6.82l-16.2,4.43h-9.21l3.07,10.91l17.73,-0.68l1.36,-3.24l5.29,-2.05l6.14,5.29l11.12,2.82l0,0l0.56,3.08l6.91,4.71l0,0l-12.2,11.98l0,0l-3.92,6.65l0.34,4.94l0,0l2.39,10.57l-4.26,1.53l0,0l-8.35,6.14l-1.02,7.5l0,0l4.77,0.68l1.19,6.14l0,0l0.84,6.21l-16.02,3.44l-7.15,-13.22l0,0l-2.05,-2.73l0,0l-4.43,-1.87l-4.94,2.05l0,0l-1.02,3.41l0,0l4.6,13.47l-1.53,2.73l-10.4,0.51l-10.57,7.5l-3.75,0.17l-9.38,-5.97l-0.68,-4.94l2.56,-0.85l0,0l6.14,0.17l1.02,-2.39l0,0l-1.87,-4.09l0,0l-8.86,-2.73l4.43,-4.09l2.39,-7.16l-2.05,-5.28l-3.92,1.53l0,0h-1.36l0,0l0.34,-3.75l0,0l0,0l0,0l-0.17,-8.69l0,0l-2.56,-1.36l0,0l-3.58,-15l4.43,-4.09l7.84,1.53l2.73,-11.93v-10.06l-10.57,-6.31l3.13,-10.83l0,0h2.41l0,0l8.18,-2.9l1.02,-3.58l-1.53,-6.99l-8.69,-10.06l0.68,-8.01l0,0L322.17,515.7z"/>
		<path id="MD-GL" title="Glodeni" class="land" d="M135.72,239.54L130.06,236.83L125.62,227.46L114.27,217.43L114.43,213.81L107.69,205.25L113.61,200.81L113.57,191.98L113.57,191.98L122.29,179.8L123.92,173.18L132.55,175.2L144.93,166.47L170.15,174.53L187.6,168.68L197.67,182.1L197.67,182.1L197.86,183.73L197.86,183.73L196.61,185.17L196.61,185.17L195.37,186.9L195.37,186.9L193.93,197.83L189.42,205.6L185.39,207.51L178.39,203.29L165.74,227.46L154.13,225.26z"/>
		<path id="MD-HI" title="Hînceşti" class="land" d="M286.2,367.03L290.64,367.21L297.97,372.66L303.08,369.59L307.17,371.47L312.29,368.23L314.85,370.1L314.85,370.1L318.91,370.95L318.91,370.95L329.76,400.62L333.17,400.96L344.6,414.77L352.1,413.24L358.75,424.32L359.43,428.75L354.99,434.21L357.55,442.9L353.29,447.16L353.29,447.16L350.73,449.21L350.73,449.21L347.15,453.3L344.77,453.47L343.4,450.06L339.99,450.4L337.09,457.56L337.6,465.23L334.71,468.98L331.81,468.98L331.81,468.98L325.33,468.98L325.33,468.98L315.1,469.67L304.7,460.63L294.64,465.92L297.37,472.05L294.98,484.84L287.31,485.01L280.32,476.32L272.7,478.37L272.7,478.37L262.99,453.45L261.35,440.95L252.79,427.96L249.5,409.7L249.5,409.7L252.63,407.23L252.63,407.23L253.81,403.6L253.81,403.6L260.97,408.55L263.53,406.16L274.78,406.84L273.76,387.75L285.52,383.49L286.03,367.29L286.03,367.29z"/>
		<path id="MD-IA" title="Ialoveni" class="land" d="M411.85,421.85L418.93,418.52L422.51,423.64L423.02,445.63L423.02,445.63L422.17,448.36L422.17,448.36L417.39,454.15L405.8,461.31L405.8,461.31L402.9,464.21L392.67,463.53L392.67,463.53L394.04,456.71L391.99,451.42L383.64,445.97L378.69,449.38L375.11,459.95L371.02,460.12L363.86,449.89L352.52,447.78L352.52,447.78L353.29,447.16L353.29,447.16L357.55,442.9L354.99,434.21L359.43,428.75L358.75,424.32L352.1,413.24L344.6,414.77L333.17,400.96L329.76,400.62L318.91,370.95L318.91,370.95L318.94,370.96L318.94,370.96L322.35,368.91L324.05,374.2L336.5,385.96L340.08,384.94L340.08,377.6L345.19,377.09L345.19,377.09L346.1,375.58L346.1,375.58L361.05,388.26L362.07,393.37L377.75,400.36L379.63,412.3L383.89,418.1L392.25,418.61L407.08,426.45L411.17,425.43z"/>
		<path id="MD-LE" title="Leova" class="land" d="M270.56,535.77L274.34,528.21L273.35,518.34L266.77,507.15L270.39,499.92L272.7,478.37L272.7,478.37L280.32,476.32L287.31,485.01L294.98,484.84L297.37,472.05L294.64,465.92L304.7,460.63L315.1,469.67L325.33,468.98L325.33,468.98L330.78,468.98L330.78,468.98L333,492L328.91,499.84L329.42,507.34L323.45,514.85L323.45,514.85L321.41,516.21L321.41,516.21L320.73,524.22L329.42,534.28L330.96,541.27L329.93,544.85L321.75,547.75L321.75,547.75L318.85,547.75L318.85,547.75L309.65,540.93L312.37,535.3L310.5,530.7L302.83,533.77L303.85,538.71L300.44,542.29L291.92,540.42L286.63,535.3z"/>
		<path id="MD-NI" title="Nisporeni" class="land" d="M240.86,322.17L247.16,326.2L249.04,331.66L258.42,334.22L263.02,339.33L268.98,339.5L280.24,344.62L280.24,344.62L279.21,345.98L279.21,345.98L277.85,351.78L273.59,351.61L273.93,353.99L285.18,361.15L287.4,365.24L287.4,365.24L286.03,367.29L286.03,367.29L285.52,383.49L273.76,387.75L274.78,406.84L263.53,406.16L260.97,408.55L253.81,403.6L253.81,403.6L252.63,407.23L252.63,407.23L249.5,409.7L249.5,409.7L246.87,389.14L241.9,383.94L242.22,375.81L238.47,369.51L226.19,360.13L224.32,354.5L223.64,347.17L229.43,338.82L228.07,328.59z"/>
		<path id="MD-OC" title="Ocniţa" class="land" d="M159.82,8.41L160.27,10.57L176.18,16.82L184.88,11.13L196.91,12.62L211.28,22.92L215.63,30.01L215.63,30.01L203.18,30.87L194,41.79L179.35,35.24L168.64,42.01L150.5,43.11L150.72,50.32L143.94,58.84L145.04,67.81L141.71,77.26L141.71,77.26L141.54,76.11L141.54,76.11L134.98,73.05L124.27,61.47L121.87,52.07L123.61,36.11L110.28,40.92L106.48,49.85L106.48,49.85L106.35,49.44L106.35,49.44L96.29,42.45L99.44,33.83L99.44,33.83L105.26,31.83L111.28,18.19L119.12,11.03L128.33,12.28L132.65,17.51L143.11,8.87L151.63,6.93L155.27,0.34L157.66,0L162.2,3.18z"/>
		<path id="MD-OR" title="Orhei" class="land" d="M423.56,280.77L420.38,281.79L420.38,281.79L415.26,285.71L415.26,285.71L415.09,289.29L407.59,291L413.04,301.57L412.02,305.49L398.72,310.26L398.72,310.26L394.12,312.31L394.12,312.31L384.57,317.25L384.57,317.25L370.42,318.96L370.42,318.96L367.7,338.39L367.7,338.39L358.49,335.5L355.59,326.29L352.52,326.29L346.73,316.23L341.78,312.48L339.91,303.1L332.23,303.61L328.31,300.36L328.31,300.36L330.36,299.27L330.36,299.27L331.72,297.73L329.85,295.69L321.32,292.62L320.9,277.08L320.9,277.08L322.43,276.59L322.43,276.59L328.23,272.67L326.86,265.17L330.79,259.37L343.91,250.51L354.99,247.27L352.78,236.87L356.02,230.22L356.02,230.22L356.61,229.71L356.61,229.71L367.35,241.98L372.98,245.05L380.82,244.03L391.56,235.85L402.3,244.54L401.79,251.53L409.64,252.55L409.64,252.55L415.43,259.37L421.57,258.52L429.24,267.21L422.93,277.96z"/>
		<path id="MD-RE" title="Rezina" class="land" d="M341.23,207.43L342.81,206.01L342.81,206.01L349.79,197.32L367.52,199.19L365.65,188.45L367.35,185.72L379.29,184.53L389.69,174.81L396.34,161.69L396.34,161.69L402.48,160.83L407.59,167.31L405.03,187.77L405.71,233.46L411.85,238.92L411.85,252.72L409.64,252.55L409.64,252.55L401.79,251.53L402.3,244.54L391.56,235.85L380.82,244.03L372.98,245.05L367.35,241.98L356.61,229.71L356.61,229.71L355.76,227.83L355.76,227.83L337.52,213.85z"/>
		<path id="MD-RI" title="Rîşcani" class="land" d="M112.46,194.25L104.07,185.27L100.62,177.7L104.73,176.22L103.74,172.28L98.64,170.47L100.45,167.51L97.99,162.74L99.3,156.49L88.28,151.88L93.01,145.62L93.01,145.62L98.7,144.09L102.19,139.93L105.25,128.13L109.84,125.07L115.31,124.85L121.21,129.44L124.27,128.57L126.67,123.32L136.29,124.85L151.15,112.18L151.15,112.18L151.35,108.9L151.35,108.9L163.29,115.45L170.72,114.58L172.47,118.08L172.47,118.08L173.56,118.08L173.56,118.08L172.25,125.4L165.91,129.77L168.97,145.07L172.9,148.57L184.49,151.19L200.88,170.43L214.21,169.77L216.84,173.05L216.84,173.05L217.02,172.85L217.02,172.85L218.67,175L218.67,175L217.9,176.25L217.9,176.25L212.15,176.54L208.6,180.57L210.71,186.23L197.8,183.22L197.8,183.22L197.67,182.1L197.67,182.1L187.6,168.68L170.15,174.53L144.93,166.47L132.55,175.2L123.92,173.18L122.29,179.8L113.57,191.98L113.57,191.98z"/>
		<path id="MD-SD" title="Şoldăneşti" class="land" d="M323.52,199.68L324.05,199.19L324.05,199.19L318.26,179.42L314.16,177.37L306.83,178.73L306.83,172.6L310.58,170.38L312.8,161.69L329.34,154.35L336.33,159.3L335.13,165.44L341.61,165.27L342.81,158.96L351.5,156.23L351.5,148.39L357.98,143.27L358.49,137.65L361.39,135.09L361.39,135.09L371.28,135.43L378.44,147.54L377.93,154.53L390.71,156.74L396.34,161.69L396.34,161.69L389.69,174.81L379.29,184.53L367.35,185.72L365.65,188.45L367.52,199.19L349.79,197.32L342.81,206.01L342.81,206.01L341.1,207.55L341.1,207.55L333.09,200.56z"/>
		<path id="MD-SI" title="Sîngerei" class="land" d="M220.6,264.41L221.16,264.66L221.16,264.66L226.45,263.12L228.67,251.87L215.88,251.87L214.69,248.12L223.21,241.98L224.4,232.27L232.25,228L219.46,212.15L218.44,209.25L222.7,203.8L219.67,199.15L219.67,199.15L220.49,198.79L220.49,198.79L232.1,195.72L239.58,198.12L240.34,194.28L236.7,191.02L240.54,187.47L240.34,182.87L235.64,176.64L227.97,183.64L220.21,179.22L218.44,175.39L218.44,175.39L218.67,175L218.67,175L217.02,172.85L217.02,172.85L219.24,170.43L219.24,170.43L226.23,164.31L230.39,168.9L237.6,155.34L237.6,155.34L237.6,155.17L237.6,155.17L268.05,184.53L299.93,208.23L299.93,208.23L302.49,210.79L302.49,210.79L303.68,228L298.56,232.61L300.27,244.54L295.67,246.42L287.48,242.67L271.63,242.84L267.54,239.6L262.59,241.98L258.84,247.61L262.76,266.36L260.92,271.64L260.92,271.64L246.57,269.09L242.3,273.18L232.93,266.7L222.36,269.09z"/>
		<path id="MD-SN" title="Unitatea Teritorială din Stînga Nistrului" class="land" d="M473.88,286.67l2.39,6.24l-2.39,2.63l2.28,10.31l6.7,1.85l8.63,-1.73l-0.21,-13.84l10.91,-3.3l2.5,0.46l1.82,4.43l3.07,22.85l-7.16,3.52l3.89,28.54l-13.47,1.02l8.89,14.09l3.64,-5l8.47,0.8l1.93,10.39l-4.49,4.09l0.12,16.57l-6.63,2.19l0.82,1.92l2.05,2.51l9.55,-2.73l2.63,8.57l10.33,-2.43l3.98,4.23l3.3,11.23l4.09,1.93l12.16,-2.27l1.25,-3.52l4.74,1.11l2.19,6.6l-2.04,2.17l4.32,7.19l6.14,-5.37l5.23,3.34l0.63,1.83l-3.17,0.17l-3.21,4.31l6.53,13.49l-0.59,23.45l-3.85,3.5L578.24,492l-2.05,2.9l-12.96,1.92l0,0l-11.35,-9.14l-15.23,-1.54l-1.54,-4.45l5.65,-4.96l0.34,-8.22l-8.22,0.86l-7.87,-3.94l0,0l-1.32,0.24l0,0l6.79,-13.08l-5.82,-12.66l-0.51,-8.39l-7.36,0.34l-0.34,-3.25l-4.28,-1.88l-2.57,10.61l-2.23,0.69l-7.53,-0.68l-5.82,-5.82l0,0l-1.37,-0.34l0,0l-1.89,-12.51l0,0l1.71,-3.41l0,0l-2.39,-5.63l0,0l-1.02,-3.75l2.22,-3.41l0,0l0.51,-3.58l0,0l-8.18,-4.94l0,0l-10.91,5.97l-6.65,-2.73l-5.8,-6.48l0,0l0.68,-6.14l10.23,2.05l0,0l1.19,-2.05l0,0l-2.05,-3.92l3.41,-11.08l-2.39,-6.14l-11.25,-12.36l0,0l-5.28,-7.33l-5.11,-1.36l0,0l-0.17,-3.75l8.18,-5.63l3.41,-7.5l5.29,-2.22l3.07,-5.97l-3.24,-0.51l-11.59,8.69l-7.16,0.85l0,0l-9.38,-5.8l0,0l0.17,-3.92l0,0l-0.17,-6.65l3.75,-6.14l25.02,-13.77l0,0l-0.37,-1.85L473.88,286.67zM334.18,82.69l19.89,7.5l0.91,4.43l12.09,-1.48l3.74,3.04l4.86,-2.47l5.8,2.73l2.84,4.66l-2.61,17.62l13.19,18.41l8.18,-3.41l9.44,9.21l8.21,-0.24l1.74,-0.75l-1.23,-5.55l3.45,2.4l-1.07,-5.55l6.69,-0.08l-0.68,-2.97l6.54,1.31l5.84,27.1l2.58,-1.98l9.09,1.82l-11.28,16l3.52,6.48l3.27,-2.13l3.8,1.71l-2.35,11.61l-5.77,3.6l-1.66,5.34l4.33,8.78l-4.19,10.98l4.51,-0.2l-3.86,3.59l1.16,4.02l-4.55,9.98l-11.67,3.85l6.03,12.23l5.41,-0.97l-0.22,9.84l-3.98,4.26l4.79,-2.14l-1.47,8.53l2.79,0.64l7.26,-7.41l1.02,11.49l4.26,-4.85l7.78,-3.42l2.87,16.6l-3.41,3.9l-23.87,6.14l-6.48,-9.72l-8.24,-6.39l-0.62,-2.81l6.31,-10.74l-7.67,-8.69l-6.14,0.85l-2.56,-3.58l-1.02,-16.88l-6.14,-5.46l-0.68,-45.69l2.56,-20.46l-5.11,-6.48l-24.55,-6.31l0.51,-6.99l-7.16,-12.1l-9.89,-0.34l-11.08,-13.13l-9.21,-2.22l-5.97,8.52l-5.97,-2.56l-1.7,-4.09l9.55,-7.84l1.02,-4.94l3.58,2.39l5.46,-3.58l-2.39,-4.43l-9.72,-1.02l-4.6,-6.48l-7.07,0.2l1.8,-3.21l-1.36,-4.43l7.84,-6.02L334.18,82.69z"/>
		<path id="MD-SO" title="Soroca" class="land" d="M220.85,42.63L242.55,44.59L247.95,47.05L250.59,53.08L249.57,58.84L244.61,65.13L247.11,69.79L253.38,68.57L261.55,59.79L266.66,61.61L268.37,70.47L272.8,73.43L277.15,72.75L287.86,63.94L292.33,66.16L297.07,64.28L299.8,68.14L299.8,78.26L296.84,84.06L290.82,86.67L291.84,93.15L299.57,92.24L302.87,86.1L310.48,84.74L310.33,103.64L316.28,108.04L319.81,107.78L319.81,107.78L327.43,114.14L326.12,117.64L313.66,126.16L307.76,133.38L290.93,132.5L283.28,129.01L272.14,134.91L259.68,131.19L239.79,130.97L239.79,130.97L236.29,130.97L236.29,130.97L233.01,123.54L238.69,116.55L243.72,116.55L247.87,103.87L241.1,93.16L226.23,78.52L214.21,77.42L207.84,66.98L207.84,66.98L209.4,66.27L209.4,66.27L215.96,64.53L221.65,58.19L208.53,49.88L209.62,45.95L218.3,39.1L218.3,39.1z"/>
		<path id="MD-ST" title=" Străşeni" class="land" d="M367.76,338.35L369.74,342.14L369.74,342.14L369.06,346.41L363.77,349.99L363.09,354.93L363.09,354.93L361.05,359.19L351.5,360.9L346.04,364.48L344,370.44L346.21,375.39L346.21,375.39L345.19,377.09L345.19,377.09L340.08,377.6L340.08,384.94L336.5,385.96L324.05,374.2L322.35,368.91L318.94,370.96L318.94,370.96L314.85,370.1L314.85,370.1L312.29,368.23L307.17,371.47L303.08,369.59L297.97,372.66L290.64,367.21L286.2,367.03L286.2,367.03L287.4,365.24L287.4,365.24L285.18,361.15L273.93,353.99L273.59,351.61L277.85,351.78L279.21,345.98L279.21,345.98L279.72,345.31L279.72,345.31L291.66,345.81L303.76,340.01L307,335.24L312.29,334.73L313.99,327.91L311.78,320.41L306.15,318.53L306.83,316.66L315.36,313.08L319.28,307.62L325.93,306.26L327.8,300.63L327.8,300.63L328.31,300.36L328.31,300.36L332.23,303.61L339.91,303.1L341.78,312.48L346.73,316.23L352.52,326.29L355.59,326.29L358.49,335.5L367.7,338.39L367.7,338.39z"/>
		<path id="MD-SV" title="Ştefan Vodă" class="land" d="M563.24,496.82L572.96,505.47L581.31,506.15L583.7,514.33L592.91,526.27L595.37,526.7L598.02,523.37L605.35,528.48L610.98,527.46L610.47,532.4L595.12,541.78L577.22,540.93L571.42,538.37L565.8,542.12L563.58,548.6L560.17,549.62L554.21,545.36L548.16,534.91L545,522.52L537.5,516.72L538.69,522.52L536.82,527.12L524.78,525.69L526.25,540.25L520.62,544.34L513.29,544.34L506.8,540.26L505.11,529.68L494.95,527.36L491.13,515.7L485.33,512.97L485.33,512.97L477.27,503.77L476.76,499.15L485.32,494.01L480.52,488.88L490.11,481.35L495.93,483.57L503.97,476.56L512.87,476.39L516.13,472.28L521.43,471.08L523.14,465.77L523.14,465.77L525.03,465.43L525.03,465.43L532.9,469.37L541.11,468.51L540.77,476.73L535.12,481.69L536.66,486.14L551.9,487.68z"/>
		<path id="MD-TA" title="Taraclia" class="land" d="M329,640.07l-1.02,2.39l-6.14,-0.17l0,0l-2.56,0.85l0.68,4.94l9.38,5.97l3.75,-0.17l10.57,-7.5l10.4,-0.51l1.53,-2.73l-4.6,-13.47l0,0l1.02,-3.41l0,0l4.94,-2.05l4.43,1.88l0,0l2.05,2.73l0,0l7.15,13.22l-9.97,5.19l1.76,18.07l0,0l-14.63,1.7l0,0l-23.02,5.29l0,0l-0.51,3.92l0,0l9.38,9.55l3.92,-0.68l0,0l11.08,-4.77l2,1.39l0,0l-1.4,7.73l-4.09,2.56l-11.93,1.19l-1.19,11.59l-8.44,0.32l0,0l2.9,-6.54l-4.94,-5.8v-5.28l-2.73,-2.05l-2.73,3.24l-5.28,-7.16l-8.87,-1.7l-1.87,-2.39l-2.05,-10.91l10.4,-1.02l0,0l1.88,6.48l4.94,-0.85l0,0l2.22,-1.7l0,0l1.02,-4.09l-5.28,-3.41l0,0l-6.14,-7.5l-1.87,-18.07l2.9,-14.15l9.79,-3.92l0,0h1.29l0,0l3.92,-1.53l2.05,5.29l-2.39,7.16l-4.43,4.09l8.87,2.73l0,0L329,640.07zM405.12,624.72l-1.36,5.88l-5.28,4.09l-11.86,3.9l-0.84,-6.21l0,0l-1.19,-6.14l-4.77,-0.68l0,0l1.02,-7.5l8.35,-6.14l0,0l4.26,-1.53l-2.39,-10.57l0,0l-0.34,-4.94l3.92,-6.65l0,0l12.2,-11.98l0,0l8,4.56l2.3,4.67l-0.59,4.2l-6.99,6.22l-2.23,5.89l-8.35,5.79l-1.19,4.01L405.12,624.72z"/>
		<path id="MD-TE" title="Teleneşti" class="land" d="M356.55,229.56L356.02,230.22L356.02,230.22L352.78,236.87L354.99,247.27L343.91,250.51L330.79,259.37L326.86,265.17L328.23,272.67L322.43,276.59L322.43,276.59L318.17,277.96L318.17,277.96L297.2,282.73L272.48,277.27L272.48,277.27L260.92,271.64L260.92,271.64L262.76,266.36L258.84,247.61L262.59,241.98L267.54,239.6L271.63,242.84L287.48,242.67L295.67,246.42L300.27,244.54L298.56,232.61L303.68,228L302.49,210.79L302.49,210.79L301.66,209.96L301.66,209.96L306.32,206.01L315.02,209.08L316.89,203.97L321.66,201.41L321.66,201.41L323.52,199.68L323.52,199.68L333.09,200.56L341.1,207.55L341.1,207.55L341.23,207.43L341.23,207.43L337.52,213.85L355.76,227.83L355.76,227.83z"/>
		<path id="MD-UN" title="Ungheni" class="land" d="M241.81,384.75L237.96,379.93L222.99,374.5L221.67,369.73L206.05,357.23L206.21,352.79L199.47,350L198.48,340.13L185.32,311.51L180.23,313.15L172.33,308.22L165.09,298.51L164.74,293.92L171.38,292.84L177.86,282.78L191.33,276.3L210.94,274.94L213.66,263.34L220.6,264.46L222.36,269.14L232.93,266.75L242.3,273.23L249.64,269.14L260.92,271.69L269.13,276.62L267.28,291.98L254.49,302.55L243.07,320.63L226.88,331.03L229.43,338.87L223.64,347.22L224.32,354.55L226.19,360.18L240.85,373.48z"/>
	</g>
</svg>
