<?xml version="1.0" encoding="utf-8"?>
<!-- (c) ammap.com | SVG map of Slovenia - High -->
<svg xmlns="http://www.w3.org/2000/svg" xmlns:amcharts="http://amcharts.com/ammap" version="1.1">
	<defs>
		<style type="text/css">
			.land
			{
				fill: #CCCCCC;
				fill-opacity: 1;
				stroke:white;
				stroke-opacity: 1;
				stroke-width:0.5;
			}
		</style>

		<amcharts:ammap projection="mercator" leftLongitude="13.373053" topLatitude="46.875889" rightLongitude="16.594476" bottomLatitude="45.422323"></amcharts:ammap>

		<!-- All areas are listed in the line below. You can use this list in your script. -->
		<!--{id:"SI-JP"},{id:"SI-NO"},{id:"SI-SP"},{id:"SI-GO"},{id:"SI-LJ"},{id:"SI-JS"},{id:"SI-ZS"},{id:"SI-SA"},{id:"SI-KO"},{id:"SI-PS"},{id:"SI-PD"},{id:"SI-PM"}-->

	</defs>
	<g>
		<path id="SI-JP" title="Obalno-kraška" class="land" d="M41.88,290.74L44.07,290.17L52.14,290.25L54.77,291.31L59.5,291.31L61.06,286.17L63.24,286.15L65.73,284L66.45,280.55L65.98,278.59L71.64,280.22L75.14,282.83L76.11,284.54L77.65,285.01L79.43,286.47L83.56,286.23L83.65,284.33L84.49,284.46L85.28,283.46L86.65,283.84L87.15,284.73L89.01,285.22L89.14,286.61L90.34,287.91L91.19,287.86L92.2,288.68L95.07,288.84L99.1,287.62L98.85,288.89L99.9,289L99.9,290.9L100.81,290.85L100.79,291.72L101.63,291.77L101.85,292.86L107.29,297.32L110.03,298.7L111.24,298.43L111.56,299.27L112.63,299.19L113.43,300.3L116.35,301.28L119.22,303.4L118.62,305.41L119.79,304.35L120.63,304.46L121.6,302.8L124.28,303.26L125.42,304.68L127.49,305.82L127.49,305.82L128.88,308.18L133.1,308.67L135.74,310.51L135.98,311.06L135.11,311.63L135.39,312.58L135.93,312.28L135.85,313.15L137.5,312.82L137.41,313.88L136.12,314.28L137.75,314.94L138.15,318.16L137.48,319.22L134.65,318.84L134.24,319.9L133.23,319.93L133.42,321.72L132.16,323.51L132.49,324.16L131.96,325.49L132.58,326.38L134.22,326.49L134.35,327.06L134.16,330.07L134.92,331.13L133.65,334.86L135.53,336.19L135.87,338.98L134.81,340.83L137.92,342.8L137.18,344.94L140.34,346.38L139,356.31L138.78,356.93L137.64,357.28L137.83,358.56L137.1,359.69L136.82,363.05L137.66,363.7L138.83,363.1L140.41,363.78L140.03,365.51L138.15,367.99L137.39,372.08L134.92,374.37L140.37,375.62L140.75,376.81L142.16,377.4L142.63,375.97L143.87,375.59L143.39,377.56L144.29,379.35L143.81,379.43L144.38,381.35L143.41,381.64L143.45,382.48L143.45,382.48L140.56,381.13L135.55,381.29L132.3,380.54L127.49,376.62L125.99,376.51L120.48,371.24L118.08,371.13L117.48,372.4L117.7,374.24L112.88,372.43L110.63,375.1L111.81,377.24L114.11,378.24L116.54,380.97L115.65,381.24L116.43,382.53L115.27,384.88L115.76,388.29L112.84,390.69L109.85,389.39L108.87,388.29L101.02,389.64L100.45,390.93L98.62,392.42L98.57,393.44L96.86,394.71L96.44,396.74L94.92,396.98L92.41,396.47L90.32,396.98L89.73,395.28L87.96,394.63L82.81,394.71L82.49,392.9L80.63,392.23L81.48,389.34L80.48,387.96L77.74,386.48L75.54,386.8L73.65,386.26L71.94,384.48L68.83,384.88L66.6,387.88L63.11,388.48L61.59,389.26L59.46,391.47L57.65,392.09L52.39,387.96L44.54,385.96L42.26,384.21L40.55,382.51L41.58,381.75L41.96,380.16L40.53,377.18L40.89,376.73L41.35,377.02L41.08,376.35L41.48,375.89L43.23,375.94L42.32,375.81L42.89,375.16L42.34,374.86L42.03,373.16L40.67,373.32L39.24,372.56L38.29,372.92L37.76,372.51L37.19,371.27L37.34,369.51L36.41,368.24L39.53,369.45L43.59,369.75L44.98,368.78L44.41,367.83L44.07,368.75L43.78,368.54L43.9,366.53L46.25,365.91L49.56,367.59L52.09,367.97L54.39,367.26L54.01,366.16L54.33,365.18L56.99,365.97L57.84,364.34L59.8,363.48L63.11,363.45L66.22,364.75L66.95,363.29L69.66,362.34L68.5,362.05L68.69,361.21L71.24,360.99L68.81,360.67L69.4,359.45L71.11,359.18L71.18,358.29L67.73,355.2L63.32,352.6L63.6,351.57L66.26,351.41L66.91,350.74L71.09,350L80.23,354.82L88.23,354.31L90.8,352.77L93.53,349.84L94.35,346.95L100.39,343.56L103.55,340.53L101.59,338.66L97.2,336.68L93.15,333.13L87.36,325.3L87.01,319.49L82.34,315.37L80.53,310.49L79.81,309.83L75.95,308.91L73.67,306.98L70.46,307.34L68.43,306.01L68.98,305.22L63.58,302.15L57.69,296.53L56.7,297.04L55.7,294.84L50.36,295.66L50.6,294.44L46.88,296.26L46.46,295.03L41.94,292.97z"/>
		<path id="SI-NO" title="Notranjsko-kraška" class="land" d="M144.48,275.87L145.2,275.08L147.12,275.16L148.34,273.96L149.61,275.3L154.99,274.15L158.96,276.55L160.21,276.41L161.94,278.15L161.83,278.81L165.34,278.59L165.72,278.83L165.08,279.73L167.03,280.46L167.4,281.15L169.14,279.38L168.86,280.46L171.29,280.38L172.6,281.85L177.03,272.47L176.86,271.16L178.59,269.56L180.24,269.2L185.87,271.19L187.25,273.39L187.69,275.65L188.91,275.52L189.65,276.63L191.36,274.94L193.88,277.17L194,278.64L194.82,279.54L195.6,279.54L196.56,277.2L198.07,276.41L199.53,276.74L203.06,281.69L204.72,280.68L205.13,278.75L206.54,276.63L208.88,277.31L210.44,276.74L213.51,274.13L214.81,276.58L214.58,278.51L213.51,279.16L213.69,280.57L215.74,283.16L215.3,284.05L218.82,287.62L220.24,291.04L223.51,291.53L224.1,294.79L226.15,296.18L226.76,297.62L226.76,297.62L223.53,297.81L223.09,298.24L224.65,300.49L226.66,300.39L227.54,300.87L226.34,306.79L227.73,307.64L228.87,311.76L225.11,312.52L223.21,308.1L221.44,308.8L221.99,311.79L225.85,320.23L226.72,329.44L228.09,329.61L228.09,329.61L226.72,335.62L222.03,343.75L219.41,346.43L216.63,347.51L214.29,347.65L214.88,352.49L213.44,356.17L212.79,363.53L211.41,365.99L210.63,366.08L205,370.78L202.57,372.1L200.71,374.32L197.84,373.59L197.84,374.43L195.04,375.08L193.69,377.73L188.32,379.99L185.96,379.56L184.44,380.02L180.89,383.34L179.65,381.97L178.95,379.89L176.38,379.89L174.86,379.1L173.13,377.18L170.89,377.43L170.55,378.18L168.78,379.02L165.32,373.73L162.26,374.32L160.95,375.19L157.72,380.05L157.59,383.37L154.11,382.32L153.1,381.51L149.74,381.05L147.02,381.43L145.35,382.53L143.45,382.48L143.45,382.48L143.41,381.64L144.38,381.35L143.81,379.43L144.29,379.35L143.39,377.56L143.87,375.59L142.63,375.97L142.16,377.4L140.75,376.81L140.37,375.62L134.92,374.37L137.39,372.08L138.15,367.99L140.03,365.51L140.41,363.78L138.83,363.1L137.66,363.7L136.82,363.05L137.1,359.69L137.83,358.56L137.64,357.28L138.78,356.93L139,356.31L140.34,346.38L137.18,344.94L137.92,342.8L134.81,340.83L135.87,338.98L135.53,336.19L133.65,334.86L134.92,331.13L134.16,330.07L134.35,327.06L134.22,326.49L132.58,326.38L131.96,325.49L132.49,324.16L132.16,323.51L133.42,321.72L133.23,319.93L134.24,319.9L134.65,318.84L137.48,319.22L138.15,318.16L137.75,314.94L136.12,314.28L137.41,313.88L137.5,312.82L135.85,313.15L135.93,312.28L135.39,312.58L135.11,311.63L135.98,311.06L135.74,310.51L133.1,308.67L128.88,308.18L127.49,305.82L127.49,305.82L128.42,302.8L129.81,302.88L130.34,295.2L131.75,294.41L132.35,295.5L132.79,292.18L132.73,291.23L129.18,284.95L139.19,281.8L138.93,280.93L140.7,278.45L141.95,277.42L143.13,277.34z"/>
		<path id="SI-SP" title="Goriška" class="land" d="M53.13,120.22L53.51,121.05L55.28,120.77L58.7,121.57L58.7,121.57L58.22,123.6L58.98,124.46L63.05,123.47L69.63,120.61L72.42,124.07L77.47,125.55L79.55,126.96L79.55,127.59L82.13,129.04L83.5,128.99L83.4,131.6L84.2,133.44L83.9,134.95L85.78,137.04L87.75,136.87L88.08,137.89L87.39,139.81L85.55,142.22L84.14,142.83L82.7,142.72L81.73,143.68L79.3,143.43L77.21,145.46L70.88,147.52L70.18,148.86L70.94,154.02L66.93,157.45L68.41,158.76L68.09,160.11L69.44,162.85L70.18,162.85L71.39,163.95L73.08,166.99L75.35,167.54L80.32,172.88L88.08,177.51L92.3,180.98L96.86,180.93L102.35,180.08L110.29,177.37L119.3,175.51L119.19,176.38L121.1,177.64L121.35,180.57L120.71,182.68L119.17,183.31L117.72,186.4L117.23,190.15L118.08,192.81L120.34,193.63L122.99,192.4L125.15,193.27L127.22,192.26L128.99,193.24L134.03,194.34L133.97,196.69L133.25,198.36L130.68,201.47L130.99,203.33L129.48,204.51L128.44,206.42L128.08,208.74L125.8,210.33L124.15,213.14L123.54,216.45L124.58,218.77L125.87,220.19L130.38,222.92L132.83,225.4L134.63,226.22L135.55,229.06L134.96,229.58L136.4,229.91L136.08,231.05L134.67,232.61L135.83,232.5L136.25,231.41L137.03,231.54L138.04,230.62L139.16,230.45L139.5,230.92L139.06,231.73L139.94,232.55L139.75,234.41L140.75,235.36L140.16,236.92L141.78,237.27L142.18,238.23L143.17,238.17L143.38,238.91L145.24,239.37L146.49,239.07L146.49,239.07L147.54,239.67L146.74,240.87L147.2,242.4L146.04,242.43L144.84,245.67L144.04,246.13L141.4,245.75L141.46,247.28L140.45,247.74L140.83,249.65L142.67,248.97L142.2,250.55L142.81,251.69L142.81,253.63L141.48,254.47L141.15,257.69L138.63,259.29L139.31,261.36L139.31,265.09L141.89,267.08L142.77,268.49L143.51,273.53L144.48,275.87L144.48,275.87L143.13,277.34L141.95,277.42L140.7,278.45L138.93,280.93L139.19,281.8L129.18,284.95L132.73,291.23L132.79,292.18L132.35,295.5L131.75,294.41L130.34,295.2L129.81,302.88L128.42,302.8L127.49,305.82L127.49,305.82L125.42,304.68L124.28,303.26L121.6,302.8L120.63,304.46L119.79,304.35L118.62,305.41L119.22,303.4L116.35,301.28L113.43,300.3L112.63,299.19L111.56,299.27L111.24,298.43L110.03,298.7L107.29,297.32L101.85,292.86L101.63,291.77L100.79,291.72L100.81,290.85L99.9,290.9L99.9,289L98.85,288.89L99.1,287.62L95.07,288.84L92.2,288.68L91.19,287.86L90.34,287.91L89.14,286.61L89.01,285.22L87.15,284.73L86.65,283.84L85.28,283.46L84.49,284.46L83.65,284.33L83.56,286.23L79.43,286.47L77.65,285.01L76.11,284.54L75.14,282.83L71.64,280.22L65.98,278.59L66.45,280.55L65.73,284L63.24,286.15L61.06,286.17L59.5,291.31L54.77,291.31L52.14,290.25L44.07,290.17L41.88,290.74L41.88,290.74L40.04,284.68L38.04,283.65L38.08,280.9L39.07,279.73L39.68,277.15L41.27,275.13L40.44,272.85L41.71,270.56L44.37,268.47L46.61,263.89L47.01,261.88L49.71,258.42L48.93,254.15L50.85,245.7L49.37,244.47L45.78,246.38L45.26,245.59L41.18,244.28L38.46,246.38L38.14,247.63L36.26,249.81L33.69,249.54L32.44,250.74L30.18,250.66L25.9,246.81L24.17,246.73L21.47,243.27L21.23,241.94L20.01,240.52L18.97,240.27L18.89,239.67L20.81,237.46L22.97,237.22L24.7,234.11L25.37,230.29L24.88,229.09L23.45,228.43L23.6,225.68L24.7,224.56L29.55,222.92L32.13,219.07L37.59,216.8L39.01,214.89L42.05,212.76L43.4,210.38L44.83,209.84L47.28,207.71L49.03,205.06L51.21,203.42L53.13,199.51L52.98,197.24L54.37,195.79L55.13,193.13L53.68,190.73L49.71,189.08L48.53,189.19L45.44,191.19L44.87,190.75L45.32,189.74L41.37,189.82L40.95,189.14L37.53,190.92L36.56,189.99L36.67,188.15L35.16,185.45L31.07,183.15L29.7,183.01L29.21,181.53L27.44,181.86L26.87,182.46L23.98,182.43L22.84,180.82L20.9,179.97L19.02,179.72L17.35,180.35L13.87,179.53L13.42,179.83L14.23,181.42L13.83,183.01L9.35,184.73L7.05,183.67L6.44,182.43L7.53,181.23L7.64,180.19L6.92,179.09L8.42,178.47L9.2,177.31L7.51,175.86L4.22,171.48L2.19,162L0.63,161.89L0,159.89L5.26,159.15L7.72,156.93L7.81,155.04L9.22,153.47L12.49,152.68L14.14,149.58L11.93,144.09L12.41,142.8L15.07,142.03L18.22,142.55L21.11,140.08L23.24,139.89L25.75,138.19L26.76,138.49L26.95,136.87L28.85,135.39L30.44,135.53L32.02,134.1L33.56,133.96L35.14,132.45L36.31,132.31L38.35,129.02L38.78,125L39.47,123.58L40.44,123.36L42.17,121.32L47.15,120.06L48.97,120.22L52.22,119.01z"/>
		<path id="SI-GO" title="Gorenjska" class="land" d="M69.55,99.34L72.59,99.07L74.24,99.84L75.59,99.56L79.96,102.43L83.27,102.23L86.46,99.92L87.13,98.6L88.29,99.56L91.1,100.01L96.08,98.49L96.63,97.75L99.67,98.74L102.23,98.16L104.02,98.68L105.1,100.09L108.16,100.8L109.93,101.88L113.33,105.04L114.47,104.6L116.77,105.95L117.17,107.49L118.69,107.68L120.57,109.2L122.99,109.22L125.72,106.47L128.78,106.11L132.49,107.63L136.93,108.34L138.21,109.88L141.3,110.41L142.63,111.75L144.95,115.96L144.95,117.89L147.96,119.73L148.35,121.6L149,122.12L151.2,122.31L155.46,119.84L159.36,120.66L160.57,119.7L162.38,121.9L164.26,122.61L166.25,122.12L168.06,120.83L169.56,121.02L173.25,119.62L174.75,120.25L174.6,120.74L178.34,123.25L181.99,122.81L183.79,121.98L184.48,121.05L188.73,120.96L189.46,120.42L191.59,120.94L194.74,119.12L197.13,118.66L200.73,118.82L201.98,120.55L201.03,120.83L200.88,122.09L202.68,123.44L203.08,125.17L203.75,125.53L207.55,125.53L209.68,126.19L210.02,127.59L211.06,127.29L212.7,127.97L215.74,124.48L218.19,124.84L221.72,128.63L221.72,130.06L223.98,133.08L225.16,138.27L225.98,139.01L228.55,138.16L228.55,138.16L228.53,138.44L228.53,138.44L227.67,139.56L225.28,139.81L223.81,140.63L223.81,141.21L225.71,142.58L226.08,143.9L225.31,145.96L223.7,147.71L223.78,148.37L224.4,149.3L226.32,150.1L226.78,151.03L226.57,151.8L224.63,153.2L223.28,155.09L226.11,159.97L225.24,161.78L228.09,162.93L227.56,164.36L229.38,166.33L226.09,166.47L224.99,168.06L225.07,168.85L227.8,169.73L227.27,170.96L228.77,173.32L224.12,177.01L224.27,178.77L223.26,179.61L222.83,180.85L220.22,183.28L219.12,182.85L218.57,183.48L217.68,183.42L216.36,184.65L216.06,186.24L214.88,187.22L213.99,186.68L210.47,186.65L209.03,185.75L207.4,185.97L206.94,186.54L208.67,187.72L206.64,189L206.64,189L201.96,189.71L201.62,189.22L201.62,189.22L200.27,188.76L198.31,189.33L196.77,189L196.94,191L197.93,192.97L199.91,194.88L195.2,197.56L192.46,197.56L192.71,199.67L191.95,200.79L191.15,200.46L191.07,199.1L188.91,198.9L188.89,200.19L188.2,200.6L187.29,199.89L185.79,202.6L184.16,202.9L182.56,204.02L182.05,207.41L183.83,209.15L183.57,210.27L184.02,211.29L183.03,213.44L180.58,213.64L179.12,212.3L177.12,212.84L169.43,211.64L168.29,212.38L167.22,214.59L163.27,214.56L162.45,216.09L161.03,216.86L159.77,219.56L160.17,224.39L159.87,225.27L158.41,226.41L157.95,229.01L155.48,230.51L155.5,231.71L153.39,232.99L153.24,234.87L151.95,235.25L150.2,234.76L150.08,235.96L148.77,235.94L148.39,236.48L148.53,238.17L147.46,238.17L146.49,239.07L146.49,239.07L145.24,239.37L143.38,238.91L143.17,238.17L142.18,238.23L141.78,237.27L140.16,236.92L140.75,235.36L139.75,234.41L139.94,232.55L139.06,231.73L139.5,230.92L139.16,230.45L138.04,230.62L137.03,231.54L136.25,231.41L135.83,232.5L134.67,232.61L136.08,231.05L136.4,229.91L134.96,229.58L135.55,229.06L134.63,226.22L132.83,225.4L130.38,222.92L125.87,220.19L124.58,218.77L123.54,216.45L124.15,213.14L125.8,210.33L128.08,208.74L128.44,206.42L129.48,204.51L130.99,203.33L130.68,201.47L133.25,198.36L133.97,196.69L134.03,194.34L128.99,193.24L127.22,192.26L125.15,193.27L122.99,192.4L120.34,193.63L118.08,192.81L117.23,190.15L117.72,186.4L119.17,183.31L120.71,182.68L121.35,180.57L121.1,177.64L119.19,176.38L119.3,175.51L110.29,177.37L102.35,180.08L96.86,180.93L92.3,180.98L88.08,177.51L80.32,172.88L75.35,167.54L73.08,166.99L71.39,163.95L70.18,162.85L69.44,162.85L68.09,160.11L68.41,158.76L66.93,157.45L70.94,154.02L70.18,148.86L70.88,147.52L77.21,145.46L79.3,143.43L81.73,143.68L82.7,142.72L84.14,142.83L85.55,142.22L87.39,139.81L88.08,137.89L87.75,136.87L85.78,137.04L83.9,134.95L84.2,133.44L83.4,131.6L83.5,128.99L82.13,129.04L79.55,127.59L79.55,126.96L77.47,125.55L72.42,124.07L69.63,120.61L63.05,123.47L58.98,124.46L58.22,123.6L58.7,121.57L58.7,121.57L60.64,119.95L60.83,117.91L61.8,115.71L60.81,113.38L63.68,109.91L63.51,109.11L62.6,108.51L63.18,106.47L62.52,104.35L64.74,101.79L64.69,98.57L66.05,97.72z"/>
		<path id="SI-LJ" title="Osrednjeslovenska" class="land" d="M228.53,138.44L233.13,141.54L234.15,140.41L238.16,140.69L242.4,139.12L242.59,146.45L242.17,147.77L245.55,151.58L247.89,151.69L248.65,152.65L249.07,156.13L248.56,159.4L250.19,160L254.01,158.98L254.14,160.66L252.49,163.81L254.1,166.14L254.12,168.06L252.6,170.77L253.99,173.04L258.55,173.04L263.74,174.77L264.99,174L267.54,174.8L271.99,173.37L281.66,174.11L284.07,176.22L287.07,177.37L287.49,178.44L289.16,178.68L290.06,179.81L291.37,179.29L292.55,182.6L294.9,182.98L293.93,184.21L292.79,183.86L292.05,185.53L292.05,185.53L290.38,185.75L290.63,190.84L289.64,191.93L288.39,192.23L288.27,193.98L284.79,193.11L282.59,194.67L280.99,195.02L274.13,195.29L274.82,196.39L276.7,196.77L276.57,198.17L277.55,198.66L278.29,200.57L279.7,201.28L278.46,203.99L278.62,206.12L279.93,206.12L281.33,205.38L281.92,205.71L286.77,205L288.08,205.57L289.01,206.83L288.37,209.65L289.13,210.68L289.2,212.21L291.84,215L293.9,215.25L297.81,215.41L300.22,214.81L302.08,211.72L303.97,210.17L308.05,208.36L310.26,211.94L309.59,213.17L306.91,213.47L308.22,215.6L308.26,217.81L309.57,218.58L309.31,219.15L306.97,219.53L307.65,220.98L309.33,222.43L313.07,223.85L322.78,222.07L322.78,222.07L323.75,224.28L326.1,224.94L326.1,224.94L326.39,227.21L329.24,231.13L329.54,232.72L330.21,233.37L330.21,233.37L327.09,233.34L327.57,232.53L325.93,231.98L324.17,233.4L323.41,235.58L320.33,234.38L319.53,233.29L314.21,233.07L313.6,234.41L314.57,234.87L315.71,238.23L315.12,239.7L313.87,239.78L313.49,240.57L312.18,241.2L312.63,242.92L311.78,243.6L309.95,243.3L309.74,244.06L308.81,244.03L306.48,242.32L303.49,242.59L302.12,241.01L299.65,240.63L297.89,241.77L297.68,244.91L294.77,245.83L292.36,245.97L290.76,244.52L290.17,242.89L288.88,241.77L288.92,239.24L287.26,239.24L286.22,236.26L284.81,235.58L284.09,236.62L283.06,236.67L283.18,238.8L281.87,240.22L278.33,239.75L277.27,240.49L276.05,239.97L275.29,240.38L274.51,239.15L273.37,240.16L272.59,239.13L271.66,239.34L271.53,238.5L270.71,237.87L269.08,239.67L267.27,239.81L267.12,241.55L264.63,243.22L262.33,242.21L260.91,244.31L261.52,245.32L260.34,245.48L258.59,247.85L258.51,250.19L257.98,250.49L257.71,249.81L256.46,250.98L257.13,252.35L256.19,252.62L254.85,255.78L256.18,257.41L256.27,256.65L257.05,256.49L257.92,257.58L258.36,256.92L259.1,257.6L260.11,257.63L259.1,258.72L260.34,263.79L261.33,265.99L263.19,268L262.81,268.63L261.74,268.66L261.53,271.81L262.58,273.99L264.75,275.38L266.34,279.19L264.86,279.68L264.21,281.36L262.79,282.37L263.02,288.38L264.8,287.34L265.66,288.51L265.71,289.93L266.89,290.14L268.41,291.34L268.57,292.07L267.81,292.97L267.94,294.71L270.9,295.55L272.14,296.85L271.78,297.59L272.14,298.43L271.13,299.98L271.13,302.56L273.24,307.28L276.53,308.04L277.44,305.9L278.2,305.98L278.92,307.93L279.78,307.26L282.48,307.01L284.89,308.67L284.57,310.4L285.17,311.9L284.17,313.01L284.38,318.33L282.67,319.44L282.04,320.8L280.57,319.76L280.21,318.82L278.69,319.11L277.19,318.08L272.84,313.71L265.87,308.12L264.8,306.47L263.89,307.04L263.34,306.52L261.72,304.16L260.76,300.68L254.33,296.01L253.93,294.36L251.33,291.75L248.69,291.31L246.6,294.08L244.39,294.79L243.14,296.37L240.92,295.71L239.89,296.15L237.34,295.36L234.49,295.82L233.37,295.36L232.9,295.42L232.65,296.88L227.39,296.39L226.76,297.62L226.76,297.62L226.15,296.18L224.1,294.79L223.51,291.53L220.24,291.04L218.82,287.62L215.3,284.05L215.74,283.16L213.69,280.57L213.51,279.16L214.58,278.51L214.81,276.58L213.51,274.13L210.44,276.74L208.88,277.31L206.54,276.63L205.13,278.75L204.72,280.68L203.06,281.69L199.53,276.74L198.07,276.41L196.56,277.2L195.6,279.54L194.82,279.54L194,278.64L193.88,277.17L191.36,274.94L189.65,276.63L188.91,275.52L187.69,275.65L187.25,273.39L185.87,271.19L180.24,269.2L178.59,269.56L176.86,271.16L177.03,272.47L172.6,281.85L171.29,280.38L168.86,280.46L169.14,279.38L167.4,281.15L167.03,280.46L165.08,279.73L165.72,278.83L165.34,278.59L161.83,278.81L161.94,278.15L160.21,276.41L158.96,276.55L154.99,274.15L149.61,275.3L148.34,273.96L147.12,275.16L145.2,275.08L144.48,275.87L144.48,275.87L143.51,273.53L142.77,268.49L141.89,267.08L139.31,265.09L139.31,261.36L138.63,259.29L141.15,257.69L141.48,254.47L142.81,253.63L142.81,251.69L142.2,250.55L142.67,248.97L140.83,249.65L140.45,247.74L141.46,247.28L141.4,245.75L144.04,246.13L144.84,245.67L146.04,242.43L147.2,242.4L146.74,240.87L147.54,239.67L146.49,239.07L146.49,239.07L147.46,238.17L148.53,238.17L148.39,236.48L148.77,235.94L150.08,235.96L150.2,234.76L151.95,235.25L153.24,234.87L153.39,232.99L155.5,231.71L155.48,230.51L157.95,229.01L158.41,226.41L159.87,225.27L160.17,224.39L159.77,219.56L161.03,216.86L162.45,216.09L163.27,214.56L167.22,214.59L168.29,212.38L169.43,211.64L177.12,212.84L179.12,212.3L180.58,213.64L183.03,213.44L184.02,211.29L183.57,210.27L183.83,209.15L182.05,207.41L182.56,204.02L184.16,202.9L185.79,202.6L187.29,199.89L188.2,200.6L188.89,200.19L188.91,198.9L191.07,199.1L191.15,200.46L191.95,200.79L192.71,199.67L192.46,197.56L195.2,197.56L199.91,194.88L197.93,192.97L196.94,191L196.77,189L198.31,189.33L200.27,188.76L201.62,189.22L201.62,189.22L201.64,189.71L206.64,189L206.64,189L208.67,187.72L206.94,186.54L207.4,185.97L209.03,185.75L210.47,186.65L213.99,186.68L214.88,187.22L216.06,186.24L216.36,184.65L217.68,183.42L218.57,183.48L219.12,182.85L220.22,183.28L222.83,180.85L223.26,179.61L224.27,178.77L224.12,177.01L228.77,173.32L227.27,170.96L227.8,169.73L225.07,168.85L224.99,168.06L226.09,166.47L229.38,166.33L227.56,164.36L228.09,162.93L225.24,161.78L226.11,159.97L223.28,155.09L224.63,153.2L226.57,151.8L226.78,151.03L226.32,150.1L224.4,149.3L223.78,148.37L223.7,147.71L225.31,145.96L226.08,143.9L225.71,142.58L223.81,141.21L223.81,140.63L225.28,139.81L227.67,139.56z"/>
		<path id="SI-JS" title="Jugovzhodna Slovenija" class="land" d="M226.76,297.62L227.39,296.39L232.65,296.88L232.9,295.42L233.37,295.36L234.49,295.82L237.34,295.36L239.89,296.15L240.92,295.71L243.14,296.37L244.39,294.79L246.6,294.08L248.69,291.31L251.33,291.75L253.93,294.36L254.33,296.01L260.76,300.68L261.72,304.16L263.34,306.52L263.89,307.04L264.8,306.47L265.87,308.12L272.84,313.71L277.19,318.08L278.69,319.11L280.21,318.82L280.57,319.76L282.04,320.8L282.67,319.44L284.38,318.33L284.17,313.01L285.17,311.9L284.57,310.4L284.89,308.67L282.48,307.01L279.78,307.26L278.92,307.93L278.2,305.98L277.44,305.9L276.53,308.04L273.24,307.28L271.13,302.56L271.13,299.98L272.14,298.43L271.78,297.59L272.14,296.85L270.9,295.55L267.94,294.71L267.81,292.97L268.57,292.07L268.41,291.34L266.89,290.14L265.71,289.93L265.66,288.51L264.8,287.34L263.02,288.38L262.79,282.37L264.21,281.36L264.86,279.68L266.34,279.19L264.75,275.38L262.58,273.99L261.53,271.81L261.74,268.66L262.81,268.63L263.19,268L261.33,265.99L260.34,263.79L259.1,258.72L260.11,257.63L259.1,257.6L258.36,256.92L257.92,257.58L257.05,256.49L256.27,256.65L256.18,257.41L254.85,255.78L256.19,252.62L257.13,252.35L256.46,250.98L257.71,249.81L257.98,250.49L258.51,250.19L258.59,247.85L260.34,245.48L261.52,245.32L260.91,244.31L262.33,242.21L264.63,243.22L267.12,241.55L267.27,239.81L269.08,239.67L270.71,237.87L271.53,238.5L271.66,239.34L272.59,239.13L273.37,240.16L274.51,239.15L275.29,240.38L276.05,239.97L277.27,240.49L278.33,239.75L281.87,240.22L283.18,238.8L283.06,236.67L284.09,236.62L284.81,235.58L286.22,236.26L287.26,239.24L288.92,239.24L288.88,241.77L290.17,242.89L290.76,244.52L292.36,245.97L294.77,245.83L297.68,244.91L297.89,241.77L299.65,240.63L302.12,241.01L303.49,242.59L306.48,242.32L308.81,244.03L309.74,244.06L309.95,243.3L311.78,243.6L312.63,242.92L312.18,241.2L313.49,240.57L313.87,239.78L315.12,239.7L315.71,238.23L314.57,234.87L313.6,234.41L314.21,233.07L319.53,233.29L320.33,234.38L323.41,235.58L324.17,233.4L325.93,231.98L327.57,232.53L327.09,233.34L330.21,233.37L330.21,233.37L334.26,234.68L334.94,236.81L335.8,236.13L336.01,234.79L336.6,234.57L339.84,234.68L341.44,235.5L341.69,237.27L341.12,238.64L338.82,239.73L338.32,242.51L340.13,243.43L340.38,246.11L342.41,247.28L346.89,251.58L351.11,253.33L352.35,253.38L352.23,251.97L353.01,251.42L354.61,252.18L354.82,250.63L356.43,250.55L356.97,249.81L356.7,247.71L358.09,247.63L359.21,248.34L361.07,251.69L362.86,251.56L362.97,249.87L361.41,248.1L362.21,246.95L362.21,245.86L362.84,245.59L365.42,246.41L367.63,248.34L367.51,245.34L370.5,246.43L372.85,246.24L372.93,249.7L375.49,250.49L376.29,251.86L376.23,252.59L374.83,254.15L375.61,265.15L374.05,269.23L375.17,270.21L379.65,271.65L381.8,272.98L381.18,274.75L381.75,275.11L381.94,277.69L384.33,277.66L383.21,279.65L378.9,280.52L378.55,281.58L379.79,282.56L380.28,285.01L381.97,287.26L384.98,297.29L384.98,297.29L382.75,299L382.01,300.39L380.49,300.28L379.67,301.01L378.08,301.15L371.29,305.17L366.62,306.82L365.08,308.75L362.7,310L359.36,314.26L355.18,315.32L354.95,315.83L357.08,317.4L358.83,316.67L359.99,317.02L360.65,319.36L361.2,319.74L363.35,319.01L364.19,320.23L364.32,323.4L366.2,325.11L365.99,324.19L366.73,322.29L368.6,322.21L367.97,324.81L370.74,328.85L371.6,327.98L370.15,324L370.34,322.72L372.7,321.12L374.05,318L377.49,317.92L377.87,319.11L377.32,321.74L378.48,322.02L378.57,323.13L378.06,325.38L376.25,325.87L375.95,329.39L376.41,329.72L376.86,329.2L377.05,328.14L378.23,328.17L378.65,325.3L379.79,324.56L379.9,326.03L381.23,328.2L382.69,329.17L383.82,330.85L383.82,332.13L384.65,332.94L385.03,335.03L386.97,336.14L384.82,338.41L383.13,339.04L380.78,338.17L380.11,336.82L378.69,337.22L375.44,336.65L374.66,337.6L376.39,338.44L376.2,339.36L374.31,340.26L371.41,339.99L366.94,340.99L366.92,343.18L367.87,345.78L364.83,346.16L362.12,348.35L366.22,353.96L366.73,366.62L367.51,367.56L369.2,367.72L369.05,369.73L371.08,370.67L372.41,373.27L377.22,376.16L378.5,377.91L379.92,377.16L380.47,378.16L382.89,379.89L377.68,383.1L375.25,388.23L373.5,388.37L372.24,389.26L366.16,387.72L361.15,385.77L355.65,389.18L352.71,393.36L352.39,395.87L351.76,396.33L348.3,396.41L346.25,393.79L345.37,394.6L345.39,395.87L343.93,397.33L340.97,397.44L339.58,396.9L337.56,395.52L335.66,391.88L332.81,390.85L329.24,386.83L325.9,385.59L325.48,384.75L325.71,381.13L324.36,381.1L322.61,379.75L320.88,379.59L319.81,378.1L318.87,378.18L317.06,379.97L314.48,380.37L313.92,379.24L311.68,377.4L306.02,376.75L303.4,373.67L296.31,368.48L294.54,368.75L294.1,370.1L292.85,371.27L293.34,375.21L292.58,376.43L293.1,377.94L291.81,382.53L288.44,382.83L285.65,383.86L284.28,385.37L274.55,387.1L274.17,384.15L272.56,382.24L272.42,380.16L271.26,378.81L271.91,377.7L270.75,375.64L269.02,376.13L268.77,374.7L265.32,374.29L265.33,372.97L263.34,373.19L261.63,371.05L259.75,370L258.91,368.54L255.89,367.08L253,366.86L252.36,369.02L250.76,369.18L249.47,366.99L250.27,361.77L251.56,361.13L252.38,359.39L251.2,357.04L251.06,355.61L248.57,352.33L243.41,351.6L241.11,348.27L239.09,347.87L238.39,345.67L235.33,344.56L232.73,342.07L233.71,338.5L233.39,337.71L234.91,333.27L236.2,332.24L234.46,331.69L233.3,330.29L232,331.1L229.84,331.34L229.42,330.15L229.06,330.61L228.72,329.66L228.09,329.61L228.09,329.61L226.72,329.44L225.85,320.23L221.99,311.79L221.44,308.8L223.21,308.1L225.11,312.52L228.87,311.76L227.73,307.64L226.34,306.79L227.54,300.87L226.66,300.39L224.65,300.49L223.09,298.24L223.53,297.81z"/>
		<path id="SI-ZS" title="Zasavska" class="land" d="M292.05,185.53L292.05,187.85L294.2,189.08L296.08,191.66L299.73,191.82L303.63,190.81L305.26,189.82L307.6,190.54L310.86,190.48L311.06,191.08L311.44,190.95L311.17,192.45L312.1,192.72L313.45,191.36L314.93,191.27L316.57,189.93L318.37,190.64L323.05,190.37L327.89,187.17L329.28,187.8L329.81,189.11L332.4,191.27L332.68,193.08L333.8,193.19L333.48,195.51L335.06,195.79L336.6,194.97L337.56,195.13L338.61,199.59L342.09,202.05L342.33,203.5L343.13,203.83L343.78,205.82L345.24,207.1L342.81,207.71L342.03,208.36L341.69,209.7L337.24,208.01L336.2,206.89L335.59,207.02L335.91,208.2L335.11,208.64L334.16,211.78L338.57,214.43L336.4,215.57L334.64,215.82L332.11,214.97L331.48,215.22L329.05,213.91L328.35,214.7L328.59,215.93L326.54,216.69L325.71,216.45L325.74,219.81L325.42,220.08L324.2,218.74L322.38,220.13L322.25,221.39L322.78,222.07L322.78,222.07L313.07,223.85L309.33,222.43L307.65,220.98L306.97,219.53L309.31,219.15L309.57,218.58L308.26,217.81L308.22,215.6L306.91,213.47L309.59,213.17L310.26,211.94L308.05,208.36L303.97,210.17L302.08,211.72L300.22,214.81L297.81,215.41L293.9,215.25L291.84,215L289.2,212.21L289.13,210.68L288.37,209.65L289.01,206.83L288.08,205.57L286.77,205L281.92,205.71L281.33,205.38L279.93,206.12L278.62,206.12L278.46,203.99L279.7,201.28L278.29,200.57L277.55,198.66L276.57,198.17L276.7,196.77L274.82,196.39L274.13,195.29L280.99,195.02L282.59,194.67L284.79,193.11L288.27,193.98L288.39,192.23L289.64,191.93L290.63,190.84L290.38,185.75z"/>
		<path id="SI-SA" title="Savinjska" class="land" d="M366.52,104.52L367.97,105.73L370.06,105.32L370.36,108.04L372.07,110.05L372.23,112.77L373.9,113.07L375.93,112.22L377.68,113.54L377.96,114.89L380.32,116.07L382.3,114.7L384.65,117.34L386.04,117.89L385.09,119.59L385.34,121.07L384.8,123.71L383.36,123.71L383.09,124.46L383.74,125.42L385.56,126.02L386.72,127.34L385.77,128.22L386.59,129.37L386.36,129.81L383.8,130.31L384.86,131.43L387.69,132.06L387.58,133.38L388.51,134.01L392.41,134.87L392.31,136.21L393.72,136.98L396.87,136.9L398.41,136.07L400.03,137.23L401.53,135.85L402.57,136.38L402.74,138.41L403.6,139.78L408.44,138.38L409.7,139.48L409.56,141.73L410.52,143.38L411.43,147.19L411.39,150.1L412.7,151.66L411.66,154.79L412.91,155.72L413.06,156.79L411.62,157.72L411.62,158.3L413.56,158.38L415.46,159.34L415.17,160.9L415.82,163.07L417.98,163.32L418.9,164.11L422.2,163.21L423.84,164.41L427.56,163.59L431.02,164.91L431.28,166.36L434.4,167.23L437,167.29L437.12,167.76L438.58,168.22L440.86,167.95L440.31,169.56L440.84,170.3L442.29,169.73L444.7,170.08L444.7,170.08L446.45,169.48L448.01,169.84L448.01,169.84L449.28,169.62L451.31,170.82L452.3,170.3L454.26,174.14L456.56,174.28L461.12,173.18L461.12,173.18L461.58,175.48L460.47,176.22L460.26,178.27L458.95,181.39L457.51,182.52L453.67,184.08L451.94,183.17L452.83,181.29L452,180.24L449.68,180.14L449.05,181.34L447.93,181.67L447.59,179.89L441.93,179.75L438.66,178.52L435.6,180.55L434.9,180.38L432.75,181.42L431.3,184L432.6,185.04L432.18,185.83L432.62,188.1L432.08,189.58L430.66,189.91L430.45,191.38L429.57,192.59L425.05,195.02L424.35,196.85L425.74,197.92L426.19,199.23L422.96,200.82L424.25,202.73L425.05,202.79L424.65,203.44L425.7,203.61L425.87,204.97L425,206.37L425.76,206.61L425.39,207.24L424.86,207.16L425.24,208.12L424.35,209.37L425.41,211.75L426.15,211.7L426.02,213.58L427.54,213.61L428,214.32L427.18,215.85L427.54,216.67L429.56,218L431.28,217.81L431.87,216.91L432.37,217.02L432.92,217.7L432.73,218.33L433.64,218.2L434.48,218.82L434.71,221.64L436.74,220.57L437.54,221.69L438.66,221.25L441.38,223.77L444.32,224.89L445.25,224.67L446.37,226.41L446.37,226.41L443.75,225.9L441.74,227.23L439.17,226.47L436.72,226.74L434.9,230.26L433.72,230.37L431.34,231.73L428.87,235.88L426.93,237.6L422.24,239.48L415.65,240.19L416.96,237.57L420.81,235.12L421.71,233.67L422.05,231.11L418.17,230.51L416.46,231.43L415.59,231.19L414.16,231.9L413.48,231.52L413.73,230.56L412.83,228.49L412.43,224.8L410.53,224.34L408.92,221.12L406.75,220.16L404.53,221.8L404.53,221.12L403.27,219.89L400.06,218.2L395.79,219.07L392.69,218.33L391.02,219.21L391.02,219.21L389.67,218.85L387.33,219.21L387.33,219.21L383.74,218.52L382.18,217.08L378.29,219.29L373.46,219.04L371.43,219.45L368.2,218.44L366.28,219.21L363.86,218.82L363.67,222.43L362.17,221.28L362.36,216.58L360.84,215.85L360.86,213.69L359.76,212.27L359.06,212.21L358.85,213.53L357.97,214.37L355.86,214.81L353.6,214.48L351.3,212.6L348.97,213.44L347.48,212.73L345.49,213.94L344.67,213.85L344.31,215.22L347.12,216.97L347.08,218L345.72,220.57L346.42,221.88L345.35,223.03L348.07,224.07L347.77,228.21L345.22,226.33L342.6,225.29L335.36,223.55L333.88,223.52L333.17,224.18L328.61,225.46L326.1,224.94L326.1,224.94L323.75,224.28L322.78,222.07L322.78,222.07L322.25,221.39L322.38,220.13L324.2,218.74L325.42,220.08L325.74,219.81L325.71,216.45L326.54,216.69L328.59,215.93L328.35,214.7L329.05,213.91L331.48,215.22L332.11,214.97L334.64,215.82L336.4,215.57L338.57,214.43L334.16,211.78L335.11,208.64L335.91,208.2L335.59,207.02L336.2,206.89L337.24,208.01L341.69,209.7L342.03,208.36L342.81,207.71L345.24,207.1L343.78,205.82L343.13,203.83L342.33,203.5L342.09,202.05L338.61,199.59L337.56,195.13L336.6,194.97L335.06,195.79L333.48,195.51L333.8,193.19L332.68,193.08L332.4,191.27L329.81,189.11L329.28,187.8L327.89,187.17L323.05,190.37L318.37,190.64L316.57,189.93L314.93,191.27L313.45,191.36L312.1,192.72L311.17,192.45L311.44,190.95L311.06,191.08L310.86,190.48L307.6,190.54L305.26,189.82L303.63,190.81L299.73,191.82L296.08,191.66L294.2,189.08L292.05,187.85L292.05,185.53L292.05,185.53L292.79,183.86L293.93,184.21L294.9,182.98L292.55,182.6L291.37,179.29L290.06,179.81L289.16,178.68L287.49,178.44L287.07,177.37L284.07,176.22L281.66,174.11L271.99,173.37L267.54,174.8L264.99,174L263.74,174.77L258.55,173.04L253.99,173.04L252.6,170.77L254.12,168.06L254.1,166.14L252.49,163.81L254.14,160.66L254.01,158.98L250.19,160L248.56,159.4L249.07,156.13L248.65,152.65L247.89,151.69L245.55,151.58L242.17,147.77L242.59,146.45L242.4,139.12L238.16,140.69L234.15,140.41L233.13,141.54L228.53,138.44L228.53,138.44L228.55,138.16L228.55,138.16L229.51,136.68L228.93,136.07L229.95,135.06L230.54,133.19L230.96,128L229.82,126.74L230.37,123.52L231.83,122.86L232.44,121.6L234.51,120.91L238.92,120.85L242.68,119.34L244.75,119.32L245.53,118.08L247.34,117.67L247.81,116.24L247.81,116.24L251.82,117.2L257.89,116.59L258.38,117.64L259.65,117.72L260.91,118.57L263.24,124.1L263.93,124.21L265.18,123.3L265.73,121.21L267.01,120.85L268.05,121.82L269.52,121.43L270.92,122.67L273.24,123.16L278.5,122.48L280.94,124.15L284.2,123.27L288.97,123.6L292.28,120.25L297.89,120.42L298.46,118.57L301.29,117.72L299.96,114.61L300.98,114.64L302.48,115.77L304.21,115.96L310.1,120L314.17,120.33L316.51,121.65L321.87,123.14L326.24,126.3L325.92,124.13L326.66,123.27L329.6,124.9L332.02,125.47L332.11,127.07L332.95,127.48L333.52,129.35L336.94,131.16L337.87,130.83L338.48,132.28L339.96,132.2L340.13,130.77L341.78,129.84L342.71,130.09L344.08,129.57L344.39,131.63L343.99,132.56L342.41,133.49L342.37,134.87L342.66,135.39L345.45,135.94L346.17,136.65L348.47,136.07L354.27,132.89L353.87,131.21L354.59,130.99L356.6,126.65L357.4,126.08L357.5,121.82L359.32,116.7L361.79,115.8L363.67,114.23L368.44,113.16L369.41,111.31L366.56,108.21L365.97,104.93z"/>
		<path id="SI-KO" title="Koroška" class="land" d="M338.23,60.43L338.65,60.84L340.11,60.51L340.77,61.31L343.82,61.01L345.72,63.21L350.41,64.73L351.47,64.43L353.62,65.56L358.35,64.12L361.81,64.26L364.74,62.03L367.49,61.89L369.79,63.27L371.18,61.75L373.94,62.25L373.94,62.25L373.08,66.06L373.38,70.06L367.99,70.28L367.27,71.05L367.28,74.58L364.68,76.56L363.88,78.02L363.01,77.89L362.25,78.55L362.13,81.39L360.18,89.98L358.3,92.05L356.68,92.41L356.15,93.56L354.97,93.92L354.93,96.18L354.19,97.89L353.22,97.83L353.15,98.9L352.4,98.88L352.58,100.36L351.61,104.66L352.58,104.99L353.37,104.57L356.24,101.68L359.09,102.1L359.82,102.68L362.7,101.08L363.75,101.99L365.76,101.52L366.64,103.06L366.52,104.52L366.52,104.52L365.97,104.93L366.56,108.21L369.41,111.31L368.44,113.16L363.67,114.23L361.79,115.8L359.32,116.7L357.5,121.82L357.4,126.08L356.6,126.65L354.59,130.99L353.87,131.21L354.27,132.89L348.47,136.07L346.17,136.65L345.45,135.94L342.66,135.39L342.37,134.87L342.41,133.49L343.99,132.56L344.39,131.63L344.08,129.57L342.71,130.09L341.78,129.84L340.13,130.77L339.96,132.2L338.48,132.28L337.87,130.83L336.94,131.16L333.52,129.35L332.95,127.48L332.11,127.07L332.02,125.47L329.6,124.9L326.66,123.27L325.92,124.13L326.24,126.3L321.87,123.14L316.51,121.65L314.17,120.33L310.1,120L304.21,115.96L302.48,115.77L300.98,114.64L299.96,114.61L301.29,117.72L298.46,118.57L297.89,120.42L292.28,120.25L288.97,123.6L284.2,123.27L280.94,124.15L278.5,122.48L273.24,123.16L270.92,122.67L269.52,121.43L268.05,121.82L267.01,120.85L265.73,121.21L265.18,123.3L263.93,124.21L263.24,124.1L260.91,118.57L259.65,117.72L258.38,117.64L257.89,116.59L251.82,117.2L247.81,116.24L247.81,116.24L247.55,114.53L248.9,112.96L250.72,114.15L252.22,113.65L252.34,112.06L251.54,111.15L252.41,109.58L254.08,109.31L254.03,106.22L254.64,105.23L254.66,103.58L256.5,105.01L257.35,107.1L259.81,102.68L261.33,104.79L263.13,102.9L266.34,102.84L268.3,104.11L272.25,101.99L274.27,101.6L274.27,97.97L275.71,96.15L275.41,94.47L277,93.34L275.31,92.27L275.73,91.19L276.96,90.75L278.24,87.78L277.48,86.21L278.92,85.71L278.56,83.84L280.8,81.66L281.51,79.24L282.02,78.8L282.89,79.21L283.73,78.19L283.65,75.68L286.56,73.72L287.97,73.42L290.29,74.33L292.43,75.96L292.77,75.16L293.63,76.51L294.58,75.9L294.26,70.66L296.04,72.12L298.15,69.78L300.32,68.57L303,70.97L303.59,73.97L304.75,75.68L308,72.81L307.82,70.36L310.41,68.04L311.93,65.2L314.36,64.1L317.14,61.97L321.56,62.14L324.45,63.68L325.42,62.47L327.47,61.7L329.18,60.01L332.81,61.48L333.14,62.47L333.8,62.41L334.2,60.79L335.8,60.62L336.08,59.9z"/>
		<path id="SI-PS" title="Spodnjeposavska" class="land" d="M326.1,224.94L328.61,225.46L333.17,224.18L333.88,223.52L335.36,223.55L342.6,225.29L345.22,226.33L347.77,228.21L348.07,224.07L345.35,223.03L346.42,221.88L345.72,220.57L347.08,218L347.12,216.97L344.31,215.22L344.67,213.85L345.49,213.94L347.48,212.73L348.97,213.44L351.3,212.6L353.6,214.48L355.86,214.81L357.97,214.37L358.85,213.53L359.06,212.21L359.76,212.27L360.86,213.69L360.84,215.85L362.36,216.58L362.17,221.28L363.67,222.43L363.86,218.82L366.28,219.21L368.2,218.44L371.43,219.45L373.46,219.04L378.29,219.29L382.18,217.08L383.74,218.52L387.33,219.21L387.33,219.21L388.68,218.85L391.02,219.21L391.02,219.21L392.69,218.33L395.79,219.07L400.06,218.2L403.27,219.89L404.53,221.12L404.53,221.8L406.75,220.16L408.92,221.12L410.53,224.34L412.43,224.8L412.83,228.49L413.73,230.56L413.48,231.52L414.16,231.9L415.59,231.19L416.46,231.43L418.17,230.51L422.05,231.11L421.71,233.67L420.81,235.12L416.96,237.57L415.65,240.19L422.24,239.48L426.93,237.6L428.87,235.88L431.34,231.73L433.72,230.37L434.9,230.26L436.72,226.74L439.17,226.47L441.74,227.23L443.75,225.9L446.37,226.41L446.37,226.41L448.46,229.14L446.9,229.55L446.62,230.56L445.48,231.3L445.92,232.03L445.08,234.87L445.75,235.42L445.29,235.8L444.8,235.47L443.68,236.75L444.28,237.25L444.87,237L444.72,239.65L443.94,239.65L443.5,240.74L442.73,240.63L442.44,241.83L443.68,243.43L442.53,244.06L443.39,244.85L444.3,250.41L444.04,255.18L444.45,257.28L443.68,260.25L443.88,261.96L442.76,262.59L438.7,267.3L440.2,272.63L439.61,274.1L440.84,276.6L439.59,278.37L441.15,278.94L443.58,281.52L443.86,282.72L440.69,283.89L435.9,284.19L431.49,289.84L428.89,286.39L426.59,285.44L425.58,284.22L419.81,282.48L418.23,280.9L416.18,283.24L415.87,284.65L414.66,284L414.09,282.34L411.85,281.96L410.91,287.1L409.26,288.73L404.8,289.14L404.42,287.45L402.69,286.5L399.97,287.86L399.59,289.55L397.9,289.87L399.3,295.71L397.29,296.61L394.23,296.12L392.29,296.58L389.1,296.23L384.98,297.29L384.98,297.29L381.97,287.26L380.28,285.01L379.79,282.56L378.55,281.58L378.9,280.52L383.21,279.65L384.33,277.66L381.94,277.69L381.75,275.11L381.18,274.75L381.8,272.98L379.65,271.65L375.17,270.21L374.05,269.23L375.61,265.15L374.83,254.15L376.23,252.59L376.29,251.86L375.49,250.49L372.93,249.7L372.85,246.24L370.5,246.43L367.51,245.34L367.63,248.34L365.42,246.41L362.84,245.59L362.21,245.86L362.21,246.95L361.41,248.1L362.97,249.87L362.86,251.56L361.07,251.69L359.21,248.34L358.09,247.63L356.7,247.71L356.97,249.81L356.43,250.55L354.82,250.63L354.61,252.18L353.01,251.42L352.23,251.97L352.35,253.38L351.11,253.33L346.89,251.58L342.41,247.28L340.38,246.11L340.13,243.43L338.32,242.51L338.82,239.73L341.12,238.64L341.69,237.27L341.44,235.5L339.84,234.68L336.6,234.57L336.01,234.79L335.8,236.13L334.94,236.81L334.26,234.68L330.21,233.37L330.21,233.37L329.54,232.72L329.24,231.13L326.39,227.21z"/>
		<path id="SI-PD" title="Podravska" class="land" d="M458.8,46.29L463.95,53.86L464.54,52.83L466.5,52.12L468.38,55.15L467.07,56.45L467.24,56.89L468.38,57.97L470.11,58.03L471.21,60.12L472.92,60.37L473.3,60.95L474.31,60.79L474.88,61.39L475.87,60.9L476.44,62.63L477.82,61.56L479.78,62.39L481.05,62.3L481.36,63.88L484.21,64.26L486.15,66.22L486.54,67.38L489.15,68.76L489.03,69.83L487.57,71.19L486.66,71.3L486.47,72.23L485.44,72.9L484.02,72.76L483.39,73.47L484.49,75.05L484.53,77.31L485.78,79.35L489.41,79.73L491.9,80.75L493.44,80.37L496.41,80.92L496.27,86.37L494.94,88.47L495.49,91.06L498.44,94.55L499.11,96.59L500.45,97.53L501.02,98.88L501.18,100.2L500.07,101.35L501.33,102.43L501.65,104.46L500.55,105.89L505.76,110.76L506.29,112.17L505.15,118.35L502.53,121.32L502.68,124.48L503.59,125.09L505.55,124.7L506.42,122.7L507.41,122.56L507.68,126.9L506.8,127.7L509.18,130.91L510.07,131.32L509.54,132.17L510.55,134.87L510.55,134.87L509.8,134.84L509.82,136.02L513.19,141.95L513.85,145.76L513.28,147.99L506.61,148.65L503.1,154.51L499.66,155.61L498.27,154.63L497.97,155.48L497.13,155.72L495.72,155.09L493.33,158.82L490.12,159.94L488.94,160.96L487.25,160.9L483.79,161.92L482.88,160.82L481.83,161.37L480.37,160.88L479.34,162.19L474.86,163.12L473.68,164.52L473.4,166.08L471.08,167.97L468.57,167.48L466.78,168.36L466.15,169.95L460,170.74L461.12,173.18L461.12,173.18L456.56,174.28L454.26,174.14L452.3,170.3L451.31,170.82L449.28,169.62L448.01,169.84L448.01,169.84L446.72,169.48L444.7,170.08L444.7,170.08L442.29,169.73L440.84,170.3L440.31,169.56L440.86,167.95L438.58,168.22L437.12,167.76L437,167.29L434.4,167.23L431.28,166.36L431.02,164.91L427.56,163.59L423.84,164.41L422.2,163.21L418.9,164.11L417.98,163.32L415.82,163.07L415.17,160.9L415.46,159.34L413.56,158.38L411.62,158.3L411.62,157.72L413.06,156.79L412.91,155.72L411.66,154.79L412.7,151.66L411.39,150.1L411.43,147.19L410.52,143.38L409.56,141.73L409.7,139.48L408.44,138.38L403.6,139.78L402.74,138.41L402.57,136.38L401.53,135.85L400.03,137.23L398.41,136.07L396.87,136.9L393.72,136.98L392.31,136.21L392.41,134.87L388.51,134.01L387.58,133.38L387.69,132.06L384.86,131.43L383.8,130.31L386.36,129.81L386.59,129.37L385.77,128.22L386.72,127.34L385.56,126.02L383.74,125.42L383.09,124.46L383.36,123.71L384.8,123.71L385.34,121.07L385.09,119.59L386.04,117.89L384.65,117.34L382.3,114.7L380.32,116.07L377.96,114.89L377.68,113.54L375.93,112.22L373.9,113.07L372.23,112.77L372.07,110.05L370.36,108.04L370.06,105.32L367.97,105.73L366.52,104.52L366.52,104.52L366.64,103.06L365.76,101.52L363.75,101.99L362.7,101.08L359.82,102.68L359.09,102.1L356.24,101.68L353.37,104.57L352.58,104.99L351.61,104.66L352.58,100.36L352.4,98.88L353.15,98.9L353.22,97.83L354.19,97.89L354.93,96.18L354.97,93.92L356.15,93.56L356.68,92.41L358.3,92.05L360.18,89.98L362.13,81.39L362.25,78.55L363.01,77.89L363.88,78.02L364.68,76.56L367.28,74.58L367.27,71.05L367.99,70.28L373.38,70.06L373.08,66.06L373.94,62.25L373.94,62.25L376.23,61.25L376.99,62.3L379.62,62.55L388.81,61.36L389.36,62.25L389.16,63.38L390.92,63.63L391.51,64.76L392.81,65.36L394.21,64.7L395.75,65.59L395.65,68.18L397.08,69.59L397.35,72.21L399.61,72.95L401.05,71.19L402.34,70.69L403.96,71.21L404.66,72.45L404.91,71.93L406.28,71.85L406.45,70.25L407.65,70.52L411.14,67.13L411.73,66.86L412.32,67.96L413.61,65.64L413.69,65.17L412.51,64.18L412.93,63.38L414.24,63.1L412.91,57.22L413.65,56.53L415.13,56.84L417.19,54.46L418.9,54.08L418.9,53.53L421.12,53.3L422.47,51.62L424.54,52.23L423.87,52.86L422.43,52.28L421.73,54.49L422.92,55.79L424.14,56.12L425.07,55.76L424.1,53.97L424.94,53.3L428,54.3L429.27,53.58L429.46,52.23L430.3,51.12L433.13,50.93L433.38,47.23L433.95,46.95L437.75,46.87L441.91,49.27L445.88,49.77L449.24,48.69L454.49,48.86z"/>
		<path id="SI-PM" title="Pomurska" class="land" d="M548.99,0.86L555.01,1.11L556.63,4.41L559.53,6.12L561.62,8.34L563.47,8.67L565.39,11.27L565.27,12.85L564.36,13.63L563.85,15.26L563.9,18.86L563.37,20.35L560.18,21.02L558.49,22.6L558.51,27.16L561.43,27.1L561.74,28.05L559.74,33.55L565.52,39.49L565.37,42.12L565.9,42.26L566.91,44.63L569.34,42.5L571.05,44.44L570.95,45.9L569.34,47.59L570.17,48.42L580.63,50.02L578.71,60.04L576.07,60.01L574.58,58.69L573.52,58.66L573.33,61.01L572.23,61.92L572.42,63.99L573.73,65.09L573.5,66.72L574.68,67.3L575.63,66.91L576.6,67.63L578.29,69.78L579.37,72.62L583.69,73.5L585.62,76.84L586.95,77.67L588.25,80.34L589.03,79.98L590.39,81.47L590.95,85.52L592.54,86.02L593,86.7L595.77,86.43L597.62,89.38L597.75,91.47L597.06,92.57L597.6,94.17L599.14,94.33L600.16,95.3L598.83,98.77L599.15,99.73L600.28,100.36L599.82,101.74L598.93,101.52L598.4,102.84L603.2,105.95L608.88,108.45L612,112.36L610.42,112.33L609.47,113.24L607.55,111.4L606.76,112.61L603.72,110.93L603.2,109.99L601.87,109.88L601.13,108.45L599.55,109.66L598.2,109.31L597.41,108.51L598.43,107.13L598.34,106.36L595.34,105.51L592.73,104L593.42,102.81L592.77,101.79L589.23,100.58L587.66,100.86L587.39,99.43L586.42,98.41L585.17,98.55L584.18,99.37L582.56,99.32L581.69,98.24L581.58,96.37L580.87,95.71L579.03,96.15L577.62,95.1L577.42,96.21L576.79,96.4L574.62,94.55L575.15,93.18L574.62,92.38L573.69,92.35L572.97,94.66L570.35,95.9L569.79,95.68L568.45,92.76L567.59,93.12L567.02,94.2L564.66,93.12L563.64,96.59L562.82,96.76L562.42,95.79L561.42,95.6L558.72,96.73L557.8,98.49L555.52,99.9L554.75,99.48L550.17,99.87L548.34,104.96L546.76,106.28L546.76,108.01L549.71,114.61L550.66,123.22L552.45,126.1L556.09,129.07L557.61,131.79L557.41,134.62L555.54,137.8L553.95,139.15L551.02,139.37L550.28,137.04L548.47,134.98L547.35,136.27L545.49,137.2L543.23,136.9L542.45,136.21L539.45,137.94L537.93,137.26L536.07,137.89L533.35,133.55L527.36,129.62L525.73,129.87L522.92,132.12L520.64,135.99L519.48,136.07L517.84,135.22L514.88,136.54L512.41,136.18L510.55,134.87L510.55,134.87L509.54,132.17L510.07,131.32L509.18,130.91L506.8,127.7L507.68,126.9L507.41,122.56L506.42,122.7L505.55,124.7L503.59,125.09L502.68,124.48L502.53,121.32L505.15,118.35L506.29,112.17L505.76,110.76L500.55,105.89L501.65,104.46L501.33,102.43L500.07,101.35L501.18,100.2L501.02,98.88L500.45,97.53L499.11,96.59L498.44,94.55L495.49,91.06L494.94,88.47L496.27,86.37L496.41,80.92L493.44,80.37L491.9,80.75L489.41,79.73L485.78,79.35L484.53,77.31L484.49,75.05L483.39,73.47L484.02,72.76L485.44,72.9L486.47,72.23L486.66,71.3L487.57,71.19L489.03,69.83L489.15,68.76L486.54,67.38L486.15,66.22L484.21,64.26L481.36,63.88L481.05,62.3L479.78,62.39L477.82,61.56L476.44,62.63L475.87,60.9L474.88,61.39L474.31,60.79L473.3,60.95L472.92,60.37L471.21,60.12L470.11,58.03L468.38,57.97L467.24,56.89L467.07,56.45L468.38,55.15L466.5,52.12L464.54,52.83L463.95,53.86L458.8,46.29L458.8,46.29L461.04,44.83L467.35,42.84L474.73,42.78L483.45,46.73L488.46,51.15L497.78,53.72L499.69,55.4L501.08,58.44L505.7,61.17L506.73,59.85L506.95,53.5L504.64,48.91L504.39,47.34L505.07,45.65L502.91,45.27L501.96,43.8L499.75,43.83L500.11,42.5L497.57,40.21L496.62,37.81L497.03,36.45L496.69,34.54L497.34,32.55L496.98,28.24L498.35,24.42L497.72,20.24L498.65,19.8L499.05,18.64L497.64,16.98L496.52,13.82L498.8,11.61L499.75,12.8L500.45,12.91L501.29,11.86L504.52,10.64L505.02,10.55L505.47,12.22L507.3,10.22L508.84,10.89L510.43,10.75L511.21,9.64L511.08,8.45L513.11,6.62L514.42,6.79L516.46,3.69L517.33,3.49L518.24,4.54L519.97,2.41L520.9,2.08L521.17,3.27L522.48,3.3L523.64,5.07L526.41,5.96L528.88,5.96L529.85,4.6L532.44,4.93L534.83,2.66L541.63,1.61L544.24,0.06z"/>
	</g>
</svg>
