﻿<?xml version="1.0" encoding="utf-8"?>
<!-- (c) ammap.com | SVG map of Sweden - High -->
<svg xmlns="http://www.w3.org/2000/svg" xmlns:amcharts="http://amcharts.com/ammap" version="1.1">
	<defs>
		<style type="text/css">
			.land
			{
				fill: #CCCCCC;
				fill-opacity: 1;
				stroke:white;
				stroke-opacity: 1;
				stroke-width:0.5;
			}
		</style>

		<amcharts:ammap projection="mercator" leftLongitude="11.105169" topLatitude="69.061149" rightLongitude="24.170696" bottomLatitude="55.338154"></amcharts:ammap>

		<!-- All areas are listed in the line below. You can use this list in your script. -->
		<!--{id:"SE-K"},{id:"SE-I"},{id:"SE-X"},{id:"SE-N"},{id:"SE-Z"},{id:"SE-F"},{id:"SE-H"},{id:"SE-W"},{id:"SE-G"},{id:"SE-BD"},{id:"SE-E"},{id:"SE-T"},{id:"SE-D"},{id:"SE-M"},{id:"SE-AB"},{id:"SE-C"},{id:"SE-AC"},{id:"SE-O"},{id:"SE-S"},{id:"SE-Y"},{id:"SE-U"}-->

	</defs>
	<g>
		<path id="SE-K" title="Blekinge" class="land" d="M89.88,739.89L92.07,740.5L92.54,740.81L93.23,741.47L93.97,742.54L94.67,743.4L98.37,743.75L99.71,743.76L100.72,743.64L101.54,742.86L102.93,741.14L104.93,740.23L108.26,740.13L110.38,739.72L111.2,739.43L111.65,739.09L112.33,738.3L112.54,738.08L116.24,737.88L117.46,737.93L121.2,741.79L123.08,744.37L123.66,745.24L124.33,745.77L125.33,746.2L128.19,746.59L130.73,746.26L130.43,748.38L129.5,750.81L129.25,751.25L125.73,756.75L123.7,755.82L123.36,754.12L120.27,752.65L118.66,751.9L112.78,754.58L112.38,754.79L112.09,754.77L105.86,753.94L105.21,753.54L105.05,753.39L104.99,753.14L95.39,753.47L94.85,753.49L94.69,753.65L94.58,753.89L94.4,754.85L94.39,755.41L94.46,755.65L94.58,755.85L94.75,756L95.2,756.25L95.33,756.42L96.28,758.29L96.73,759.39L96.7,759.68L95.95,760.59L95.46,761.09L93.23,760.75L92.84,759.72L92.39,758.65L91.21,758.4L91.01,758.5L90.75,758.69L91.3,757.99L91.55,757.32L91.58,756.75L91.62,754.96L91.42,753.28L91.17,751.99L91.02,751.48L90.48,750.99L88.72,750.97L88.1,751.36L87.66,751.11L86.45,747.16L86.6,746.52L86.64,746.36L87.41,743.98L88.14,742.41z"/>
		<path id="SE-I" title="Gotland" class="land" d="M208.65,669.27l0.78,3.57l-2.75,4.31l-2.13,0.92l-1.05,0.86l-0.42,2.19l-0.89,7.43l0.22,1.76l0.04,0.25l0.5,0.93l0.54,0.45l-0.69,3.56l-0.92,0.77l-0.69,0.69l-1.01,1.26l-0.31,0.41l-0.1,0.28l-0.08,0.33v0.27l0.04,0.26l0.37,0.33h0.28l0.51,-0.08l0.04,0.26l0.08,1.06l-0.07,0.26l-1.42,1.01l-2.8,1.85l-0.98,0.65l-0.43,0.2l-1.13,0.41l-0.43,0.2l-0.59,0.42l-0.53,0.49l-0.15,0.2l-0.12,0.24l-1.09,2.2l-0.11,0.28l-0.06,0.26l-0.1,2.2l0.01,0.28l0.2,0.15l0.16,1.17l-1.24,2.55l-0.2,0.13l-2.1,1.05l-0.25,0.05l-0.98,0.09l-0.56,-0.09l-0.2,-0.15l0.06,-0.25l0.42,-1.03l1.34,-2.3l1.25,-2.08l-0.06,-2.28l-2.14,-3.05l-0.66,-4.54l0.26,-3.93l-0.41,-4.58l-0.72,-3.5l-0.13,-0.75l-0.01,-0.83l0.04,-0.31l0.21,-0.57l0.51,-0.98l1.07,-1.83l0.32,-0.38l0.54,-0.48l0.42,-0.27l0.38,-0.3l0.18,-0.16l0.71,-0.66l0.49,-0.57l1.17,-1.77l0.45,-0.7l0.69,-1.12l0.52,-0.99l0.48,-1.07l0.97,-2.1l0.13,-0.25l0.15,-0.21l0.37,-0.33l5.31,-4.71l0.21,-0.12l0.69,-0.25l0.23,-0.08l4.15,0.15l0.54,0.07l0.31,0.04l2.39,0.44l0.04,0.25L208.65,669.27zM211.88,672.2l-0.87,-0.61l-0.41,-0.32l-0.12,-0.21l-0.94,-1.68l-0.08,-0.23v-0.57l0.04,-0.3l1.39,-2.57l0.18,-0.17l0.23,-0.08l4.79,-0.07h0.28l0.29,0.11l0.66,0.46l0.08,0.23l-0.03,0.24l-1.26,0.91l-0.24,-0.14l-0.08,-0.24l-0.17,-0.18l-0.3,-0.04l-0.49,0.12l-1.78,0.87l-0.21,0.12l-0.32,0.41l-0.13,0.25l-0.11,0.29l-0.04,0.3L211.88,672.2zM214.81,647.38h-0.29l-0.21,-0.15l-0.82,-2.07l-0.08,-0.24l0.07,-0.27l1.01,0.08l0.97,0.28l1.17,0.45l0.5,0.28l0.17,0.18l-0.1,0.22l-0.32,0.42l-0.34,0.36l-0.21,0.13l-0.23,0.08L214.81,647.38z"/>
		<path id="SE-X" title="Gävleborg" class="land" d="M111.42,438.5L111.79,438.23L112.83,437.37L113.84,436.45L114.77,435.46L115.66,434.84L118.06,434.45L118.56,434.45L120.21,434.65L121.7,435.17L123.66,436.1L126.54,437.38L128.77,438.33L134.91,439.74L136.78,440.12L139.21,440.17L139.79,440.07L141.07,440.04L144.16,440.69L148.71,441.66L152.79,442.78L153.74,443.15L156.82,443.83L161.29,444.69L164.9,445.05L166.17,445.19L167.88,445.66L168.48,445.87L167.96,452.56L167.64,453.09L167.46,453.33L167.26,453.51L167,453.61L166.76,453.44L166.5,453.34L166.28,453.48L166.1,453.73L165.06,455.67L164.95,455.99L164.83,457.05L164.6,463.12L165.9,466.55L167.34,468.2L168.12,467.9L168.49,467.98L168.78,468.14L168.92,468.37L169.54,469.61L169.54,469.91L168.95,473.05L168.89,473.27L168.75,473.54L168.58,473.79L168.32,473.88L167.47,473.65L167.14,473.53L166.86,473.08L166.8,472.79L166.65,472.25L166.01,470.41L165.91,470.15L165.43,469.68L165.06,469.33L164.68,469L164.35,468.89L161.89,468.45L161.54,468.41L159.67,468.51L159.41,468.6L159.46,468.89L159.66,469.09L159.89,469.27L160.57,469.42L160.85,469.36L161.2,469.4L161.53,469.51L162.6,470.19L162.83,470.36L162.88,470.64L162.8,471.01L162.66,471.3L160.73,473.25L160.49,473.4L160.24,473.5L159.89,473.47L159.57,473.36L159.09,473L159.04,472.72L158.8,472.74L158.57,472.89L158.37,473.08L158.19,474.61L158.82,477.72L160.01,479.59L160.15,479.82L161.59,484L161.51,484.69L161.34,484.92L160.24,485.18L159.78,484.76L159.69,484.5L159.4,484.57L158.6,485.87L158.46,486.14L158.42,486.48L158.47,486.77L159.54,488.64L161.12,490.24L161.35,490.41L161.96,490.65L162.64,490.73L162.97,490.84L162.94,491.11L162.22,492.78L161.09,496.19L160.55,501.02L159.92,507.42L159.69,511.21L159.79,511.45L161.04,512.73L162.08,513.88L162.17,514.13L163,516.74L163.2,520.6L163.02,522.88L160.89,524.4L161.31,525.08L162.98,525.75L165.21,527.67L165.67,528.82L165.25,530.02L164.95,531.11L164.8,532.07L163.77,536.09L163.44,537.53L163.29,538.13L162.95,538.6L162.29,538.9L162.15,539L161.61,539.42L161.17,540.04L160.75,540.53L160.41,540.93L160.26,541.49L160.8,542.37L160.95,543.12L160.84,543.63L160.72,544.42L160.54,545.25L160.48,545.92L160.59,546.11L157.28,548.63L156.13,547.93L154.71,547.46L153.3,547.5L153.13,547.96L153.11,548.65L152.94,549.16L152.29,550.12L151.74,550.6L151.6,550.72L148.95,552.34L148.48,552.53L147.79,552.5L147.66,552.28L147.39,551.85L145.5,549.69L145.09,548.92L144.75,548L144.28,546.75L144.1,546.23L143.57,544.83L142.71,544L142.14,543.6L140.65,542.98L139.97,542.63L139.49,542.26L138.55,541.12L137.45,539.7L135.08,536.39L133.73,532.86L133.42,531.93L133.37,530.74L134.09,530.61L135.09,530.2L136.02,529.7L137.03,528.32L139.77,523.74L139.63,521.35L139.52,520.6L139.06,519.88L137.89,518.3L136.48,516.28L135.85,515.25L134.41,512.83L133.32,510.39L130.61,509.8L128.24,509.27L124.5,507.35L123.92,506.86L123.31,506.23L123,505.81L122.69,505.39L122.22,504.57L121.59,503.22L121.47,502.72L121.31,502.1L121.12,500.58L121.09,500.09L120.93,498.97L120.73,498.12L120.51,497.54L120.24,497.04L117.72,494.16L113.23,488.93L112.25,487.78L111.58,486.92L110.03,484.89L109.23,483.83L108.87,483.28L108.44,482.2L106.35,479.76L105.9,481.22L105.56,482.02L104.9,482.6L104.36,482.71L98,482.82L96.71,482.82L95.44,482.51L94.66,482.23L94.67,480.93L94.72,480.1L94.45,478.81L93.77,476.73L91.63,476.69L88.91,476.75L88.03,476.91L89.13,475.67L89.5,473.54L90.01,469.93L90.43,464.87L91.67,462.85L92.14,462.14L93.37,460.34L93.86,459.7L94.55,459.84L95.05,460.58L95.69,462.32L95.79,462.93L95.99,463.53L96.35,464.34L97.04,465.05L97.8,465.13L103.16,461.47L104.15,459.99L104.68,457.13L104.83,455.17L104.69,453.62L104.82,453.03L108.64,449.67L109.42,449.08L110.91,448.14L112.19,447.07L112.56,446.52L112.94,445.85L113.23,445.02L113.16,444.44L112.93,443.29L112.6,442.67L111.46,440.98L110.89,439.76L110.89,439.22L111.23,438.64z"/>
		<path id="SE-N" title="Halland" class="land" d="M21.25,687.65L21.97,687.59L22.58,687.63L23.7,688.1L24.32,688.22L24.9,688.29L25.7,688.05L26.71,687.52L27.87,686.9L28.7,686.35L29.36,685.8L30.01,685.61L30.38,685.99L31.38,686.95L33.48,694.09L33.49,694.59L33.45,695.47L33.05,696.11L32.95,697.01L32.9,697.66L32.98,698.21L33.17,698.77L33.95,700.88L34.48,700.95L35.98,700.46L36.23,699.94L36.41,699.42L37.93,698.2L40.1,697.86L41.27,698.21L47.25,703.24L49.93,705.5L51.24,706.85L51.35,707.12L51.71,709.56L52.31,711.9L52.58,712.67L53.01,712.62L54.06,711.98L54.04,711.4L54.14,710.8L55.11,709.72L57.61,708.72L58.68,708.39L59.26,708.37L62.35,709.26L64.15,710.29L64.77,710.69L64.72,711.24L64.68,712.25L64.77,713.13L65.19,713.58L67.67,714.65L67.52,715.55L67.18,716.98L66.52,718.23L65.45,719.09L62.64,719.77L61.13,719.95L60.61,719.96L58.17,720.28L57.86,722.64L57.81,723.09L58.06,725.41L58.43,728.9L59.82,732.98L60.43,734.28L61.13,734.93L61.59,735.64L61.92,736.94L61.98,737.69L62.06,741.21L61.98,741.75L61.23,742.04L57.28,744.04L56.62,744.65L53.92,745.42L50.07,745.13L49.39,745L48.77,744.67L48.7,744.21L48.68,742.85L48.7,741.84L48.75,741.42L48.27,741.15L47.02,740.57L46.13,740.24L46.55,740.17L46.75,740.07L46.94,739.93L47.41,739.42L47.66,738.95L47.85,738.41L48.18,737.32L48.37,736.37L48.35,735.82L48.26,735.3L48.21,735.06L47.83,733.62L47.05,730.75L46.76,730.37L46.56,730.25L45.31,729.79L45.09,729.88L44.34,730.5L43.63,730.67L42.76,730.69L42.58,730.51L41.32,728.94L39.81,725.54L39.45,724.06L39.41,723.79L39.43,723.19L39.49,722.87L39.45,722.6L39.38,722.34L39.27,722.14L38.91,721.53L38.76,721.35L36.4,719.05L35.97,718.75L34.64,718.3L32.85,717.47L32.78,717.24L32.84,714.78L31.16,711.75L26.91,702.71L26.8,701.26L27.35,698.08L26.11,692.54L25.14,691.18L24.95,691.03L24.76,690.93L24.57,691.07L23.9,692.18L23.8,692.44L23.75,692.77L23.82,693.3L23.8,693.61L23.32,696.42L23.23,696.72L23.05,696.61L22.08,695.03L21.42,693.75L21.06,692.78L20.99,692.55L21.13,688.22z"/>
		<path id="SE-Z" title="Jämtland" class="land" d="M84.27,268.94L85.76,270.62L90.9,275.67L92.5,276.75L96.12,279.99L102.65,287.3L103.18,288.22L103.4,289.51L103.88,290.69L104.24,291.3L104.77,291.69L106.97,292.7L107.53,293.17L111.22,296.72L111.71,298.12L113.96,301.83L114.62,302.31L115.99,303.65L116.94,305.14L117.36,305.95L117.71,307.28L118.83,310.14L124.54,314.38L126.85,315.96L129.15,317.51L129.54,318.66L129.81,321.35L129.89,322.39L130.53,322.51L131.68,322.41L132.38,322.14L134.17,321.77L135.07,321.87L142.93,330.75L145.19,333.33L147.99,336.67L148.89,337.92L147.24,340.19L146.46,341.49L145.48,343.54L145.29,344.06L144.66,346.2L144.26,348.06L144.15,349.04L144.29,349.91L144.4,350.9L144.5,353.14L143.92,353.72L141.26,354.36L136.84,356.53L134.91,356.84L132.82,356.51L130.98,356.63L127.31,357.11L125.91,357.5L125.29,357.73L123.91,358.38L124.21,359.67L124.86,360.36L125.69,361.12L126.21,361.71L127.04,362.93L127.55,363.73L127.8,364.59L128.28,367.33L132.38,375.92L133.47,376.9L135.99,379.03L137.11,379.96L138.4,380.89L142.83,384.44L144.59,386.24L145.84,387.65L148.98,391.31L155.83,399.49L154.29,400.14L152.75,400.43L151.88,400.56L150.11,400.66L148.23,401.26L146.74,402.66L145.11,404.49L141.97,408.42L141.66,408.95L140.81,410.6L140.24,412.23L140.01,412.96L138.16,413.89L133.74,414.85L133.09,414.94L132.44,414.86L131.57,414.56L130.66,413.87L130,413.62L129.21,413.57L124.26,415.85L122.45,416.86L120.98,417.34L113.8,419.28L113.24,419.39L111.04,419.69L108.15,420.81L106.83,421.82L106.23,422.03L105.04,421.41L104.46,420.87L103.97,420.54L103.24,420.33L96.45,420.42L97.27,430.99L101.1,436.36L103.49,437.74L106.59,439.47L107.15,439.03L108.44,437.93L109,437.6L110.18,437.57L110.93,438.01L111.42,438.5L111.23,438.64L110.89,439.22L110.89,439.76L111.46,440.98L112.6,442.67L112.93,443.29L113.16,444.44L113.23,445.02L112.94,445.85L112.56,446.52L112.19,447.07L110.91,448.14L109.42,449.08L108.64,449.67L104.82,453.03L104.69,453.62L104.83,455.17L104.68,457.13L104.15,459.99L103.16,461.47L97.8,465.13L97.04,465.05L96.35,464.34L95.99,463.53L95.79,462.93L95.69,462.32L95.05,460.58L94.55,459.84L93.86,459.7L93.37,460.34L92.14,462.14L91.67,462.85L90.43,464.87L90.01,469.93L89.5,473.54L89.13,475.67L88.03,476.91L86.24,478.03L85.43,476.98L84.88,476.12L84.26,475.9L83.64,475.76L82.78,475.73L80.15,475.55L76.07,475.04L74.37,474.59L69.13,474.16L68.17,474.19L63.63,473.39L63.1,472.57L62.55,471.34L62.47,469.88L62.57,468.82L62.26,468.28L58.8,462.62L57.15,460.18L56.24,459.34L55.02,457.94L55.15,456.99L56.35,456.03L58.17,454.31L59.01,453.26L56.75,450.77L54.65,451.56L53.09,452.19L52.46,452L49.55,449.78L49.13,449.09L46.58,445.57L44.54,442.78L43.88,441.91L43.19,441.6L42.08,441.47L39.21,441.6L37.9,441.8L35.49,440.95L34.46,440.45L32.26,439.13L31.41,438.42L31.38,438.35L31.41,438.15L31.3,437.54L30.77,435.52L30.37,434.43L30.08,433.82L29.15,430.86L28.87,430.02L28.47,428.93L28.15,428.14L27.54,426.86L25.83,422.92L24.85,419.44L24.83,415.12L25.52,412.21L25.96,410.28L25.36,407.18L24.92,405.11L24.36,402.01L25.14,400.5L26.59,397.68L27.59,395.81L28.05,394.85L27.41,393.14L24.57,385.64L24.32,385.14L21.92,379.88L23.57,376.85L25.67,373.05L27.22,370.2L28.75,367.33L28.32,365.74L27.28,361.48L27.66,360.84L32.76,352.87L36.1,346.63L37.62,344.27L40.35,340.07L41.61,338.6L44.59,336.2L45.97,335.11L48.38,333.42L49.71,332.75L50.87,332.35L53.6,331.59L55.13,331.21L56.1,331.02L57.72,331.41L75.96,335.85L76.13,335.54L80.32,326.13L80.53,325.41L80.44,316.43L80.4,315.74L79.52,308.06L77.3,306.99L73.82,305.8L71.69,304.46L68.04,301.9L67.55,301.52L67.52,301.18L67.59,300.75L67.9,299.64L68.43,298.31L68.71,297.67L69.19,296.9L72.02,291.9L73.25,289.56L75.27,285.56L78.86,278.5L82.66,272.27z"/>
		<path id="SE-F" title="Jönköping" class="land" d="M69.05,673.17L69.15,673.25L70.32,673.83L71.15,673.8L71.62,673.25L72.1,673.03L73.22,672.63L74.39,673.72L75.18,674.67L75.77,674.9L79.33,670.02L79.88,668.97L81.29,666.18L83.63,660.92L84.4,659.16L84.51,658.78L85.48,659.07L87.38,659.3L90.54,659.58L95.88,660.06L96.09,660.54L96.64,660.83L98.39,660.69L99.81,659.87L99.85,658.61L100.59,658.23L101.09,658.23L102.53,659.87L102.73,660.51L103.39,666.21L102.97,667.35L102.83,667.82L102.76,669.5L104.35,675.35L104.86,676.81L105.89,679.03L106.42,679.56L107.49,679.59L108.62,679.43L112.6,679.7L113.96,679.81L114.01,680.44L114.45,680.93L116.21,681.65L118.65,684.19L119.2,690.13L118.85,691.07L118.14,692.35L116.13,693.57L115.56,698.62L116.1,703.64L115.4,703.44L113.5,703.02L113.01,702.97L111.95,702.96L107.62,702.93L106.27,703.02L104.97,704.27L102.06,706.62L101.3,707.17L100.4,707.09L99.93,706.48L99.8,705.75L99.46,704.47L98.97,704.01L97.62,702.97L97.19,702.75L96.73,702.7L96.11,702.75L95.48,702.94L92.69,704.38L88.17,705.96L87.61,706.08L85.73,706.51L85.44,707L84.68,712.36L84.86,712.98L85.45,713.41L85.92,713.93L85.96,715.46L85.49,716.89L84.88,718.08L84.54,718.62L83.81,719.22L83.28,719.34L82.82,719.37L82.34,718.98L81.95,718.06L81.52,716.69L81.31,715.6L81.23,714.87L80.72,713.84L79.96,712.79L79.15,712.02L78.35,711.58L77.81,711.42L76.84,711.38L75.34,711.43L75.13,711.44L69.01,712.24L68.24,712.82L67.67,714.65L65.19,713.58L64.77,713.13L64.68,712.25L64.72,711.24L64.77,710.69L64.15,710.29L62.35,709.26L59.26,708.37L58.68,708.39L57.61,708.72L55.11,709.72L54.14,710.8L54.04,711.4L54.06,711.98L53.01,712.62L52.58,712.67L52.31,711.9L51.71,709.56L51.35,707.12L52.15,706.29L54.12,703.05L54.8,701.76L57.64,698.38L59.49,697.33L63.19,693.63L66.66,688.03L66.96,687.24L67.2,686.28L67.77,683.1L68.78,676.72L68.99,675.05L69.04,674.49z"/>
		<path id="SE-H" title="Kalmar" class="land" d="M146.6,665.35l0.51,0.81l1.79,0.55l-0.49,1.19l0.05,0.25l0.23,0.72l0.13,0.19l0.54,0.23l0.21,0.15l0.05,0.25l0.01,0.29l-0.18,0.17l-0.38,0.3l-0.21,0.12l-0.24,-0.01l-1.94,-0.52l-0.98,-0.34l-0.23,-0.1l-0.29,-1.52l0.1,-0.12l0.31,0.03l-0.4,-0.77l-2.22,-2.82l-0.21,0.03l-0.21,0.12l-0.11,0.18l-0.08,0.24l0.37,4.82l0.05,0.14l0.08,0.12l0.21,0.21l1.11,1.17l2.98,4.45l0.43,0.58l0.26,0.41l-0.07,0.27l-0.22,0.06l-0.21,-0.17l-1.73,-1.44l-0.09,-0.23l-0.11,-0.51l-0.23,-0.41l-0.32,-0.4l-0.78,-0.92l-0.17,-0.18l-1.95,-1.52l0,0.18l0.03,0.14l0.21,0.56l0.17,0.23l0.18,0.23l2.39,2.74l0.31,0.31l1.46,1.27l0.84,0.95l0.26,0.4l0.22,0.42l0.06,0.26l-2.19,3.67l-1.64,1.86l-0.16,1.09l1.89,0.66l1.5,3.29l0.11,0.49v0.3l-0.58,2.86l-0.18,0.16l-0.23,0.12l-0.5,0.09l-0.13,1.05l-0.03,0.23l-0.18,0.12l-0.62,-0.15l-0.91,-0.29l-0.3,-0.01l-0.23,0.09l-0.11,0.23l-1.84,4.23l-0.13,0.66l-0.07,0.6l-0.24,2.88l-0.01,0.23l0.07,1.08l0.06,0.53l0.18,0.43l1.23,2.01l0.25,0.03l0.18,-0.13l0.26,-0.05l0.16,0.18l0.46,1.12l0.55,2.16l0.01,0.27l-2.19,0.35l-0.23,-0.12l-1.01,4.06l-0.37,2.97l-0.37,2.43l-0.5,2.32l-0.87,3.59l-1.77,3.16l-0.2,-0.16l-0.26,-0.04l-0.48,0.12l-0.5,0.51l-0.99,1.86l-2.44,6.96l-0.18,0.57l-0.35,1.15l-0.36,1.46l-0.95,3.87l-2.54,0.33l-2.86,-0.38l-1,-0.44l-0.68,-0.53l-0.57,-0.87l-1.89,-2.58l-3.74,-3.86l-1.23,-0.05l-3.69,0.2l-0.22,0.22l-0.1,-0.58l0.07,-2.89l0.93,-7.99l2.23,-4.1l1.28,-2.87l-0.07,-0.64l0.04,-0.67l0.09,-0.83l0.44,-0.58l1.37,0.32l0.84,0.58l0.74,0.21l1.56,-0.01l0.56,-0.04l1.83,-0.4l0.15,-0.54l0.16,-0.74l0.1,-1.36l-0.07,-0.71l-0.58,-1.72l-0.32,-0.51l-1.06,-1.56l-0.54,-0.65l-2.91,-2.63l-1.86,-1.38l-1.09,-2.37l-0.54,-5.02l0.56,-5.05l2.02,-1.22l0.7,-1.28l0.35,-0.94l-0.55,-5.94l-2.44,-2.54l-1.76,-0.71l-0.44,-0.49l-0.05,-0.63l0.27,-1.01l3.6,-5.73l0.62,-0.29l1.76,-0.59l0.57,-0.11l0.44,0.05l0.98,0.43l0.46,0.33l0.8,0.94l0.76,0.26l2.55,0.03l3.28,-2.59l0.31,-0.54l-0.93,-2.04l-0.14,-0.57l-0.53,-4.79l0.07,-1.36l0.07,-0.59l3.13,-1.12l2.72,-1.59l0.67,-0.43l0.46,-0.11l2.94,0.38l0.99,0.33l4.48,1.71l0.83,2.75l0.34,0.57l0.69,0.75L146.6,665.35zM140.64,751.23l-0.23,-0.11l-0.13,-0.2l-0.14,-0.46l-0.2,-2.33l-0.31,-9.09l0.04,-3.07l0.07,-0.32l0.65,-2.42l3.23,-9.12l1.83,-4.43l0.13,-0.25l0.33,-0.27l0.42,-0.21l2.76,-2.71l2.61,-6.03l1.37,-3.44l1.57,-4.31l0.1,-0.28l0.07,-0.6l-0.14,-0.74l-0.03,-0.84l0.04,-0.3l0.15,-0.65l0.19,-0.57l0.25,-0.5l0.27,-0.45l0.45,-0.62l0.32,-0.37l0.35,-0.34l0.56,-0.35l1.11,0.42l0.18,0.11l0.49,1.34l-1.95,6.54l-1.1,2.66l-1.26,2.75l-0.91,1.8l-1.23,5.24l-0.84,4.14l-0.19,0.56l-0.12,0.25l-0.23,0.08l-0.29,-0.03l-0.23,0.08l-0.62,0.68l-0.15,0.2l-0.24,0.48l-1.15,4.5l-2.41,8.78l-1.56,5.34l-0.16,0.6l-0.03,0.3l0.02,0.53l0.04,0.25l0.09,0.21l0.01,0.28l-0.1,0.3l-0.49,1.36l-1.5,4.06l-0.26,0.45l-0.34,0.33l-0.96,0.62L140.64,751.23z"/>
		<path id="SE-W" title="Dalarna" class="land" d="M31.38,438.35L31.41,438.42L32.26,439.13L34.46,440.45L35.49,440.95L37.9,441.8L39.21,441.6L42.08,441.47L43.19,441.6L43.88,441.91L44.54,442.78L46.58,445.57L49.13,449.09L49.55,449.78L52.46,452L53.09,452.19L54.65,451.56L56.75,450.77L59.01,453.26L58.17,454.31L56.35,456.03L55.15,456.99L55.02,457.94L56.24,459.34L57.15,460.18L58.8,462.62L62.26,468.28L62.57,468.82L62.47,469.88L62.55,471.34L63.1,472.57L63.63,473.39L68.17,474.19L69.13,474.16L74.37,474.59L76.07,475.04L80.15,475.55L82.78,475.73L83.64,475.76L84.26,475.9L84.88,476.12L85.43,476.98L86.24,478.03L88.03,476.91L88.91,476.75L91.63,476.69L93.77,476.73L94.45,478.81L94.72,480.1L94.67,480.93L94.66,482.23L95.44,482.51L96.71,482.82L98,482.82L104.36,482.71L104.9,482.6L105.56,482.02L105.9,481.22L106.35,479.76L108.44,482.2L108.87,483.28L109.23,483.83L110.03,484.89L111.58,486.92L112.25,487.78L113.23,488.93L117.72,494.16L120.24,497.04L120.51,497.54L120.73,498.12L120.93,498.97L121.09,500.09L121.12,500.58L121.31,502.1L121.47,502.72L121.59,503.22L122.22,504.57L122.69,505.39L123,505.81L123.31,506.23L123.92,506.86L124.5,507.35L128.24,509.27L130.61,509.8L133.32,510.39L134.41,512.83L135.85,515.25L136.48,516.28L137.89,518.3L139.06,519.88L139.52,520.6L139.63,521.35L139.77,523.74L137.03,528.32L136.02,529.7L135.09,530.2L134.09,530.61L133.37,530.74L133.42,531.93L133.73,532.86L135.08,536.39L137.45,539.7L138.55,541.12L139.49,542.26L139.97,542.63L140.65,542.98L142.14,543.6L142.71,544L143.57,544.83L144.1,546.23L144.28,546.75L144.75,548L145.09,548.92L145.5,549.69L147.39,551.85L145.28,553.19L142.83,555.05L139.05,557.99L138.44,558.48L137.88,558.75L136.55,559.19L135.88,559.27L133.58,559.12L133.04,558.62L132.8,558.12L132.73,557.36L132.86,556.86L133.09,555.77L132.62,555.33L129.6,552.83L127.71,553.11L123.44,554.17L122.49,555.13L120.95,560.08L120.75,560.82L120.74,561.38L121.2,561.79L121.7,562.23L121.56,562.8L120.9,564.73L120.51,565.71L119.82,566.24L118.44,566.11L118,565.52L117.38,565.39L116.53,565.42L116.04,565.61L115.69,566.15L114.63,568.11L113.97,569.44L113.52,570.46L112.53,569.89L109.11,566.22L108.65,565.44L107.95,564.05L107.68,563.21L106.99,562.13L103.89,559.96L102.06,559.36L101.4,559.4L100.95,560.08L99.83,560.27L99.33,560.18L98.83,559.61L98.01,558.24L97.53,557.71L96.9,557.27L96.31,557.58L95.46,558.2L95.15,558.68L95.68,561.2L95.84,561.79L95.99,562.36L95.84,563.42L91.36,562.7L90.86,562.55L89.69,561.89L88.46,561.75L87.78,561.91L87.67,561.63L87.38,561.1L86.04,559.97L83.8,558.67L81.61,557.45L80.98,556.86L80.69,556.05L80.59,555.39L80.51,553.96L80.46,552.75L79.44,551.63L78.7,550.94L76.32,550.43L75.86,551.33L75.91,552.46L74.65,553.05L74.04,552.36L72.07,549.42L70.3,546.63L69.53,545.36L68.97,544.22L68.12,542.34L67.76,541.79L66.75,541.3L65.83,541.24L64.88,541.02L63.38,540.29L62.61,539.49L62.22,538.78L59.71,533.81L56.43,526.98L53.43,522.17L50.25,518.73L43.77,511.81L42,510.07L41.75,509.46L40.45,505.08L41.31,503.43L44,497.25L44.65,494.83L45.56,491.14L46.22,488.38L44.04,485.5L37.6,477.13L37.42,477.07L36.32,476.95L35.97,476.93L35.35,476.99L34.97,476.95L34.34,476.73L33.97,476.33L27.41,468.72L26.88,468.11L27.81,461.64L28.09,459.73L28.4,457.83L28.89,454.98L29.28,452.58L30.43,444.89z"/>
		<path id="SE-G" title="Kronoberg" class="land" d="M67.67,714.65L68.24,712.82L69.01,712.24L75.13,711.44L75.34,711.43L76.84,711.38L77.81,711.42L78.35,711.58L79.15,712.02L79.96,712.79L80.72,713.84L81.23,714.87L81.31,715.6L81.52,716.69L81.95,718.06L82.34,718.98L82.82,719.37L83.28,719.34L83.81,719.22L84.54,718.62L84.88,718.08L85.49,716.89L85.96,715.46L85.92,713.93L85.45,713.41L84.86,712.98L84.68,712.36L85.44,707L85.73,706.51L87.61,706.08L88.17,705.96L92.69,704.38L95.48,702.94L96.11,702.75L96.73,702.7L97.19,702.75L97.62,702.97L98.97,704.01L99.46,704.47L99.8,705.75L99.93,706.48L100.4,707.09L101.3,707.17L102.06,706.62L104.97,704.27L106.27,703.02L107.62,702.93L111.95,702.96L113.01,702.97L113.5,703.02L115.4,703.44L116.1,703.64L117.2,706.01L119.06,707.39L121.97,710.02L122.52,710.66L123.57,712.22L123.89,712.74L124.47,714.46L124.54,715.17L124.44,716.53L124.28,717.26L124.13,717.8L122.3,718.2L121.74,718.24L120.18,718.26L119.44,718.04L118.6,717.47L117.23,717.14L116.79,717.72L116.7,718.55L116.66,719.22L116.73,719.87L115.45,722.73L113.22,726.83L112.29,734.83L112.22,737.72L112.33,738.3L111.65,739.09L111.2,739.43L110.38,739.72L108.26,740.13L104.93,740.23L102.93,741.14L101.54,742.86L100.72,743.64L99.71,743.76L98.37,743.75L94.67,743.4L93.97,742.54L93.23,741.47L92.54,740.81L92.07,740.5L89.88,739.89L89.78,739.84L86.8,738.81L83.93,738.09L78.4,736.76L77.97,736.86L77.34,737.28L77.15,737.83L77.16,738.28L76.76,738.81L75.82,739.39L75.27,739.63L73.23,740.23L65.4,742.16L64.97,742.25L64.34,742.32L63.09,742.13L61.98,741.75L62.06,741.21L61.98,737.69L61.92,736.94L61.59,735.64L61.13,734.93L60.43,734.28L59.82,732.98L58.43,728.9L58.06,725.41L57.81,723.09L57.86,722.64L58.17,720.28L60.61,719.96L61.13,719.95L62.64,719.77L65.45,719.09L66.52,718.23L67.18,716.98L67.52,715.55z"/>
		<path id="SE-BD" title="Norrbotten" class="land" d="M250.32,0L250.94,0.54L252.15,1.22L254.64,2.16L255.89,2.73L257.34,3.57L257.87,4.08L258.34,4.63L258.99,5.51L259.51,6.43L259.62,6.78L259.78,7.52L259.77,7.92L259.58,8.39L259.16,8.9L258.46,9.9L258.31,10.82L258.3,11.23L258.45,11.94L258.63,12.27L258.86,12.53L259.16,12.78L259.94,13.16L260.32,13.26L261.15,13.31L262.05,13.45L262.95,13.75L263.55,14.24L266.89,17.67L267.12,17.94L272.51,24.64L273.25,27.04L273.36,27.37L273.7,27.99L274.28,28.48L274.63,28.7L275.94,29.18L276.86,29.4L277.28,29.59L277.86,30.07L278.38,30.57L279.94,32.14L280.16,32.4L280.27,32.75L280.18,33.19L280.17,33.61L280.38,34.29L280.83,34.84L281.41,35.32L281.83,35.5L282.78,35.78L283.19,35.8L284.24,35.56L284.68,35.64L285.1,35.82L286.07,36.88L286.75,37.7L287.76,39.17L287.92,39.47L288.41,40.39L288.74,41.01L288.82,41.75L288.93,42.09L289.15,42.37L289.51,42.59L291.8,43.35L292.24,43.43L297.65,43.49L299.19,44.35L301.03,45.17L303.19,46.1L305.25,46.44L305.62,46.56L309.58,48.91L309.74,49.21L310.64,51.1L311.59,52.95L311.87,53.19L312.56,53.62L313.43,53.94L315.51,55.65L315.79,55.9L316.01,56.18L318,60.2L318.19,60.89L318.31,61.58L318.49,64.21L321.56,66.28L322.02,66.44L322.36,66.65L322.79,67.2L322.94,67.52L323.29,68.5L323.41,69.19L323.51,69.84L323.58,70.59L323.95,71.92L324.2,72.57L324.66,73.49L328.29,77.02L331.11,79.44L331.38,79.68L331.6,79.95L331.84,80.59L331.87,80.97L331.83,81.41L331.67,81.86L331.49,82.25L331.27,82.6L330.3,83.7L330,83.85L328.65,84.22L327.74,84.67L327.25,85.22L327.11,85.68L327.01,86.11L326.69,88.93L326.66,89.34L327.22,96.62L327.66,99.89L326.71,107.45L325.69,111.9L325.6,112.32L325.57,113.01L325.63,113.72L326.09,114.62L326.5,115.16L326.78,115.4L327.11,115.61L327.46,115.73L327.77,115.58L328.18,114.93L328.42,114.66L328.75,114.56L329.62,114.79L333.66,116.44L334.37,116.84L334.53,117.12L334.56,117.49L334.93,122.88L334.9,123.28L334.67,124.1L334.05,125.81L333.84,126.13L333.57,126.34L332.95,126.58L332.29,126.76L331.04,127.23L330.75,127.38L330.47,127.59L330.24,127.86L329.95,128.75L329.74,129.52L329.31,134.5L329.34,134.86L329.58,135.48L332.24,142.27L333.56,144.91L333.91,145.48L334.26,146.02L335.05,146.73L337.15,150.12L338.97,153.28L339.11,153.56L339.34,154.18L340.69,158.24L340.87,158.89L340.83,159.27L340.65,159.51L340.34,159.58L339.29,159.68L339,159.81L337.85,162.33L337.75,162.74L337.78,163.09L338.04,164.78L338.09,166.93L337.81,173.5L337.69,174.27L337.6,174.68L337.45,175.12L337.28,175.49L337.01,175.69L336.09,176L335.57,176.41L333.4,178.85L331.85,181.21L331.65,181.52L331.47,181.9L331.33,182.33L331.16,183.13L331.13,183.5L331.7,190.96L331.73,191.29L331.85,191.95L332.33,194.5L333.24,198.32L333.32,198.63L333.47,198.92L333.67,199.18L334.18,199.63L335.6,200.63L335.91,200.83L336.65,201.17L337.07,201.32L337.48,201.39L337.84,201.57L338.35,202.02L338.69,202.57L338.83,202.86L339.08,203.78L339.3,205.09L339.81,206.97L341.49,210.36L344.9,222.03L345.07,222.64L345.12,223.32L345.07,223.7L344.71,224.25L344.48,224.5L343.86,224.68L343.47,224.59L342.8,224.21L342.04,224.09L341.73,224.18L339.5,225.62L339.39,225.96L339.3,226.36L339.16,226.77L339,227.13L338.77,227.37L338.46,227.32L334.69,225.07L334.66,224.75L331.52,224.19L327.93,224.55L325.73,227.14L324.66,226.7L320.84,224.55L320.64,224.3L319.78,226.21L317.97,230.09L317.72,230.28L316.38,231.1L309.72,223.62L309.65,222.96L309.56,222.64L308.7,220.97L306.93,219.05L305.67,218.01L304.85,217.79L304.65,217.97L304.69,218.3L304.98,218.87L305.44,219.34L305.64,219.59L305.78,219.86L305.87,220.16L306.44,224.12L305.92,226.93L305.73,227.23L305.51,227.5L305.26,227.7L304.96,227.79L305.03,227.39L305.16,226.96L305.18,226.61L305.01,226L303.9,224.8L300.48,221.31L299.74,220.99L298.88,220.77L297.74,220.68L297.43,220.79L297.27,221.01L296.51,222.69L294.63,231.6L294.4,235.35L295.02,235.66L295.24,235.76L295.46,235.77L295.76,235.52L296.18,236.28L296.31,235.85L296.33,235.5L296.18,235.21L295.99,234.96L295.69,234.41L295.4,233.59L295.31,233.27L295.47,233.06L295.84,233.22L296.35,233.65L298,235.59L299.01,240.06L299.08,240.71L299,241.12L298.82,241.42L298.54,241.56L298.23,241.37L297.84,240.89L297.49,240.36L294.21,238.88L293.27,238.79L289.92,236.97L284.22,233.17L283.96,232.95L283.76,232.71L283.61,232.44L283.25,231.21L283.1,230.94L281.66,229.59L281.5,229.94L281.54,230.28L281.82,231.19L283.27,233.26L283.68,233.74L283.94,233.95L288.41,237.56L289.34,238.12L290.89,238.51L291.14,238.73L293.08,240.92L292.95,241.21L292.71,241.4L292.16,241.7L289.24,242.7L287.82,242.94L287.49,242.83L285.42,242.11L285.16,241.9L284.96,241.65L284.84,241.44L284.65,241.47L284.1,241.76L283.92,241.9L284.07,242.16L285.2,244.02L285.55,244.53L285.86,244.73L286.22,244.74L285.77,243.37L285.84,243.12L286.15,243.3L287.27,244.46L288.62,246.21L288.65,246.53L288.28,248.35L288.1,248.65L285.95,250.28L279.25,250.72L278.89,250.71L278.5,250.64L278.19,250.44L277.99,250.21L277.55,249.38L277.29,249.17L276.9,249.12L275.79,249.65L273.92,251L273.77,251.37L274.53,252.99L274.77,253.67L275.51,254.76L275.75,254.8L276.71,255.56L276.93,255.29L276.99,254.91L276.9,254.61L276.96,254.45L277.57,254.82L277.83,255.03L279.82,257.03L280.02,257.28L280,257.63L279.91,258.36L279.76,258.73L278.94,259.8L278.69,260.01L276.93,260.61L276.33,260.8L276.02,260.61L275.88,260.34L275.69,259.75L275.61,259.08L274.44,257.33L273.78,255.8L273.66,255.65L270.33,252.08L269.97,251.94L269.7,252.08L268.43,253.89L268.28,254.12L268.43,254.38L269.88,255L270.3,255.12L272.42,256.1L274.75,259.73L275.88,261.57L276.17,262.11L277.61,265.15L277.79,265.74L277.83,266.07L277.81,266.42L276.82,271.4L276.65,271.72L276.35,271.8L275.5,271.65L270.86,267.73L267.82,265.57L265.11,265.17L262.36,264.82L261.37,264.68L258.25,264.03L256.69,263.4L250.11,260.43L248.14,259.49L245.45,258.05L239.88,255.14L235,252.82L233.69,252.24L232.47,252.08L231.77,252.89L229.23,256.31L227,259.5L225.71,261.45L225.08,262.58L224.68,263.47L224.16,264.26L223.68,264.9L221.51,266.51L220.87,266.84L219.14,266.81L215.18,262.28L215.04,262.01L214.94,261.71L214.89,261.4L214.89,260.98L215,260.24L214.91,259.59L214.62,259.09L214.38,258.82L213.21,257.71L212.75,257.29L211.92,256.73L208.78,254.93L205.82,253.09L203.77,251.8L203.46,251.57L202.75,250.97L202.33,250.51L202.12,249.91L198.11,247.92L196.82,247.6L196.11,247.35L195.77,247.17L189.57,242.99L189.31,242.8L188.87,242.34L188.23,241.28L187.9,240.37L186.95,239.2L186.28,239.06L185.51,238.99L184.65,239.24L180.05,238.02L173.72,235.3L171.83,233.24L170.36,231.62L167.07,227.46L164.52,224.64L160.51,220.58L157.02,216.95L154.84,214.42L152.96,212.69L151.03,211.16L149.76,210.33L147.26,209.59L146.17,209.33L141.5,208.47L139.38,206.59L137.76,205.28L133.18,201.88L122.72,194.23L121.09,193.41L116.66,191.51L114.67,190.69L113.45,185.06L112.68,181.45L112.45,180.23L116.81,175.06L119.4,171.89L122.18,166.62L129.55,152.83L138.64,144.27L140.01,134.41L139.83,133.42L138.83,129.33L138.2,127.76L136.21,124.7L135.11,123.03L134.69,122.52L133.56,121.26L132.95,120.46L132.22,119.35L132.04,119.07L131.66,118.12L131.58,117.77L131.55,117.43L134.36,111.35L134.73,111.23L139.39,110.27L139.94,109.28L142.72,103.8L144.35,100.49L144.53,99.89L144.82,98.73L145.67,95.25L147.38,88.27L148.49,83.58L160.68,74.35L161.9,72.11L162.38,71.23L162.94,70.1L171.36,74.39L172.85,75.49L173.68,76.18L175.35,77.57L176.9,79.01L177.37,79.52L177.67,79.75L178.38,80.11L179.07,80.32L180.54,76.65L185.71,65.87L186.23,64.74L184.87,56.58L184.4,53.94L183.96,51.32L183.54,48.69L183.34,47.38L183.66,45.19L184.29,41.53L184.53,40.31L184.76,40.23L186.08,39.77L191.59,38.05L198.3,42.65L207.29,41.75L219.47,46.66L222.92,48.08L227.5,50.01L231.29,51.64L232.29,52.25L232.96,52.59L233.33,52.53L233.6,52.29L233.83,52.02L234.03,51.66L234.36,50.82L235.15,49.41L235.77,48.41L236.24,47.82L236.98,47L239.39,44.91L239.62,44.61L240.22,43.55L240.49,42.61L240.55,42.15L237.3,40.75L233.82,37.7L236.64,34.88L239.66,30.25L240.32,29.14L241.27,27.02L243.27,22.42L244.23,20.09L243.29,9.72L241.29,6.76L237.53,1.33L249.12,0.29z"/>
		<path id="SE-E" title="Östergötland" class="land" d="M97.19,631.02l0.11,-0.23l2.05,-1.38l0.51,-0.24l0.8,-0.21l0.48,0.18l0.49,0.39l1.26,-0.78l0.53,-0.71l0.59,-1.79l0.18,-0.44l0.47,-0.81l1.17,-1.15l3.1,-2.67l0.97,0.08l0.47,0.35l0.93,0.77l1.48,0.79l0.58,0.07l2.54,-2.52l0.89,-0.96l0.13,-0.94l-0.19,-0.81l-0.09,-0.58l0.53,-0.61l1.73,-1.63l0.31,-0.06l4.76,-1.35l1.18,0.17l1.12,1.2l1.72,1.64l4.67,3.7l2.77,1.88l0.69,0.59l2.63,4.01l0.21,0.86l0.46,1.13l0.54,0.23l0.87,0.2l1.87,0.27h0.48l0.83,-0.08l0.97,0.14l2.34,0.79l0.56,0.24l0.55,0.7l0.34,1.18l-1.54,-0.4l-5.72,-0.94l-0.66,-0.1l-0.62,-0.07l-3.02,-0.21l-1.48,-0.08l-0.23,0.08l-1.06,1.8l2.63,0.7l2.04,0.42l1.09,-0.41l0.55,-1.24l0.11,-0.18l5.62,1.06l2.36,0.76l1.09,0.89l3.92,4.83l0.26,0.42l-2.75,1.97l-0.68,0.32l-1.45,0.46l-0.44,0.04l-3.63,-0.92l-1.37,-0.57l-0.9,-0.59l-1.03,-0.49l-1.32,0.03l-0.32,0.22l4.22,1.96l2.92,1.26l0.27,0.06l0.43,0.31l1.59,1.83l0.05,0.27l0.5,2.89l0.9,5.26l0.03,1.14l-2,8.18l-0.18,0.18l-2.76,1.08l-0.69,-0.75l-0.34,-0.57l-0.83,-2.75l-4.48,-1.71l-0.99,-0.33l-2.94,-0.38l-0.46,0.11l-0.67,0.43l-2.72,1.59l-3.13,1.12l-0.07,0.59l-0.07,1.36l0.53,4.79l0.14,0.57l0.93,2.04l-0.31,0.54l-3.28,2.59l-2.55,-0.03l-0.76,-0.26l-0.8,-0.94l-0.46,-0.33l-0.98,-0.43l-0.44,-0.05l-0.57,0.11l-1.76,0.59l-0.62,0.29l-3.6,5.73l-0.27,1.01l-1.36,-0.11l-3.99,-0.27l-1.13,0.16l-1.06,-0.03l-0.54,-0.54l-1.03,-2.22l-0.51,-1.46l-1.59,-5.85l0.07,-1.68l0.15,-0.47l0.42,-1.15l-0.66,-5.7l-0.2,-0.64l-1.44,-1.64h-0.51l-0.74,0.37l-0.04,1.26l-1.42,0.82l-1.75,0.14l-0.55,-0.29l-0.21,-0.47l-5.34,-0.49l-3.16,-0.28l-1.91,-0.24l-0.97,-0.29l0.34,-0.79l1.55,-4.26l0.94,-2.62l0.95,-2.17l1.36,-2.97l0.7,-1.5l1.18,-2.45l4.62,-9.08l0.57,-1.06L97.19,631.02z"/>
		<path id="SE-T" title="Örebro" class="land" d="M87.78,561.91L88.46,561.75L89.69,561.89L90.86,562.55L91.36,562.7L95.84,563.42L95.99,562.36L95.84,561.79L95.68,561.2L95.15,558.68L95.46,558.2L96.31,557.58L96.9,557.27L97.53,557.71L98.01,558.24L98.83,559.61L99.33,560.18L99.83,560.27L100.95,560.08L101.4,559.4L102.06,559.36L103.89,559.96L106.99,562.13L107.68,563.21L107.95,564.05L108.65,565.44L109.11,566.22L112.53,569.89L113.52,570.46L113.65,570.55L115.44,574.46L115.93,575.74L116.34,577.21L116.63,578.45L117.9,582L118.68,583.94L120.68,587.13L120.9,587.7L121.16,588.78L121.42,592.37L121.39,592.89L120.73,593.38L119.99,593.78L118.91,593.78L118.67,594.41L118.35,599.44L120.79,600.93L123.6,601.89L123.18,603.82L123.41,608.15L122.66,608.72L121.45,608.98L120.93,609.33L119.12,611.13L118.75,611.62L118.59,613.02L119.19,615.16L118.88,615.21L117.15,616.85L116.62,617.46L116.71,618.04L116.9,618.85L116.77,619.79L115.88,620.75L113.34,623.27L112.76,623.2L111.29,622.41L110.36,621.64L109.89,621.29L108.92,621.2L105.82,623.88L104.65,625.02L104.18,625.83L104.01,626.27L103.41,628.06L102.88,628.76L101.62,629.54L101.13,629.15L100.65,628.96L99.85,629.17L99.35,629.41L97.3,630.79L97.19,631.02L96.04,630.44L94.22,629.07L92.75,629.36L91.94,629.7L90.66,629.81L88.22,628.68L86.29,624.49L85.62,622.53L83.34,615.8L82.75,613.86L84.18,612.2L84.46,611.71L84.73,611.14L84.63,610.43L84.42,609.85L83.91,608.83L83.61,608.05L83.27,606.91L83.03,605.91L82.91,604.58L82.91,603.88L83.78,597.83L84.13,596.96L85.4,595.04L86.14,594.37L87.14,592.96L87.69,591.89L88.79,587.26L88.87,586.37L88.77,585.72L88.46,584.44L88.04,583.34L87.55,581.42L86.9,576.11L86.96,567.72L88.12,564.23L87.99,562.56z"/>
		<path id="SE-D" title="Södermanland" class="land" d="M163.29,600.45l-0.13,0.14l-0.92,2.05l-0.13,0.67l1.67,8.49l0.5,1.34l1.39,1.64l0.84,0.2h0.73l0.51,-0.1l1.86,-0.23l0.61,0.09l0.76,1.57l0.34,0.35l1.04,1.46l-0.04,0.31l-0.08,0.35l-1.13,2.68l-0.12,0.2l-0.26,-0.14l-0.43,-0.31l-2.23,2.51l-3.13,2.7l-2.08,0.78l-1.59,0.25l-1.43,-0.04l-1.67,-1.51l-0.27,-0.06l-1.34,0.66l-0.11,0.18l0.13,0.21l1.28,1l1.37,1.06l-2.63,3.3l-3.15,1.03l-0.26,0.04l-0.32,-0.03l-2.74,-0.35l-1.42,-0.27l-0.34,-1.18l-0.55,-0.7l-0.56,-0.24l-2.34,-0.79l-0.97,-0.14l-0.83,0.08h-0.48l-1.87,-0.27l-0.87,-0.2l-0.54,-0.23l-0.46,-1.13l-0.21,-0.86L136.1,623l-0.69,-0.59l-2.77,-1.88l-4.67,-3.7l-1.72,-1.64l-1.12,-1.2l-1.18,-0.17l-4.76,1.35l-0.6,-2.13l0.15,-1.41l0.37,-0.48l1.81,-1.8l0.51,-0.36l1.22,-0.26l0.75,-0.57l-0.23,-4.33l1.56,-0.22l0.55,-0.3l0.35,-1.06l0.08,-0.63l-0.06,-0.56l0.08,-0.69l1.91,-2.93l1.19,-0.99l0.59,-0.43l0.54,-0.23l0.88,0.3l1.78,0.17h0.53l0.59,-0.04l1.35,-0.27l0.64,-0.26l0.7,-1.35l0.04,-0.49l-0.21,-0.58l-0.08,-1.04v-1.27l0.4,-0.08l0.75,-0.33l0.24,-0.09l0.56,-0.07l8.57,-1.08l0.28,0.06l0.26,0.13l0.18,0.17l0.1,0.25l0.27,0.42l1.31,1.57l1.48,1.74l0.18,0.19l0.26,0.13l1.25,0.16l0.29,-0.01l0.24,-0.09l0.08,-0.35l0.03,-0.32l-0.05,-0.27l-0.18,-0.19l-0.62,-0.01l-0.3,-0.12l-0.23,-0.16l-0.88,-0.62l-0.44,-0.32l-1.73,-1.3l-0.76,-0.71l-0.13,-0.22l0.01,-0.25l3.58,-0.79l0.3,0.1l0.23,0.16l1.28,0.98l0.71,0.74l0.29,0.36l0.27,0.42l0.23,0.45l0.18,0.49l1.95,2l0.93,0.27l1.09,0.11l1.66,0.07l2.8,0.85l0.57,0.24l0.22,0.16l0.13,0.22l0.05,0.26l-0.04,0.33l-0.11,0.3l-0.15,0.22l-0.21,0.13l-0.27,0.06l-0.63,1.49l-0.32,1.09l0.05,0.56L163.29,600.45zM162.48,594.54l-0.67,-0.12l-2,-0.42l-0.22,-0.16l-2.03,-3.49l-0.01,-0.29l0.52,-0.03l1.61,0.17l2.26,0.36l0.55,0.16l0.26,0.13l0.35,0.37l0.95,1.5l0.05,0.26l-0.02,0.26l-0.2,0.2l-1.15,1.02L162.48,594.54z"/>
		<path id="SE-M" title="Skåne" class="land" d="M89.88,739.89L88.14,742.41L87.41,743.98L86.64,746.36L86.6,746.52L86.45,747.16L87.66,751.11L88.1,751.36L88.72,750.97L90.48,750.99L91.02,751.48L91.17,751.99L91.42,753.28L91.62,754.96L91.58,756.75L91.55,757.32L91.3,757.99L90.75,758.69L89.96,759.34L86.2,763.04L85.17,764.08L83.41,766.47L82.91,767.37L82.59,768.09L82.18,769.09L81.93,769.92L81.8,770.52L81.74,770.85L81.64,771.46L81.55,772.07L81.48,773.25L81.49,773.73L81.52,773.99L81.62,774.46L81.81,774.87L82.19,775.44L83.76,777.66L85.46,780.87L86.04,782.11L86.22,782.54L86.29,782.77L86.19,783.05L86,783.47L85.34,784.48L84.7,785.15L81.55,789.82L80.75,790.09L79.68,790.13L78,789.82L77.43,789.67L76.57,788.91L75.63,788.2L74.75,787.72L74.11,787.6L73.57,787.62L69.32,787.99L68.79,788.06L66.97,788.37L66.72,788.44L63.17,790L62.33,790.4L61.37,791.19L61.07,791.38L59.94,791.96L59.13,792L57.97,791.92L57.68,791.87L49.55,789.15L47.85,782.73L47.81,782.47L47.76,781.63L47.77,781.47L47.81,781.35L47.97,781.05L48.2,780.75L48.97,780.28L49.54,779.91L50.94,778.75L51.09,778.58L51.21,778.35L51.57,776.94L51.69,776.03L51.67,775.9L51.6,775.52L48.12,769.43L47.71,768.72L41.6,758.18L41.13,757.39L40.35,756.24L40.08,756.02L39.85,755.94L39.71,755.83L38.95,754.41L38.86,754.22L36.16,747.62L37.53,747.71L40.22,748.86L40.65,749.12L42.59,750.57L44.4,750.6L44.59,750.56L44.79,750.44L45.09,750.1L45.37,749.67L45.53,749.28L45.57,749.17L45.65,748.9L45.66,748.61L45.61,748.37L43.17,744.42L42.9,744.08L42.72,743.91L41.46,743.11L41.14,743.08L40.63,742.87L40.42,742.73L40.14,742.37L40.05,742.15L40.04,741.58L40.15,740.97L40.21,740.65L40.29,740.38L40.39,740.13L40.54,739.95L41.37,739.11L41.56,738.98L42.67,738.93L42.95,738.93L43.39,739.06L44.36,739.75L44.56,739.87L45.06,740.08L45.6,740.25L46.13,740.24L47.02,740.57L48.27,741.15L48.75,741.42L48.7,741.84L48.68,742.85L48.7,744.21L48.77,744.67L49.39,745L50.07,745.13L53.92,745.42L56.62,744.65L57.28,744.04L61.23,742.04L61.98,741.75L63.09,742.13L64.34,742.32L64.97,742.25L65.4,742.16L73.23,740.23L75.27,739.63L75.82,739.39L76.76,738.81L77.16,738.28L77.15,737.83L77.34,737.28L77.97,736.86L78.4,736.76L83.93,738.09L86.8,738.81L89.78,739.84z"/>
		<path id="SE-AB" title="Stockholm" class="land" d="M196.06,602.3l-0.32,-0.04l-0.3,-0.1l-1.81,-1.43l-0.18,-0.19l-1.04,-1.42l0.07,-0.29l1.97,-0.13l0.32,0.04l0.42,0.06l0.23,0.1l2.6,1.62l0.22,0.17l-1.01,1.13l-0.22,0.13l-0.7,0.3L196.06,602.3zM192.1,612.77l-0.32,-0.04l-0.13,-0.21l-0.08,-0.24l-0.01,-0.3l1.05,-2.35l0.27,-0.51l0.16,-0.21l0.81,-1.07l0.17,-0.11l0.24,-0.09l0.26,-0.04l0.25,0.03l0.33,0.88l-0.03,0.24l-1.75,3.16l-0.48,0.64L192.1,612.77zM174.37,618.65l-0.28,-0.06l-0.51,-0.55l-0.13,-0.21l-0.18,-0.48l-0.62,-1.83l-0.05,-0.27v-0.28l0.07,-0.64l0.49,-2.59l0.19,-0.64l0.21,-0.13l0.17,0.18l0.37,0.58l0.57,1.11l0.1,0.53l-0.04,0.31l-0.11,0.31l-0.32,0.43l-0.21,0.6l-0.15,1.26l-0.07,1.22l0.01,0.28l0.09,0.23L174.37,618.65zM171.29,580.71l4.03,2.55l0.4,0.35l0.27,0.74l0.51,1.76l-0.04,0.33l-1.26,4.29l-0.16,0.22h-0.29l-4.44,-2.38l-0.21,-0.16l-0.49,-0.59l-0.13,-0.22l-0.03,-0.16l-0.02,-0.1l0.11,-0.3l0.62,-0.99l0.6,0.16l0.35,-0.42l-0.07,-0.55l-0.95,-1.07l0.08,-0.02l-0.01,-0.29l-0.43,-1.15l0.23,-0.57l0.4,-0.58L171.29,580.71zM176.26,597.89l-0.62,-0.04l-0.87,-0.34l-0.92,-0.62l-0.4,-0.34l-0.26,-0.43l-1.17,-2.83l-0.32,-0.98l0.13,-0.26l0.21,-0.14l0.24,-0.09h0.29l0.31,0.1l2.3,1.6l0.18,0.19l0.79,0.88l0.09,0.25l0.32,2.41v0.29l-0.06,0.27L176.26,597.89zM177.31,599.48l-1.57,-0.16l-2.01,-0.46l-0.61,-0.21l-0.26,-0.13l-0.26,-0.14l-0.43,-0.32l-0.32,-0.4l-2.39,-4.86l-0.04,-0.26l0.04,-0.33l0.09,-0.23l0.21,-0.13l0.2,-0.07l0.83,-0.1l1.38,2.59l0.18,0.47l0.19,1.06l0.01,0.3l-0.04,0.32l0.01,0.59l0.04,0.26l0.26,0.14l2.3,1.12L177.31,599.48zM195.54,553.72l0.64,-0.02l2.5,0.38l0.35,0.09l1.9,0.85l1.73,0.91l1.05,0.76l-0.04,0.32v0.6l0.04,0.26l0.18,0.79l1.68,5.07l0.18,0.5l0.31,0.7l0.13,0.22l0.53,0.58l0.54,0.23h0.36l1.15,0.4l1.01,0.72l0.66,0.5l-0.01,2.69l-0.04,0.32l-0.07,0.28l-0.17,0.22l-0.23,0.01l-0.26,-0.13l-0.39,-0.37l-1.5,-1.75l-0.88,-0.23l-1.89,3.78l2.75,0.76l2.78,0.5l0.18,0.19l0.04,0.28l-0.01,0.29l-0.18,1l-0.14,0.25l-1,0.83l-1.08,0.17h-0.3l-0.7,-0.17l-2.97,0.39l-2.53,1.22l-0.75,0.93l-0.6,1.36l0.15,0.14l0.27,-0.04l0.48,-0.17h0.3l0.12,0.22l-0.28,0.52l-1.79,2.14l-0.55,0.56l-7.06,5.88l-0.26,0.06l-1.35,-0.38l-0.99,-0.16l-0.24,0.09l-0.29,1.4v0.17l0.45,1.4l0.13,0.22l0.18,0.19l0.3,0.12l0.7,0.17l0.26,0.13l0.04,0.27l-0.16,0.22l-0.24,0.09h-0.29l-3.6,-0.76l-0.26,-0.13l-0.13,-0.22l0.07,-0.27l0.38,-0.36h0.29l0.26,0.14l0.15,-0.31l-0.12,-0.77l-0.03,-0.16l-0.06,-0.5l-0.23,-0.09l-1.65,0.12l-0.23,0.09l-0.68,0.82l-1.14,2.3l1.12,1.32l0.07,1.7l-3.97,-0.06l-0.32,-0.04l-0.3,-0.11l-0.52,-0.27l-1.02,-0.63l-0.7,-0.46l-0.44,-0.32l-0.39,-0.35l-0.49,-0.59l-0.48,-0.59l-0.18,-0.49l-0.01,-0.59l0.04,-0.32l0.56,-3.01l0.19,-0.66l0.11,-0.3l0.28,-0.55l0.38,-0.36l0.67,-0.35l0.1,-0.25l-0.59,-2.49l-0.18,-0.49l-0.18,-0.19l-1.51,-2.33l-0.32,-1.32l0.39,-0.08l3.77,-1.23l1.15,-0.52l0.54,-0.29l2.96,-1.61l0.46,-0.48l0.7,-1.92l1.02,-0.74l3.59,-2.08l1.07,-0.58l0.66,-0.23l0.46,-0.75l1.97,-6.71l1.58,-7.69L195.54,553.72zM163.29,600.45l0.13,0.09l1.94,0.44l0.28,0.06l0.32,0.03l0.27,-0.04l-0.05,-0.26l-0.26,-0.43l-0.18,-0.19l-0.4,-0.65l-0.14,-0.5l-0.1,-0.53l-0.15,-1.09l0.04,-0.32l0.29,-0.01l1.35,0.65l0.79,0.39l0.74,0.43l3.04,0.73l4.08,0.66l2.83,0.26l1.61,-1.69l0.86,-1l0.18,-0.17l0.76,-0.59l0.21,-0.13l0.32,0.04l0.53,0.56l0.26,0.13l0.69,0.17l0.59,-0.01l1.56,-0.07l1.94,-0.59l0.93,-0.91l0.23,-0.38l0.56,-0.52l0.21,-0.13l0.24,-0.09l1.56,-0.24l1.15,0.24l0.3,0.1l0.95,0.6l0.13,0.21l-0.09,0.31l-0.11,0.1l-0.13,0.08l0.08,0.25l0.52,0.27l0.32,0.04l0.2,-0.22l0.12,-0.3l-0.01,-0.29l-0.26,-1.02l-0.48,-1.48l-0.5,-1.4l-0.09,-0.25v-0.29l0.17,-0.12l1.13,-0.09l0.56,0.25l0.65,0.49l0.18,0.19l2.06,2.36l0.13,0.2l0.73,1.51l0.22,0.75l0.04,0.27l-0.09,0.34l-0.19,0.17l-0.24,0.09l-0.99,0.3l-1.87,0.3l-2.88,-0.26l-0.96,-0.09l-0.62,-0.16l-0.98,4.62l1.55,3.8l-1.69,0.5l-2.14,0.71l-0.23,0.08l-2.14,1.34l-3.14,2.51l-3.32,6.77l-0.08,0.34l-0.04,0.33l0.01,1.15l0.07,0.78l-2.78,-4.3l-0.87,-3.85l0.32,-4.02l-0.01,-0.87l-0.04,-0.27l-0.05,-0.26l-0.15,-0.14l-2.39,-2.04l-0.13,-0.1l-1.05,4.82l-0.33,1.74l-0.04,0.31l0.05,0.26l0.13,0.21l0.22,0.46l0.09,0.24l-0.4,1.89l-0.93,1.24l-0.76,-1.57l-0.61,-0.09l-1.86,0.23l-0.51,0.1h-0.73l-0.84,-0.2l-1.39,-1.64l-0.5,-1.34l-1.67,-8.49l0.13,-0.67l0.92,-2.05L163.29,600.45zM197.06,590.7l-0.32,-0.04l-0.7,-1.05l-0.13,-0.22l-0.04,-0.56v-0.3l0.07,-0.27l0.16,-0.22l1.09,-1.43l1.07,-1.05l0.6,-0.48l0.26,-0.04l2.52,0.43l0.21,0.17l-0.38,0.35l-0.21,0.13l-0.24,0.09l-1.25,0.39l-2.03,1.33l-0.07,0.29l0.04,0.26l0.44,1.21l-0.04,0.32l-0.57,0.53l-0.21,0.13L197.06,590.7z"/>
		<path id="SE-C" title="Uppsala" class="land" d="M165.67,528.82l0.54,-0.55l0.23,-0.13l3.02,-0.61l0.92,-0.01l0.61,0.18l0.81,0.42l0.7,0.73l0.37,0.39l0.19,0.51l-0.14,0.27l-0.2,0.18l-0.92,0.51l-0.19,0.19l0.01,0.3l0.14,1.01l0.05,0.28l0.52,1.52l0.14,0.22l0.5,0.61l0.23,0.16l0.54,0.28l0.27,0.13l1.01,0.24l0.25,-0.1l-0.01,-0.3l-0.14,-0.52l-0.19,-0.51l-0.04,-0.27l-0.01,-0.61l0.09,-0.36l0.11,-0.33l1.06,-1.27l1.83,-1.01l1.01,-0.37l0.28,-0.04l1.22,-0.02l0.33,0.04l0.23,0.16l0.18,0.19l0.14,0.22l0.6,1.48l2.82,5.67l2.85,5.42l1.55,0.34l0.17,-0.22l0.25,-0.1l0.83,-0.13l3.12,0.53l0.22,0.16l0.18,0.5l0.49,1.7l2.86,2.63l0.71,0.47l0.18,0.21l-0.04,0.32l-0.2,0.18l-0.49,0.18h-0.61l-0.68,-0.13l-1.59,-0.43l-0.58,-0.25l-0.22,-0.16l-0.4,-0.37l-0.98,-0.92l-0.36,-0.38l-0.54,-0.89l-0.76,-1.06l-0.27,-0.13l-0.04,0.33l0.01,0.31l2.17,4.96l0.68,1.11l2.27,1.83l0.02,0.77l-1.58,7.69l-1.97,6.71l-0.46,0.75l-0.66,0.23l-1.07,0.58l-3.59,2.08l-1.02,0.74l-0.7,1.92l-0.46,0.48l-2.96,1.61l-0.54,0.29l-1.15,0.52l-3.77,1.23l-0.39,0.08l-0.31,-1.52l-0.09,-0.25l-0.17,-0.07l-0.13,0.26l-0.22,0.61l0.1,0.54l0.05,0.15l-1.31,-0.83l-0.2,0.16l0.02,-1.88l-0.6,-3.46l-0.09,-0.25l-0.9,-0.95l-0.17,0.12l-2.42,3.91l-1.28,2.18l-0.08,0.64l1.74,4.64l0.27,0.42l0.18,0.19l0.22,0.17l0.19,-0.04l0.95,1.07l0.07,0.55l-0.35,0.42l-0.6,-0.16l-1.21,-0.14l-0.26,-0.14l-1.15,-0.77l-0.22,-0.16l-1.61,-2.32l-0.13,-0.22l-0.05,-0.28l-0.01,-0.29l0.41,-1.64l-0.07,-0.2l-0.21,0.15l-0.83,1.54l0.24,0.87l0.46,1.2l0.86,1.55l0.09,0.25l0.05,0.27l0.28,2.63l0.01,0.29l-0.04,0.32l-0.21,0.62h-0.29l-1.94,-0.98l-1.68,-0.85l-0.18,-0.19l-1.85,-1.59l-1.8,-0.48l-1.3,0.22l-0.16,0.22l-0.81,0.16l-0.32,-0.04l-1.83,-0.33l-0.26,-0.13l-1.98,-2.01l-0.77,-4.77l-0.28,-0.81l-1.23,-2.27l-0.71,-0.47l-0.78,-0.9l-0.01,-0.54l0.35,-0.87l1.38,-2.62l1.53,-0.69l2.22,-0.51l0.47,0.07l1.42,1.44l0.52,0.16l1.03,-1.04l0.63,-1.05l0.41,-1.12l0.03,-2.89l2.33,-3.12l2.06,-1.42l0.46,-0.47l0.48,-0.81l0.51,-2.81l0.12,-0.91l0.61,-5.02l-0.63,-0.41l-1.77,-0.81l-0.52,-0.59l-1.24,-1.89l-0.17,-0.32l-0.1,-0.19l0.06,-0.67l0.17,-0.83l0.13,-0.8l0.11,-0.5l-0.15,-0.75l-0.54,-0.88l0.15,-0.56l0.34,-0.4l0.41,-0.49l0.44,-0.62l0.54,-0.41l0.14,-0.11l0.66,-0.29l0.33,-0.48l0.15,-0.59l0.32,-1.44l1.04,-4.02l0.15,-0.95l0.29,-1.09L165.67,528.82zM171.29,580.71l-0.96,0.85l-0.4,0.58l-0.23,0.57l-0.21,-0.54l-0.16,-1.41l-0.06,-0.86l-0.12,-1.73l-0.01,-0.29l0.04,-0.32l0.08,-0.36l0.65,-1.35l1.36,-0.25h0.29l0.31,0.1l0.18,0.19l0.05,0.26l-0.11,1.61l-0.43,1.34l-0.28,0.56L171.29,580.71zM196.97,545.61l-0.33,-0.04l-0.74,-0.52l-0.22,-0.18l-2.95,-2.46l-0.18,-0.5l-0.04,-0.27l-0.28,-1.96l-0.27,-4.16l0.07,-0.3l0.17,-0.22l0.25,-0.09l0.5,0.31l0.36,0.7l0.89,3.17l1.35,4.24l0.79,0.3l0.94,1.55l-0.07,0.3L196.97,545.61z"/>
		<path id="SE-AC" title="Västerbotten" class="land" d="M114.67,190.69l1.99,0.82l4.43,1.9l1.64,0.82l10.46,7.65l4.58,3.4l1.62,1.3l2.11,1.88l4.67,0.87l1.09,0.25l2.5,0.74l1.27,0.83l1.93,1.53l1.88,1.73l2.18,2.53l3.49,3.63l4.01,4.06l2.55,2.82l3.29,4.15l1.48,1.62l1.89,2.06l6.33,2.72l4.59,1.22l0.86,-0.25l0.78,0.07l0.67,0.13l0.95,1.18l0.32,0.9l0.64,1.06l0.44,0.46l0.26,0.19l6.21,4.17l0.34,0.19l0.71,0.25l1.29,0.32l4.01,1.98l0.21,0.61l0.43,0.46l0.71,0.6l0.31,0.23l2.05,1.29l2.96,1.84l3.15,1.8l0.83,0.57l0.46,0.41l1.16,1.12l0.24,0.27l0.29,0.5l0.09,0.65l-0.1,0.74v0.42l0.05,0.31l0.1,0.31l0.15,0.27l3.96,4.53l1.72,0.03l0.64,-0.33l2.17,-1.6l0.48,-0.65l0.51,-0.79l0.4,-0.89l0.63,-1.14l1.28,-1.94l2.24,-3.19l2.53,-3.42l0.7,-0.81l1.22,0.16l1.31,0.58l4.87,2.32l5.58,2.91l2.69,1.44l1.97,0.95l6.58,2.97l1.56,0.63l3.13,0.65l0.98,0.14l2.75,0.35l2.71,0.4l3.05,2.16l4.63,3.92l-1.04,-0.15l-0.29,0.09l-0.27,0.16l-0.12,0.42l-0.02,0.35l0.08,0.66l0.25,0.21l-2.62,3.71l-1.46,0.99l-0.65,0.09l-1.21,0.31l-0.29,0.1l-1.02,3.49l0.04,0.33l0.06,1.48l-0.68,2.02l-1.36,0.69l-0.23,0.05l-0.36,-0.14l-0.31,-0.19l-0.15,-0.26l-0.18,-0.58l0.03,-0.71l-0.1,-0.29l-0.25,-0.21l-0.33,0.04l-0.41,0.5l-0.15,0.36l-0.07,0.38l-0.02,0.71l0.09,0.29l0.15,0.28l0.99,1.65l0.2,0.24l0.2,0.22l0.25,0.21l0.49,0.12l0.23,0.04l0.67,-0.02l1.47,-0.45l0.38,0.05l0.76,0.27l0.91,0.53l0.25,0.21l0.15,0.26l0.08,0.65l-0.15,5.49l-0.4,-0.12l-0.3,-0.17l-0.26,-0.21l-0.79,-0.94l-2.03,-2.32l-0.48,-0.1l-0.2,-0.06l-0.38,0.05l-0.44,0.11l-0.02,0.36l0.2,1.6l0.18,0.6l0.4,0.46l3.63,3.61l2.26,1.5l0.12,-0.39l0.15,-0.36l0.17,-0.14l2.43,1.83l2.35,2.65l-0.07,0.24l-0.23,0.19l-0.5,0.34l-0.29,0.09l-2.58,-0.49l-1.36,-0.49l-0.35,-0.14l-0.18,0.15l0.14,0.27l0.68,0.99l0.19,0.24l0.25,0.2l2.54,1.41l2.58,0.36l0.25,0.2l0.19,0.24l0.09,0.29l0.12,0.97l-0.05,0.46l-3.94,4.97l-1.78,1.57l-1.81,1.54l-0.23,0.19l-0.72,0.52l-0.26,0.15l-0.23,0.05l-0.2,-0.22l-0.04,-0.32l-0.09,-0.29l-0.32,-0.1l-0.21,0.25l-6.96,9.56l-0.37,0.55l-0.09,0.32l-1.3,5.12l-0.25,2.83l-2.69,6.98l-0.43,1.03l-0.2,0.25l-1.1,1.01l-1.55,1.06l-1.48,0.83l-2.09,1.03l-0.71,-1.26l-0.22,-0.15l-0.15,0.22l-1.23,3.63l-0.79,3.61l-0.11,0.4l-0.7,1.01l-2.33,1.65l-0.92,-1.16l-4.33,0.6l-2.33,1.19l-2.97,1.58l-0.17,0.17l-3.11,4.33l-0.69,0.99l-0.05,0.36l0.04,0.31l0.14,0.25l0.2,0.23l0.19,0.56l0.27,1.49l-0.17,0.29l-1.79,1.51l-0.58,0.13l-0.4,-0.1l-0.71,-0.66l-0.14,-0.25l0.11,-0.74l0.08,-0.31l0.01,-0.33l-0.1,-0.28l-0.62,-1.18l-3.03,-3.24l-0.69,-0.61l-0.32,-0.08l-0.28,0.1l-0.66,0.59l-0.14,0.21l0.04,0.31l1.3,5.17l-0.7,0.75l-2.15,0.31l-0.37,-0.02l-0.88,-0.82l-0.15,-0.25l-0.09,-0.61l-0.24,-1.4l-0.29,-0.77l-4.06,-7.57l-5.18,-7.69l-1.11,-1.14l-0.93,0.38l-0.54,-0.02l-0.79,-0.23l-7.05,-2.81l-0.54,-0.23l-0.54,-0.33l-0.55,-0.48l-0.43,-0.7l-0.59,-1.8l-0.16,-0.55l-0.15,-1.23l0.09,-0.82l0.32,-0.6l0.43,-1.07l-0.07,-0.65l-0.18,-0.65l-0.5,-0.38l-0.54,-0.27l-0.9,0.12l-1.6,0.55l-9.6,4.5l-4.07,1.57l-4.39,-0.25l-4.17,-0.38l-4.84,-0.73l-1.51,-0.27l-2.83,-0.62l-4.06,-0.85l-3.24,-0.45l-0.61,-0.4l-2.4,-2.47l-0.89,-1.25l-2.8,-3.33l-2.26,-2.58l-7.86,-8.88l-0.9,-0.1l-1.79,0.37l-0.7,0.27l-1.15,0.1l-0.64,-0.12l-0.07,-1.05l-0.27,-2.68l-0.39,-1.15l-2.3,-1.56l-2.31,-1.58l-5.71,-4.24l-1.12,-2.86l-0.35,-1.33l-0.42,-0.82l-0.95,-1.48l-1.37,-1.35l-0.66,-0.48l-2.25,-3.71l-0.49,-1.4l-3.69,-3.55l-0.56,-0.46l-2.2,-1.01l-0.53,-0.39l-0.37,-0.6l-0.48,-1.19l-0.22,-1.29l-0.53,-0.91l-6.53,-7.32l-3.62,-3.24l-1.6,-1.07l-5.14,-5.05l-1.49,-1.68l0.33,-0.82l0.28,-0.93l0.26,-1.24l0.71,-3.7l0.34,-2.4l3.28,-4.22l0.04,-2.86l-0.02,-1.11l0.04,-4.44l0.05,-4.43l0.09,-4.45l0.84,-7.06l0.07,-0.43l0.12,-0.39l0.68,-1.77l0.6,-1.32l0.42,-1.05l0.46,-1.54l0.27,-1.25l0.08,-0.66l-0.68,-3.19l-0.76,-3.54l-0.29,-1.19l-0.76,-3.76l-0.15,-1.15l-0.41,-3.49l-0.26,-2.33l-0.11,-1.16l5.62,-0.53l6.97,-0.56l1.16,-0.05l11.7,-8.76L114.67,190.69z"/>
		<path id="SE-O" title="Västra Götaland" class="land" d="M12.88,667.6l-0.25,0.08l-0.27,-0.04l-1.23,-0.81l-0.15,-0.19l-0.12,-1.43l-0.22,-0.45l-0.3,-0.86l-0.03,-0.29l0.02,-0.93l0.1,-0.26l0.49,-0.55l0.25,-0.07l5.44,0.37l0.14,0.56l0.03,0.28l-0.14,1.02l-0.07,0.29l-0.13,0.23l-0.17,0.18l-1.67,1.63l-0.35,0.33L12.88,667.6zM18.48,658.23l-0.16,0.18l-2.26,0.79l-1.01,0.11l-1.37,-0.43l-0.03,-0.28l-0.45,-0.28l-0.62,-0.01l-0.79,0.18l-2.27,0.69l-0.04,0.28l-0.06,1.21l0.04,0.28l-0.27,-0.32l-0.11,-0.22l-1.31,-2.66l0.04,-0.33l0.21,-0.53l6.83,-6.86l0.23,-0.11l0.83,0.04l0.34,0.06l0.4,0.15l1.32,1.81l0.62,1.06l0.07,0.26l0.03,0.28l0.06,2.08l-0.03,1.24l-0.1,0.68L18.48,658.23zM30.13,604.58l4.65,3.39l0.57,0.21l2.92,0.19l0.35,-0.57l0.02,-1.13l0.2,-0.71l0.53,-0.23l1.17,0.16l0.79,0.47l0.56,0.63l2.83,7.28l0.25,0.8l1.26,4.61l0.1,0.58l0.21,1.5l0.44,1.66l0.61,1.15l2.11,1.17l2.36,1.29l4.04,2.05l0.61,0.01l1.42,-0.44l1.63,-0.71l0.81,-0.49l-0.38,-0.59l-0.79,-1.02l-0.59,-1.37l0.01,-0.48l0.12,-0.76l0.47,-2.08l0.42,-1.6l0.14,-0.51l0.66,-2.36l0.21,-0.53l0.23,-0.44l0.86,-0.95l0.73,-0.74l2.38,-2.18l1.57,-0.04l3.13,0.03l3.12,0.26l4.73,0.04l0.53,-0.1l0.65,-0.07l0.46,0.09l2.13,0.55l0.71,0.46l0.56,0.55l0.13,0.26l0.59,1.94l2.28,6.74l0.67,1.95l1.93,4.19l2.44,1.13l1.28,-0.11l0.81,-0.34l1.48,-0.28l1.81,1.37l1.16,0.58l-0.47,0.86l-0.57,1.06l-4.62,9.08l-1.18,2.45l-0.7,1.5l-1.36,2.97l-0.95,2.17l-0.94,2.62l-1.55,4.26l-0.34,0.79l-0.11,0.39l-0.77,1.76l-2.33,5.26l-1.41,2.79l-0.55,1.06l-3.57,4.88l-0.59,-0.23l-0.79,-0.95l-1.17,-1.09l-1.12,0.4l-0.48,0.22l-0.47,0.55l-0.83,0.03l-1.17,-0.58l-0.1,-0.08l-0.01,1.32l-0.05,0.56l-0.21,1.68l-1.01,6.37l-0.56,3.18l-0.24,0.96l-0.29,0.79l-3.47,5.6l-3.71,3.71l-1.85,1.04l-2.83,3.39l-0.68,1.29l-1.97,3.24l-0.8,0.83l-0.11,-0.28l-1.31,-1.35l-2.68,-2.26l-5.98,-5.03l-1.17,-0.35l-2.17,0.34l-1.52,1.22l-0.18,0.51l-0.25,0.53l-1.5,0.49l-0.53,-0.07l-0.78,-2.11l-0.19,-0.56l-0.08,-0.56l0.04,-0.65l0.1,-0.9l0.4,-0.64l0.04,-0.88l-0.01,-0.5l-2.1,-7.14l-1,-0.96l-0.37,-0.38l-0.65,0.19l-0.65,0.55l-0.84,0.55l-1.16,0.63l-1.01,0.53l-0.8,0.23l-0.59,-0.07l-0.62,-0.12l-1.12,-0.46l-0.62,-0.04l-0.72,0.06l0.06,-0.1l0.07,-0.29l0.17,-1.45l-0.23,-2.45l-0.07,-0.25l-0.11,-0.23l-0.23,-0.05l-0.08,0.3l-0.02,0.34l-0.09,0.3l-0.17,0.16l-0.23,0.07l-0.27,-0.11l-0.92,-2.89l1.02,-0.95l0.51,-0.66l-3.63,0.25l-0.24,0.01l-0.98,-0.23l-0.15,-0.19l0.02,-0.92l0.62,-4.52l-1.45,-1.91l0.53,-1.78l0.16,-0.18l0.21,-0.1l0.25,-0.1l0.79,-0.15l0.42,-0.25l1.01,-5.41l0.15,-1.01l-0.02,-0.58l-0.04,-0.29l-0.15,-0.21l-0.45,-0.25v-0.31l0.51,-1.79l1.09,-2.97l0.87,-1.82l0.28,-0.44l0.1,-0.26l0.04,-0.33l-2.16,-4.54l-0.46,-0.79l-1.37,-0.5l-0.31,-0.03l-2.66,2.65l-0.4,0.67l-0.34,0.38l-1.55,1.25l-0.26,-0.01l-0.28,-0.07l-0.54,-0.21l-0.12,-0.22l0.01,-0.31l0.52,-2.35l0.07,-0.31l0.12,-0.25l1.38,-2.61l1.06,-1.84l-1.59,-0.22l-0.51,2.56l-0.26,0.88l-0.24,0.47l-0.54,0.91l-0.29,0.4l-0.26,0.32l-0.55,0.49l-1.19,0.83l-0.18,0.1l-2.31,-4.52l-1.92,0.11l-0.98,-2.64l0.9,-5.33l0.49,-2.32l0.08,-0.29l0.24,-1.14l-0.14,-2.67l-0.04,-0.28l-0.19,-0.78l-0.12,-0.22l-0.99,-1.13l-0.78,-1.5l-0.07,-0.24l-0.03,-0.86l0.12,-0.86l0.51,-1.13l0.45,-0.72l0.29,-0.41l0.12,-0.24l0.06,-0.34l-0.08,-1.5l-0.04,-0.62l-0.98,-3.69l-0.73,-0.36l-0.92,-0.55l-0.23,-0.16l-0.19,-0.16L0,616.32l0.17,-2.74l0.15,-0.63l0.22,-0.54l1.03,-1.95l0.16,-0.21l0.37,-0.33l0.46,-0.23l1.62,-0.74l1.31,-0.38l0.26,0.11l0.35,0.37l0.31,0.39l0.62,1.72l0.75,1.95l0.47,1.18l0.2,0.2l0.06,-0.09l-0.16,3.12l-0.01,0.33l0.06,0.88l0.03,0.3l0.04,0.21l0.11,0.23l0.19,0.17l0.31,0.07l0.32,0.01l0.89,-0.06l2.36,-0.61l0.37,-0.13l0.57,-0.28l0.14,-0.23l3.29,-9.27l0.05,-0.36l-0.03,-0.29l-0.15,-0.51l-0.11,-0.24l-0.07,-0.26v-0.24l0.3,-2.43l0.1,-0.7l0.12,-0.66l0.15,-0.56l0.13,-0.3l1.56,0.55l4.66,1.44l0.65,-0.09l-0.01,-0.8l-0.06,-0.77l-0.05,-0.41l0.13,-0.7l4.01,-0.16l0.46,0.42l0.67,1.56L30.13,604.58z"/>
		<path id="SE-S" title="Värmland" class="land" d="M40.45,505.08L41.75,509.46L42,510.07L43.77,511.81L50.25,518.73L53.43,522.17L56.43,526.98L59.71,533.81L62.22,538.78L62.61,539.49L63.38,540.29L64.88,541.02L65.83,541.24L66.75,541.3L67.76,541.79L68.12,542.34L68.97,544.22L69.53,545.36L70.3,546.63L72.07,549.42L74.04,552.36L74.65,553.05L75.91,552.46L75.86,551.33L76.32,550.43L78.7,550.94L79.44,551.63L80.46,552.75L80.51,553.96L80.59,555.39L80.69,556.05L80.98,556.86L81.61,557.45L83.8,558.67L86.04,559.97L87.38,561.1L87.67,561.63L87.78,561.91L87.99,562.56L88.12,564.23L86.96,567.72L86.9,576.11L87.55,581.42L88.04,583.34L88.46,584.44L88.77,585.72L88.87,586.37L88.79,587.26L87.69,591.89L87.14,592.96L86.14,594.37L85.4,595.04L84.13,596.96L83.78,597.83L82.91,603.88L82.91,604.58L83.03,605.91L83.27,606.91L83.61,608.05L83.91,608.83L84.42,609.85L84.63,610.43L84.73,611.14L84.46,611.71L84.18,612.2L82.75,613.86L82.61,613.59L82.06,613.04L81.34,612.58L79.21,612.03L78.76,611.94L78.11,612.01L77.59,612.11L72.86,612.07L69.74,611.81L66.61,611.79L65.04,611.83L62.66,614.01L61.93,614.75L61.07,615.7L60.84,616.14L60.64,616.66L59.98,619.02L59.84,619.53L59.42,621.13L58.95,623.21L58.83,623.98L58.82,624.46L59.41,625.83L60.2,626.84L60.58,627.44L59.77,627.93L58.14,628.64L56.72,629.07L56.11,629.06L52.07,627.01L49.7,625.73L47.6,624.56L46.99,623.41L46.55,621.75L46.34,620.25L46.24,619.67L44.98,615.06L44.73,614.26L41.89,606.98L41.33,606.35L40.54,605.88L39.37,605.72L38.84,605.95L38.64,606.67L38.62,607.79L38.27,608.37L35.35,608.18L34.77,607.96L30.13,604.58L29.51,603.64L28.84,602.08L28.39,601.66L24.37,601.82L24.24,602.52L24.29,602.92L24.35,603.69L24.37,604.49L23.72,604.58L19.07,603.14L17.51,602.59L17.91,601.93L18.11,601.6L18.19,601.47L18.27,601.16L18.28,600.51L18.23,599.61L18.07,598.16L17.86,597.06L16.7,591.62L14.82,583.2L14.78,583L17.16,580.91L17.37,580.77L17.83,580.53L18.62,580.32L18.85,580.22L19.06,580.06L20.86,577.81L20.98,577.49L21.03,577.14L21.04,576.49L21.04,575.54L20.92,573.75L20.86,573.11L20.72,572.59L20.6,572.35L20.46,572.11L20.15,571.7L18.73,569.89L19.71,569.09L20.32,568.64L22.46,567.22L22.75,567.17L23.07,567.26L23.54,567.55L23.82,567.66L24.5,567.79L26.43,567.8L27.02,567.75L27.3,567.67L27.9,567.22L28.67,566.52L31.79,563.43L32.15,563.04L35.8,558.43L36.2,557.76L36.52,556.6L36.65,555.92L36.71,555.55L36.76,555.2L36.88,554.14L37.01,552.83L37.02,552.5L37.03,552.17L37.01,551.55L36.92,550.65L37.54,544.07L37.81,543.55L38.71,541.73L39.18,540.6L39.38,539.22L39.52,538.27L39.65,537.22L39.66,536.89L39.6,536.28L39.3,534.3L39.12,533.78L36.96,528.23L34.83,523.91L33.8,521.72L33.61,521.21L33.23,520.18L32.94,519.08L32.87,518.81L32.48,517.13L31.75,514.34L30.78,511.15L30.08,509.68L29.77,509.26L29.34,508.59L29.22,508.35L29.15,508.08L29.29,507.84L29.48,507.63L30.14,507.2L31.37,506.61L33.85,505.46L34.37,505.28L35.02,505.25L35.7,505.28L36.81,505.45L38.58,505.6L39.51,505.51L40.03,505.33z"/>
		<path id="SE-Y" title="Västernorrland" class="land" d="M147.39,551.85L147.66,552.28L147.79,552.5L148.48,552.53L148.95,552.34L151.6,550.72L151.74,550.6L152.29,550.12L152.94,549.16L153.11,548.65L153.13,547.96L153.3,547.5L154.71,547.46L156.13,547.93L157.28,548.63L160.59,546.11L160.76,546.42L162,548.32L162.52,548.91L164.29,549.72L164.92,550.13L164.31,555.15L164.19,556.07L163.69,558.87L163.2,559.68L162.75,560.15L160.69,561.57L158.36,564.69L158.33,567.58L157.92,568.71L157.28,569.76L156.25,570.79L155.73,570.63L154.31,569.19L153.84,569.12L151.63,569.63L150.09,570.31L148.71,572.94L148.36,573.81L148.38,574.35L149.15,575.25L149.86,575.71L151.09,577.98L151.37,578.79L152.14,583.56L151.12,583.53L150.08,584.91L146.77,585.47L146.67,585.24L145.75,583.72L145.57,583.53L144.22,582.29L143.87,582.22L143.6,582.27L143.39,582.4L142.54,582.95L142.38,583.19L142.43,583.45L143.07,584.24L143.61,584.79L143.75,585.01L143.71,585.33L143.64,585.69L143.51,585.95L142.21,587.87L141.77,588.1L138.1,589.88L133.99,589.79L133.74,589.77L131.97,589.47L131.71,589.36L131.04,588.88L130.45,588.36L130.22,588.2L129.96,588.09L129.82,588.23L129.87,588.5L129.97,588.74L130.39,589.37L131.03,590.16L131.21,590.34L131.44,590.5L131.96,590.75L132.27,590.86L133.75,591.09L134.08,591.12L136.59,590.88L136.19,590.96L136.19,592.22L136.27,593.26L136.48,593.84L136.44,594.33L135.74,595.68L135.1,595.94L133.75,596.21L133.16,596.25L132.63,596.25L130.85,596.08L129.97,595.78L129.42,596.01L128.84,596.44L127.65,597.43L125.74,600.36L125.66,601.04L125.72,601.6L125.64,602.23L125.29,603.29L124.74,603.59L123.18,603.82L123.6,601.89L120.79,600.93L118.35,599.44L118.67,594.41L118.91,593.78L119.99,593.78L120.73,593.38L121.39,592.89L121.42,592.37L121.16,588.78L120.9,587.7L120.68,587.13L118.68,583.94L117.9,582L116.63,578.45L116.34,577.21L115.93,575.74L115.44,574.46L113.65,570.55L113.52,570.46L113.97,569.44L114.63,568.11L115.69,566.15L116.04,565.61L116.53,565.42L117.38,565.39L118,565.52L118.44,566.11L119.82,566.24L120.51,565.71L120.9,564.73L121.56,562.8L121.7,562.23L121.2,561.79L120.74,561.38L120.75,560.82L120.95,560.08L122.49,555.13L123.44,554.17L127.71,553.11L129.6,552.83L132.62,555.33L133.09,555.77L132.86,556.86L132.73,557.36L132.8,558.12L133.04,558.62L133.58,559.12L135.88,559.27L136.55,559.19L137.88,558.75L138.44,558.48L139.05,557.99L142.83,555.05L145.28,553.19z"/>
		<path id="SE-U" title="Västmanland" class="land" d="M168.51,432.4l-0.74,-0.13l-0.33,-0.13l-0.58,-0.29l-0.15,-0.24l-0.1,-0.27l-0.21,-1.17l0.04,-0.36l0.09,-0.38l-0.01,-0.32l-0.16,-0.89l-0.2,-0.52l-0.59,-0.95l-0.1,-0.27l-0.05,-0.29l0.16,-0.16l0.87,0.43l1.5,0.3l0.24,0.19l0.23,0.78l0.15,0.24l0.1,0.25l0.1,0.59l0.15,0.24l0.24,0.17l0.15,0.24l0.11,0.59l-0.07,0.32l0.06,0.29l0.1,0.27l0.02,0.65l0.39,0.41l0.15,0.24l-0.88,0.16L168.51,432.4zM183.44,414.85l-0.21,-0.13l-0.15,-0.24l-0.25,-0.51l-0.1,-0.27l-0.1,-0.59l0.09,-0.7l0.44,-1.33l0.18,-0.24l0.38,-0.24l0.27,-0.1l1.56,0.29l0.31,0.08l0.15,0.24l0.16,0.35l0.1,0.61l-0.05,0.35l-1.08,1.45l-0.18,0.24l-0.21,0.19l-1.02,0.5L183.44,414.85zM216.72,368.61h-0.33l-0.19,0.25l-0.16,0.3l-0.13,0.34l-0.1,0.39l0.04,1.31l0.04,0.64l-1.24,4.79l-2.83,3.87l-1.5,4.86l-0.22,0.19l-0.3,0.05l-0.26,-0.11l-1.7,-1.97l-0.15,-0.26l-0.1,-0.26l0.04,-0.37l0.01,-0.33l-0.24,-0.85l-1.39,-1.61l-0.37,-0.05l-2.06,1.28l-0.15,0.09l-0.08,0.13l-0.05,0.19l0.06,0.17l0.18,0.1l0.98,0.37l0.97,0.41l0.64,0.99l0.19,0.21l-0.47,0.88l-2.98,1.74l-0.23,-0.05l-0.39,-0.44l-0.58,0.15l-2.43,1.59l-2.12,1.35l-0.21,0.19l-0.15,0.29l-1.69,4.31l0.95,2.87l0.39,0.08l0.34,0.13l0.25,0.19l0.15,0.24l0.24,0.52l0.1,0.6l-0.1,0.26l-2.71,5.13l-0.18,0.24l-6.83,4.6l-0.24,0.14l-1.94,0.59l-1.14,-0.88l0.57,-1.33l0.65,-0.02l0.24,-0.14l0.18,-0.24l-0.01,-0.32l-0.19,-0.22l-1.7,-0.93l-0.95,-0.14l-1.38,0.98l-0.27,0.63l0.53,4.66l0.26,1.49l0.01,0.66l-1.26,1.37l-0.28,-0.03l-1.91,0.32l0.1,0.27l0.2,0.21l2.14,1.24l1.81,0.46l0.29,0.16l0.45,1.69l-0.18,0.24l-5.61,5.88l-0.21,0.19l-0.27,0.1l-0.35,-0.03l-0.59,-0.95l-0.24,-0.17l-0.35,-0.05l-1.15,0.25l-0.8,0.3l-0.21,0.19l-0.71,0.97l-0.12,0.35l0.2,0.52l0.39,0.41l0.24,0.17l-0.37,0.57l-1.38,0.21l-0.35,-0.05l-1.1,-0.3l-0.48,-0.35l-0.2,-0.21l-0.25,-0.51l-0.4,-1.05l-0.25,-0.51l-0.79,-1.16l-0.98,-1.35l-0.4,-0.41l-0.35,-0.05l-0.21,0.21l-1.77,2.43l-0.15,0.29l-0.09,0.38l0.9,6.84l0.32,1.77l0.1,0.27l2.36,3.34l0.98,0.4l1.31,0.47l0.66,0.17l1.24,0.44l0.57,0.3l0.24,0.17l-0.13,0.21l-1.31,1.02l-1.15,0.79l-0.3,-0.08l-0.2,-0.21l-0.05,-0.28l-0.52,-0.01l-0.16,0.07l-0.05,0.23l-0.65,4.26l-0.59,-0.21l-1.71,-0.47l-1.27,-0.14l-3.61,-0.36l-4.47,-0.86l-3.08,-0.68l-0.95,-0.38l-4.09,-1.12l-4.54,-0.98l-3.09,-0.64l-1.28,0.03l-0.58,0.09l-2.43,-0.05l-1.86,-0.38l-6.14,-1.42l-2.23,-0.95l-2.88,-1.28l-1.96,-0.93l-1.49,-0.52l-1.64,-0.21h-0.51l-2.39,0.39l-0.89,0.62l-0.94,0.99l-1.01,0.91l-1.03,0.87l-0.37,0.27l-0.49,-0.49l-0.75,-0.44L109,437.6l-0.56,0.33l-1.29,1.1l-0.56,0.44l-3.1,-1.73l-2.39,-1.39l-3.83,-5.37l-0.82,-10.56l6.79,-0.09l0.73,0.21l0.49,0.33l0.58,0.54l1.19,0.62l0.59,-0.21l1.32,-1.02l2.89,-1.11l2.2,-0.3l0.56,-0.11l7.19,-1.94l1.47,-0.48l1.81,-1l4.95,-2.28l0.79,0.05l0.67,0.26l0.91,0.69l0.87,0.3l0.65,0.08l0.65,-0.1l4.42,-0.96l1.85,-0.93l0.23,-0.74l0.57,-1.63l0.85,-1.65l0.32,-0.53l3.13,-3.93l1.63,-1.83l1.49,-1.4l1.88,-0.6l1.77,-0.1l0.87,-0.13l1.54,-0.29l1.54,-0.66l-6.85,-8.17l-3.14,-3.66l-1.24,-1.41l-1.77,-1.8l-4.43,-3.55l-1.29,-0.93l-1.12,-0.93l-2.52,-2.14l-1.09,-0.98l-4.1,-8.58l-0.48,-2.74l-0.26,-0.86l-0.51,-0.81l-0.83,-1.22l-0.52,-0.59l-0.83,-0.76l-0.65,-0.69l-0.3,-1.29l1.39,-0.64l0.62,-0.23l1.4,-0.4l3.67,-0.48l1.84,-0.12l2.09,0.33l1.93,-0.31l4.41,-2.17l2.66,-0.65l0.58,-0.58l-0.1,-2.24l-0.1,-1l-0.14,-0.86l0.11,-0.98l0.4,-1.86l0.63,-2.15l0.18,-0.52l0.98,-2.05l0.79,-1.3l1.64,-2.27l2.4,2.47l0.61,0.4l3.24,0.45l4.06,0.85l2.83,0.62l1.51,0.27l4.84,0.73l4.17,0.38l4.39,0.25l4.07,-1.57l9.6,-4.5l1.6,-0.55l0.9,-0.12l0.54,0.27l0.5,0.38l0.18,0.65l0.07,0.65l-0.43,1.07l-0.32,0.6l-0.09,0.82l0.15,1.23l0.16,0.55l0.59,1.8l0.43,0.7l0.55,0.48l0.54,0.33l0.54,0.23l7.05,2.81l0.79,0.23l0.54,0.02l0.93,-0.38l1.11,1.14l5.18,7.69l4.06,7.57l0.29,0.77L216.72,368.61z"/>
	</g>
</svg>
